SS:6.0
RIGHT_BORDER_X:255.0
level,win/fail,% travelled,run time,game ticks,planning time,total plannings,nodes evaluated,most backtracked nodes
Mario-1,true,1.00,106,447,83,3,768
Mario-2,true,1.00,206,322,191,6,819
Mario-3,true,1.00,33,290,15,1,328
Mario-4,true,1.00,1565,455,1471,42,24204
Mario-5,true,1.00,221,463,177,5,1564
Mario-6,true,1.00,371,288,344,10,6773
Mario-7,true,1.00,12,452,7,1,398
Mario-8,true,1.00,4042,321,4037,119,230552
Mario-9,true,1.00,35,395,25,1,199
Mario-10,true,1.00,167,305,149,4,2341
Mario-11,true,1.00,33,412,27,1,441
Mario-12,true,1.00,535,565,512,15,6640
Mario-13,true,1.00,8,323,5,1,246
Mario-14,true,1.00,21,389,6,1,227
Mario-15,true,1.00,92,850,71,2,1945
