SS:7.0
RIGHT_BORDER_X:135.0
level,win/fail,% travelled,run time,game ticks,planning time,total plannings,nodes evaluated,most backtracked nodes
Krys-1,true,1.00,13703,541,13623,423,706084
Krys-2,true,1.00,4157,373,4155,124,170987
Krys-3,true,1.00,9785,490,9758,303,496054
Krys-4,true,1.00,7822,401,7819,240,419017
Krys-5,true,1.00,13,357,10,1,494
Krys-6,true,1.00,809,384,795,24,37849
Krys-7,true,1.00,24,395,8,1,426
Krys-8,true,1.00,96,409,94,3,4297
Krys-9,true,1.00,11,369,8,1,404
Krys-10,true,1.00,828,383,812,24,31125
Krys-11,true,1.00,15,404,12,1,489
Krys-12,false,0.70,32074,999,31976,999,1725834
Krys-13,true,1.00,48,440,32,1,518
Krys-14,true,1.00,6725,389,6722,208,300841
Krys-15,true,1.00,1807,379,1781,54,92687
Krys-16,true,1.00,6183,407,6180,192,281866
Krys-17,true,1.00,8609,436,8607,264,469556
Krys-18,true,1.00,32,401,26,1,1219
Krys-19,true,1.00,1063,409,1060,31,48610
Krys-20,true,1.00,4244,423,4223,128,208372
Krys-21,true,1.00,10,378,7,1,369
Krys-22,true,1.00,22,368,11,1,478
Krys-23,true,1.00,1543,438,1538,47,67560
Krys-24,true,1.00,9265,476,9262,283,483264
Krys-25,true,1.00,1546,411,1543,47,84115
Krys-26,true,1.00,12,359,9,1,487
Krys-27,true,1.00,6008,398,6006,182,292078
Krys-28,true,1.00,8774,441,8773,275,450503
Krys-29,true,1.00,5537,446,5535,168,317761
Krys-30,true,1.00,10252,490,10229,311,505014
Krys-31,true,1.00,62,384,58,2,1606
Krys-32,true,1.00,14,430,11,1,513
Krys-33,true,1.00,13,402,10,1,448
Krys-34,true,1.00,624,386,622,19,33876
Krys-35,true,1.00,2814,372,2811,85,142812
Krys-36,true,1.00,11578,431,11577,351,630318
Krys-37,true,1.00,2769,419,2767,84,161061
Krys-38,true,1.00,519,428,517,16,30993
Krys-39,true,1.00,10781,407,10779,327,591825
Krys-40,true,1.00,9405,419,9404,285,527758
Krys-41,false,0.70,31944,999,31944,999,1836271
Krys-42,true,1.00,13,366,10,1,479
Krys-43,true,1.00,41,353,25,1,489
Krys-44,true,1.00,8246,435,8244,254,500222
Krys-45,true,1.00,4602,423,4599,143,207953
Krys-46,true,1.00,7416,448,7413,225,395882
Krys-47,true,1.00,27,453,24,1,1122
Krys-48,true,1.00,16,374,13,1,606
Krys-49,true,1.00,29,464,25,1,1080
Krys-50,true,1.00,10332,483,10331,314,519938
Krys-51,true,1.00,34,411,31,1,1559
Krys-52,true,1.00,524,378,521,16,23391
Krys-53,true,1.00,10852,478,10851,331,577950
Krys-54,true,1.00,3498,425,3496,106,188000
Krys-55,true,1.00,10334,457,10331,315,574245
Krys-56,true,1.00,3671,350,3662,112,177701
Krys-57,true,1.00,15,362,12,1,640
Krys-58,true,1.00,6799,423,6797,209,375135
Krys-59,true,1.00,8500,381,8499,260,400219
Krys-60,true,1.00,11213,410,11190,339,599854
Krys-61,true,1.00,5598,376,5596,170,287127
Krys-62,true,1.00,6770,431,6765,209,301214
Krys-63,true,1.00,14569,601,14567,450,767264
Krys-64,true,1.00,1777,444,1774,54,103597
Krys-65,true,1.00,8642,435,8641,266,438489
Krys-66,true,1.00,11379,475,11378,345,523094
Krys-67,true,1.00,10329,477,10327,314,579309
Krys-68,true,1.00,13,375,10,1,575
Krys-69,true,1.00,8744,453,8742,266,430231
Krys-70,true,1.00,10382,435,10381,315,544155
Krys-71,true,1.00,31,413,29,1,664
Krys-72,true,1.00,22,419,19,1,514
Krys-73,true,1.00,11663,491,11662,356,595950
Krys-74,true,1.00,17,391,14,1,641
Krys-75,true,1.00,32,392,29,1,1262
Krys-76,true,1.00,4519,375,4518,137,225163
Krys-77,true,1.00,12,401,9,1,459
Krys-78,true,1.00,9831,472,9829,298,513699
Krys-79,true,1.00,167,400,164,5,7359
Krys-80,true,1.00,24,453,21,1,951
Krys-81,true,1.00,18,386,13,1,659
Krys-82,true,1.00,1186,362,1183,36,55449
Krys-83,true,1.00,12663,465,12659,385,648767
Krys-84,true,1.00,9,385,7,1,325
Krys-85,true,1.00,6971,441,6969,221,380982
Krys-86,true,1.00,8179,466,8177,250,467883
Krys-87,true,1.00,14,392,11,1,496
Krys-88,true,1.00,8155,425,8151,247,444259
Krys-89,true,1.00,25,408,22,1,995
Krys-90,true,1.00,56,363,53,2,3142
Krys-91,true,1.00,15,404,12,1,518
Krys-92,true,1.00,11056,425,11055,340,542404
Krys-93,true,1.00,58,357,55,2,2806
Krys-94,true,1.00,14,380,11,1,605
Krys-95,true,1.00,554,370,551,17,25054
Krys-96,true,1.00,12,407,10,1,520
Krys-97,true,1.00,6223,362,6221,189,320611
Krys-98,true,1.00,12977,489,12976,400,622735
Krys-99,true,1.00,6521,403,6519,198,293212
Krys-100,true,1.00,9,376,7,1,357
