SS:10.0
RIGHT_BORDER_X:255.0
level,win/fail,% travelled,run time,game ticks,planning time,total plannings,nodes evaluated,most backtracked nodes
Mario-1,true,1.00,60,448,14,1,284
Mario-2,true,1.00,138,322,107,3,554
Mario-3,true,1.00,432,295,420,12,2873
Mario-4,true,1.00,1619,428,1575,45,23893
Mario-5,true,1.00,55,462,21,1,410
Mario-6,true,1.00,586,288,563,16,17177
Mario-7,true,1.00,50,452,19,1,398
Mario-8,true,1.00,8902,393,8880,265,337053
Mario-9,true,1.00,58,395,22,1,199
Mario-10,true,1.00,667,305,628,19,6798
Mario-11,true,1.00,59,412,44,1,441
Mario-12,true,1.00,308,567,284,8,5391
Mario-13,true,1.00,26,323,11,1,246
Mario-14,true,1.00,33,389,9,1,227
Mario-15,true,1.00,695,833,652,19,11066
