SS:30.0
RIGHT_BORDER_X:150.0
level,win/fail,% travelled,run time,game ticks,planning time,total plannings,nodes evaluated,most backtracked nodes
Krys-1,true,1.00,12611,501,12587,393,413992
Krys-2,true,1.00,7045,373,7038,211,203592
Krys-3,false,0.70,31028,999,31001,999,1045749
Krys-4,true,1.00,9940,412,9885,305,323926
Krys-5,true,1.00,50,357,19,1,494
Krys-6,true,1.00,5795,374,5789,179,178326
Krys-7,true,1.00,41,395,31,1,426
Krys-8,true,1.00,2736,408,2725,83,86102
Krys-9,true,1.00,58,369,32,1,404
Krys-10,true,1.00,7662,422,7657,233,239123
Krys-11,true,1.00,100,420,55,2,1004
Krys-12,true,1.00,9216,446,9211,280,293688
Krys-13,true,1.00,46,440,34,1,518
Krys-14,true,1.00,7289,375,7286,224,229645
Krys-15,true,1.00,9478,432,9474,287,321468
Krys-16,true,1.00,6308,416,6301,195,192459
Krys-17,true,1.00,9651,467,9634,295,337949
Krys-18,true,1.00,62,384,50,2,1386
Krys-19,true,1.00,5878,394,5871,177,183891
Krys-20,true,1.00,8223,439,8217,249,267260
Krys-21,true,1.00,26,378,15,1,369
Krys-22,true,1.00,26,368,16,1,478
Krys-23,true,1.00,1546,438,1534,47,49865
Krys-24,true,1.00,9686,485,9669,295,322440
Krys-25,true,1.00,1661,420,1650,50,56846
Krys-26,true,1.00,35,359,18,1,487
Krys-27,true,1.00,6308,398,6302,191,194790
Krys-28,true,1.00,10837,486,10797,332,361796
Krys-29,true,1.00,5621,442,5614,170,200689
Krys-30,true,1.00,9395,453,9389,286,300366
Krys-31,true,1.00,73,384,63,2,1852
Krys-32,true,1.00,31,430,17,1,513
Krys-33,true,1.00,30,402,18,1,448
Krys-34,true,1.00,6113,448,6107,185,214932
Krys-35,true,1.00,3590,383,3567,108,115661
Krys-36,true,1.00,12246,447,12244,371,422621
Krys-37,true,1.00,3893,454,3883,122,138217
Krys-38,true,1.00,2861,417,2840,86,102067
Krys-39,true,1.00,10767,406,10763,326,361049
Krys-40,true,1.00,9806,446,9802,297,344466
Krys-41,true,1.00,8850,416,8845,268,304780
Krys-42,true,1.00,28,366,17,1,479
Krys-43,true,1.00,68,351,53,2,754
Krys-44,true,1.00,8201,414,8195,256,302390
Krys-45,true,1.00,4616,423,4610,143,137833
Krys-46,true,1.00,7453,436,7445,228,255469
Krys-47,true,1.00,433,444,423,13,13632
Krys-48,true,1.00,33,374,25,1,606
Krys-49,true,1.00,81,435,71,2,2009
Krys-50,true,1.00,11316,492,11314,344,372296
Krys-51,true,1.00,10186,423,10184,309,331543
Krys-52,true,1.00,3822,378,3814,115,116334
Krys-53,true,1.00,11249,501,11243,347,391459
Krys-54,true,1.00,9125,416,9120,286,317008
Krys-55,true,1.00,10823,462,10817,329,380385
Krys-56,false,0.59,31977,999,31975,999,1100223
Krys-57,true,1.00,58,362,20,1,640
Krys-58,true,1.00,8063,441,8060,245,283972
Krys-59,true,1.00,8759,392,8740,271,275076
Krys-60,true,1.00,11659,433,11657,353,403642
Krys-61,true,1.00,4424,379,4416,134,142237
Krys-62,true,1.00,8964,413,8959,278,273008
Krys-63,true,1.00,13833,581,13829,430,471380
Krys-64,true,1.00,2541,443,2531,77,93621
Krys-65,true,1.00,9209,440,9204,284,304528
Krys-66,true,1.00,12504,518,12500,379,389652
Krys-67,false,0.71,10101,319,10100,319,357820
Krys-68,true,1.00,65,375,22,1,575
Krys-69,true,1.00,11839,496,11836,366,390256
Krys-70,false,0.80,31738,999,31736,999,1102170
Krys-71,true,1.00,35,413,25,1,664
Krys-72,true,1.00,116,427,107,3,1831
Krys-73,true,1.00,11335,478,11332,347,373560
Krys-74,true,1.00,34,391,24,1,641
Krys-75,true,1.00,231,392,220,7,6391
Krys-76,true,1.00,5221,399,5214,158,166882
Krys-77,true,1.00,29,401,18,1,459
Krys-78,false,0.70,32123,999,32121,999,1081279
Krys-79,true,1.00,9614,366,9612,292,287565
Krys-80,true,1.00,52,453,37,1,951
Krys-81,true,1.00,34,386,22,1,659
Krys-82,true,1.00,4745,410,4736,144,146154
Krys-83,true,1.00,13283,483,13279,404,436043
Krys-84,true,1.00,23,385,13,1,325
Krys-85,true,1.00,8144,416,8138,253,282433
Krys-86,true,1.00,8269,453,8265,252,303306
Krys-87,true,1.00,30,392,20,1,496
Krys-88,true,1.00,8112,395,8109,246,283394
Krys-89,true,1.00,80,415,71,2,1963
Krys-90,true,1.00,103,364,90,3,3171
Krys-91,true,1.00,31,404,18,1,518
Krys-92,true,1.00,11726,447,11722,360,378633
Krys-93,true,1.00,6014,362,6005,183,196062
Krys-94,true,1.00,32,380,20,1,605
Krys-95,true,1.00,687,368,679,21,20218
Krys-96,true,1.00,28,407,17,1,520
Krys-97,true,1.00,7296,396,7291,222,242787
Krys-98,true,1.00,14429,563,14426,448,460370
Krys-99,true,1.00,6532,403,6525,198,196027
Krys-100,true,1.00,22,376,13,1,357
