SS:2.0
RIGHT_BORDER_X:150.0
level,win/fail,% travelled,run time,game ticks,planning time,total plannings,nodes evaluated,most backtracked nodes
Mario-1,true,1.00,114,447,93,3,692
Mario-2,true,1.00,39,323,17,1,196
Mario-3,true,1.00,32,290,27,1,328
Mario-4,true,1.00,2001,457,1951,56,33777
Mario-5,true,1.00,326,464,299,9,945
Mario-6,true,1.00,38,288,32,1,1271
Mario-7,true,1.00,28,452,7,1,398
Mario-8,true,1.00,4493,324,4477,131,253984
Mario-9,true,1.00,32,395,23,1,199
Mario-10,true,1.00,595,305,573,16,8363
Mario-11,true,1.00,30,412,10,1,441
Mario-12,true,1.00,80,567,68,2,1845
Mario-13,true,1.00,6,323,4,1,246
Mario-14,true,1.00,10,389,6,1,227
Mario-15,true,1.00,283,850,270,8,6826
