SS:4.0
RIGHT_BORDER_X:215.0
level,win/fail,% travelled,run time,game ticks,planning time,total plannings,nodes evaluated,most backtracked nodes
Krys-1,true,1.00,12616,511,12575,387,640643
Krys-2,true,1.00,4174,373,4171,124,172271
Krys-3,true,1.00,9734,490,9728,303,515430
Krys-4,true,1.00,7808,401,7804,240,436642
Krys-5,true,1.00,59,357,10,1,494
Krys-6,true,1.00,886,389,863,26,39265
Krys-7,true,1.00,27,395,8,1,426
Krys-8,true,1.00,230,414,202,6,5840
Krys-9,true,1.00,12,369,9,1,404
Krys-10,true,1.00,1638,416,1634,51,71544
Krys-11,true,1.00,16,404,12,1,489
Krys-12,false,0.70,31988,999,31929,999,1797135
Krys-13,true,1.00,27,440,12,1,518
Krys-14,true,1.00,6764,388,6749,207,317940
Krys-15,true,1.00,1787,398,1784,54,91391
Krys-16,true,1.00,6169,407,6165,192,285818
Krys-17,true,1.00,8607,436,8605,264,475453
Krys-18,true,1.00,62,384,59,2,1435
Krys-19,true,1.00,1058,409,1050,31,47496
Krys-20,true,1.00,4616,425,4587,139,229300
Krys-21,true,1.00,22,378,8,1,369
Krys-22,true,1.00,25,368,22,1,478
Krys-23,true,1.00,1535,438,1530,47,72040
Krys-24,true,1.00,9266,476,9264,283,487940
Krys-25,true,1.00,1546,411,1543,47,85470
Krys-26,true,1.00,12,359,9,1,487
Krys-27,true,1.00,6006,398,6004,182,295873
Krys-28,true,1.00,8781,441,8779,275,455693
Krys-29,true,1.00,5537,446,5535,168,320953
Krys-30,true,1.00,10233,490,10231,311,510018
Krys-31,true,1.00,53,384,50,2,2399
Krys-32,true,1.00,14,430,12,1,513
Krys-33,true,1.00,14,402,11,1,448
Krys-34,true,1.00,623,386,620,19,34034
Krys-35,true,1.00,2818,372,2816,85,144072
Krys-36,true,1.00,11604,431,11576,351,634638
Krys-37,true,1.00,2770,419,2768,84,161864
Krys-38,true,1.00,519,428,517,16,31106
Krys-39,true,1.00,10779,407,10779,327,593467
Krys-40,true,1.00,9405,419,9404,285,526426
Krys-41,false,0.70,31971,999,31954,999,1816942
Krys-42,true,1.00,12,366,10,1,479
Krys-43,true,1.00,34,353,31,1,489
Krys-44,true,1.00,8246,435,8245,254,497617
Krys-45,true,1.00,4602,423,4599,143,206566
Krys-46,true,1.00,7416,448,7415,225,393489
Krys-47,true,1.00,27,453,24,1,1122
Krys-48,true,1.00,15,374,12,1,606
Krys-49,true,1.00,27,464,23,1,1080
Krys-50,true,1.00,10336,483,10333,314,515930
Krys-51,true,1.00,34,411,31,1,1559
Krys-52,true,1.00,521,378,518,16,23276
Krys-53,true,1.00,10852,478,10852,331,573575
Krys-54,true,1.00,5055,430,5051,153,266956
Krys-55,true,1.00,10336,457,10331,315,570533
Krys-56,true,1.00,3765,353,3761,115,181500
Krys-57,true,1.00,14,362,11,1,640
Krys-58,true,1.00,6799,423,6797,209,372254
Krys-59,true,1.00,8701,392,8700,271,408438
Krys-60,true,1.00,11186,410,11172,339,593891
Krys-61,true,1.00,5595,376,5593,170,284681
Krys-62,true,1.00,6767,431,6765,209,298549
Krys-63,true,1.00,14077,591,14075,440,734604
Krys-64,true,1.00,1777,444,1776,54,102751
Krys-65,true,1.00,8644,435,8643,266,435250
Krys-66,true,1.00,11380,475,11379,345,518644
Krys-67,true,1.00,10331,477,10330,314,570628
Krys-68,true,1.00,13,375,10,1,575
Krys-69,true,1.00,8778,454,8776,267,427183
Krys-70,true,1.00,10449,437,10448,317,540604
Krys-71,true,1.00,15,413,12,1,664
Krys-72,true,1.00,31,419,27,1,514
Krys-73,true,1.00,11665,491,11664,356,587097
Krys-74,true,1.00,18,391,15,1,641
Krys-75,true,1.00,33,392,30,1,1262
Krys-76,true,1.00,4520,375,4519,137,222868
Krys-77,true,1.00,12,401,9,1,459
Krys-78,true,1.00,10190,474,10189,309,525863
Krys-79,true,1.00,68,400,65,2,2904
Krys-80,true,1.00,26,453,23,1,951
Krys-81,true,1.00,17,386,14,1,659
Krys-82,true,1.00,1186,362,1184,36,54762
Krys-83,true,1.00,12660,465,12657,385,639714
Krys-84,true,1.00,12,385,7,1,325
Krys-85,true,1.00,6971,441,6969,221,376040
Krys-86,true,1.00,8179,466,8178,250,461347
Krys-87,true,1.00,15,392,12,1,496
Krys-88,true,1.00,8154,425,8153,247,432711
Krys-89,true,1.00,25,408,22,1,995
Krys-90,true,1.00,56,363,54,2,3021
Krys-91,true,1.00,15,404,12,1,518
Krys-92,true,1.00,11057,425,11056,340,535194
Krys-93,true,1.00,59,357,57,2,2824
Krys-94,true,1.00,15,380,12,1,605
Krys-95,true,1.00,560,370,550,17,24602
Krys-96,true,1.00,13,407,10,1,520
Krys-97,true,1.00,6225,362,6223,189,314159
Krys-98,true,1.00,12848,484,12847,395,608654
Krys-99,true,1.00,6525,403,6523,198,289616
Krys-100,true,1.00,12,376,6,1,357
