SS:7.0
RIGHT_BORDER_X:75.0
level,win/fail,% travelled,run time,game ticks,planning time,total plannings,nodes evaluated,most backtracked nodes
Mario-1,true,1.00,89,434,62,2,487
Mario-2,true,1.00,35,323,27,1,196
Mario-3,true,1.00,17,290,11,1,328
Mario-4,true,1.00,1996,438,1984,55,32861
Mario-5,true,1.00,451,464,432,12,1140
Mario-6,true,1.00,145,288,130,4,4998
Mario-7,true,1.00,21,452,6,1,398
Mario-8,true,1.00,4693,321,4676,138,270804
Mario-9,true,1.00,56,395,46,1,199
Mario-10,true,1.00,864,305,860,25,11843
Mario-11,true,1.00,37,412,14,1,441
Mario-12,true,1.00,88,567,60,2,1819
Mario-13,true,1.00,6,323,4,1,246
Mario-14,true,1.00,10,389,5,1,227
Mario-15,true,1.00,317,844,288,9,7662
