SS:6.0
RIGHT_BORDER_X:165.0
level,win/fail,% travelled,run time,game ticks,planning time,total plannings,nodes evaluated,most backtracked nodes
Krys-1,true,1.00,11205,510,11183,347,543096
Krys-2,true,1.00,4205,373,4156,124,177932
Krys-3,true,1.00,9757,490,9738,303,504185
Krys-4,true,1.00,7820,401,7818,240,427643
Krys-5,true,1.00,80,357,11,1,494
Krys-6,true,1.00,798,384,795,24,36739
Krys-7,true,1.00,29,395,26,1,426
Krys-8,true,1.00,426,414,398,12,11488
Krys-9,true,1.00,26,369,8,1,404
Krys-10,true,1.00,797,383,792,24,34369
Krys-11,true,1.00,17,404,13,1,489
Krys-12,false,0.70,32045,999,32004,999,1755890
Krys-13,true,1.00,33,440,10,1,518
Krys-14,true,1.00,6778,388,6760,207,316773
Krys-15,true,1.00,1655,399,1651,50,85690
Krys-16,true,1.00,6176,407,6174,192,285262
Krys-17,true,1.00,8623,436,8622,264,472058
Krys-18,true,1.00,33,401,26,1,1219
Krys-19,true,1.00,1131,409,1129,34,51754
Krys-20,true,1.00,4780,412,4759,144,229285
Krys-21,true,1.00,24,378,17,1,369
Krys-22,true,1.00,32,368,9,1,478
Krys-23,true,1.00,1547,438,1544,47,71760
Krys-24,true,1.00,9268,476,9267,283,483499
Krys-25,true,1.00,1546,411,1543,47,84884
Krys-26,true,1.00,12,359,9,1,487
Krys-27,true,1.00,6007,398,6005,182,294746
Krys-28,true,1.00,8777,441,8776,275,456574
Krys-29,true,1.00,5544,446,5536,168,322020
Krys-30,true,1.00,10244,490,10231,311,511867
Krys-31,true,1.00,53,384,51,2,2183
Krys-32,true,1.00,14,430,11,1,513
Krys-33,true,1.00,14,402,10,1,448
Krys-34,true,1.00,623,386,620,19,34338
Krys-35,true,1.00,2812,372,2810,85,143248
Krys-36,true,1.00,11575,431,11574,351,636561
Krys-37,true,1.00,2707,423,2704,82,160728
Krys-38,true,1.00,518,428,515,16,31370
Krys-39,true,1.00,10800,407,10782,327,594016
Krys-40,true,1.00,9404,419,9403,285,536025
Krys-41,false,0.70,31942,999,31942,999,1862049
Krys-42,true,1.00,12,366,9,1,479
Krys-43,true,1.00,30,353,27,1,489
Krys-44,true,1.00,8191,454,8189,252,505739
Krys-45,true,1.00,4604,423,4602,143,211307
Krys-46,true,1.00,7393,444,7391,224,401082
Krys-47,true,1.00,25,453,22,1,1122
Krys-48,true,1.00,15,374,12,1,606
Krys-49,true,1.00,27,464,24,1,1080
Krys-50,true,1.00,10335,483,10334,314,526940
Krys-51,true,1.00,34,411,31,1,1559
Krys-52,true,1.00,522,378,519,16,23513
Krys-53,true,1.00,10852,478,10851,331,583484
Krys-54,true,1.00,3499,425,3497,106,191019
Krys-55,true,1.00,10332,457,10331,315,584727
Krys-56,true,1.00,3303,353,3299,100,162047
Krys-57,true,1.00,14,362,12,1,640
Krys-58,true,1.00,6799,423,6797,209,379475
Krys-59,true,1.00,8842,394,8841,273,419981
Krys-60,true,1.00,11195,410,11182,339,605567
Krys-61,true,1.00,5597,376,5595,170,290037
Krys-62,true,1.00,6766,431,6764,209,303362
Krys-63,true,1.00,13677,584,13675,433,731036
Krys-64,true,1.00,1776,444,1774,54,105078
Krys-65,true,1.00,8649,435,8648,266,443343
Krys-66,true,1.00,11377,475,11376,345,530240
Krys-67,true,1.00,10374,477,10372,314,590928
Krys-68,true,1.00,13,375,11,1,575
Krys-69,true,1.00,9928,473,9927,310,507087
Krys-70,true,1.00,10382,435,10381,315,550136
Krys-71,true,1.00,26,413,23,1,664
Krys-72,true,1.00,23,419,20,1,514
Krys-73,true,1.00,11678,491,11677,356,599449
Krys-74,true,1.00,17,391,14,1,641
Krys-75,true,1.00,32,392,29,1,1262
Krys-76,true,1.00,4519,375,4517,137,228840
Krys-77,true,1.00,12,401,9,1,459
Krys-78,true,1.00,9830,472,9828,298,522283
Krys-79,true,1.00,68,400,64,2,2941
Krys-80,true,1.00,24,453,20,1,951
Krys-81,true,1.00,17,386,13,1,659
Krys-82,true,1.00,1187,362,1183,36,56197
Krys-83,true,1.00,12667,465,12664,385,640470
Krys-84,true,1.00,25,385,15,1,325
Krys-85,true,1.00,7021,442,7019,222,365772
Krys-86,true,1.00,8179,466,8177,250,470760
Krys-87,true,1.00,14,392,12,1,496
Krys-88,true,1.00,8153,425,8148,247,445999
Krys-89,true,1.00,26,408,23,1,995
Krys-90,true,1.00,55,363,53,2,3123
Krys-91,true,1.00,14,404,11,1,518
Krys-92,true,1.00,11060,425,11060,340,545804
Krys-93,true,1.00,37,389,32,1,1651
Krys-94,true,1.00,14,380,12,1,605
Krys-95,true,1.00,560,370,550,17,25161
Krys-96,true,1.00,12,407,9,1,520
Krys-97,true,1.00,6224,362,6223,189,322531
Krys-98,true,1.00,12845,484,12845,395,623400
Krys-99,true,1.00,5431,412,5429,165,245986
Krys-100,true,1.00,10,376,7,1,357
