SS:9.0
RIGHT_BORDER_X:235.0
level,win/fail,% travelled,run time,game ticks,planning time,total plannings,nodes evaluated,most backtracked nodes
Krys-1,true,1.00,13215,520,13212,412,455173
Krys-2,true,1.00,7015,373,6978,211,215188
Krys-3,false,0.70,31452,999,31426,999,1136098
Krys-4,true,1.00,9926,412,9892,305,346937
Krys-5,true,1.00,58,357,30,1,494
Krys-6,true,1.00,5031,372,5024,156,171744
Krys-7,true,1.00,25,395,15,1,426
Krys-8,true,1.00,1858,396,1849,56,62244
Krys-9,true,1.00,23,369,12,1,404
Krys-10,true,1.00,4786,415,4780,146,158920
Krys-11,true,1.00,46,404,19,1,489
Krys-12,true,1.00,9262,447,9256,281,313577
Krys-13,true,1.00,32,440,17,1,518
Krys-14,true,1.00,7289,375,7285,224,244174
Krys-15,true,1.00,7331,395,7327,222,259667
Krys-16,true,1.00,6304,416,6297,195,206781
Krys-17,true,1.00,8826,442,8806,270,325178
Krys-18,true,1.00,60,384,50,2,1403
Krys-19,true,1.00,5875,394,5871,177,195665
Krys-20,true,1.00,7305,438,7301,221,252330
Krys-21,true,1.00,24,378,16,1,369
Krys-22,true,1.00,26,368,15,1,478
Krys-23,true,1.00,1545,438,1535,47,52558
Krys-24,true,1.00,9287,476,9277,283,331251
Krys-25,true,1.00,1659,420,1648,50,60973
Krys-26,true,1.00,34,359,17,1,487
Krys-27,true,1.00,6210,398,6206,188,205458
Krys-28,true,1.00,10821,486,10784,332,387604
Krys-29,true,1.00,5620,442,5612,170,212509
Krys-30,true,1.00,9473,457,9470,288,323827
Krys-31,true,1.00,70,384,60,2,1915
Krys-32,true,1.00,30,430,22,1,513
Krys-33,true,1.00,28,402,19,1,448
Krys-34,true,1.00,4135,448,4124,125,152971
Krys-35,true,1.00,3097,371,3064,93,103832
Krys-36,true,1.00,14514,506,14512,439,509557
Krys-37,true,1.00,3940,454,3932,122,122672
Krys-38,true,1.00,2864,417,2855,86,104298
Krys-39,true,1.00,11322,426,11320,343,415580
Krys-40,true,1.00,9606,431,9603,291,356316
Krys-41,true,1.00,8846,416,8840,268,325761
Krys-42,true,1.00,25,366,17,1,479
Krys-43,true,1.00,60,351,52,2,769
Krys-44,true,1.00,8385,436,8381,258,332449
Krys-45,true,1.00,4613,423,4607,143,150257
Krys-46,true,1.00,7427,439,7417,225,273436
Krys-47,true,1.00,46,453,37,1,1122
Krys-48,true,1.00,30,374,21,1,606
Krys-49,true,1.00,77,435,68,2,2076
Krys-50,true,1.00,11313,492,11309,344,395135
Krys-51,true,1.00,6970,418,6965,212,242249
Krys-52,true,1.00,1750,378,1740,52,53855
Krys-53,true,1.00,11251,501,11247,347,409060
Krys-54,true,1.00,8259,453,8253,254,302258
Krys-55,true,1.00,10655,448,10653,324,396833
Krys-56,false,0.59,31991,999,31975,999,1164104
Krys-57,true,1.00,47,362,41,1,640
Krys-58,true,1.00,8357,454,8336,258,309310
Krys-59,true,1.00,8280,375,8277,254,275136
Krys-60,true,1.00,12368,453,12351,374,449247
Krys-61,true,1.00,8747,441,8743,265,314574
Krys-62,true,1.00,8961,413,8958,278,291121
Krys-63,true,1.00,13830,581,13828,430,503612
Krys-64,true,1.00,2214,438,2207,69,86887
Krys-65,true,1.00,9114,462,9108,281,319566
Krys-66,true,1.00,13028,515,13024,397,423256
Krys-67,false,0.71,10101,319,10100,319,369277
Krys-68,true,1.00,58,375,24,1,575
Krys-69,true,1.00,10938,468,10933,338,373328
Krys-70,false,0.80,31727,999,31727,999,1142556
Krys-71,true,1.00,32,413,21,1,664
Krys-72,true,1.00,32,419,21,1,514
Krys-73,true,1.00,11332,478,11329,347,387186
Krys-74,true,1.00,34,391,24,1,641
Krys-75,true,1.00,230,392,219,7,6526
Krys-76,true,1.00,5221,399,5211,158,171597
Krys-77,true,1.00,27,401,17,1,459
Krys-78,false,0.70,32263,999,32259,999,1050033
Krys-79,true,1.00,9623,366,9622,292,305185
Krys-80,true,1.00,47,453,35,1,951
Krys-81,true,1.00,33,386,25,1,659
Krys-82,true,1.00,4745,410,4735,144,154633
Krys-83,true,1.00,13229,482,13225,402,454887
Krys-84,true,1.00,22,385,12,1,325
Krys-85,true,1.00,8128,416,8123,253,293253
Krys-86,true,1.00,8265,453,8259,252,312401
Krys-87,true,1.00,29,392,17,1,496
Krys-88,true,1.00,8079,394,8076,245,292731
Krys-89,true,1.00,46,408,32,1,995
Krys-90,true,1.00,75,363,69,2,2368
Krys-91,true,1.00,32,404,18,1,518
Krys-92,true,1.00,11724,447,11721,360,391447
Krys-93,true,1.00,3209,367,3202,97,108865
Krys-94,true,1.00,29,380,21,1,605
Krys-95,true,1.00,692,368,675,21,21526
Krys-96,true,1.00,27,407,17,1,520
Krys-97,true,1.00,7294,396,7289,222,256441
Krys-98,true,1.00,13965,526,13962,434,465712
Krys-99,true,1.00,6531,403,6526,198,204245
Krys-100,true,1.00,22,376,12,1,357
