SS:30.0
RIGHT_BORDER_X:255.0
level,win/fail,% travelled,run time,game ticks,planning time,total plannings,nodes evaluated,most backtracked nodes
Krys-1,true,1.00,13286,522,13279,414,403155
Krys-2,true,1.00,7022,373,7013,211,206973
Krys-3,true,1.00,10569,520,10536,324,297360
Krys-4,true,1.00,9872,412,9868,305,355912
Krys-5,true,1.00,60,357,33,1,494
Krys-6,true,1.00,4826,372,4820,150,160737
Krys-7,true,1.00,27,395,16,1,426
Krys-8,true,1.00,1531,408,1517,47,51669
Krys-9,true,1.00,29,369,19,1,404
Krys-10,true,1.00,7662,422,7629,233,254814
Krys-11,true,1.00,53,404,41,1,489
Krys-12,true,1.00,9183,445,9178,279,308296
Krys-13,true,1.00,42,440,28,1,518
Krys-14,true,1.00,7289,375,7285,224,241243
Krys-15,true,1.00,9675,432,9669,293,336201
Krys-16,true,1.00,6304,416,6299,195,201291
Krys-17,true,1.00,8826,442,8807,270,324351
Krys-18,true,1.00,62,384,51,2,985
Krys-19,true,1.00,5880,394,5872,177,194867
Krys-20,true,1.00,8221,439,8215,249,281795
Krys-21,true,1.00,24,378,13,1,369
Krys-22,true,1.00,27,368,17,1,478
Krys-23,true,1.00,1547,438,1537,47,51909
Krys-24,true,1.00,9676,485,9669,295,338775
Krys-25,true,1.00,1667,420,1650,50,60224
Krys-26,true,1.00,35,359,17,1,487
Krys-27,true,1.00,6210,398,6203,188,201555
Krys-28,true,1.00,10823,486,10788,332,382553
Krys-29,true,1.00,5655,442,5633,170,210381
Krys-30,true,1.00,9415,459,9409,286,318189
Krys-31,true,1.00,71,384,60,2,1973
Krys-32,true,1.00,30,430,18,1,513
Krys-33,true,1.00,28,402,18,1,448
Krys-34,true,1.00,3443,448,3435,104,127240
Krys-35,true,1.00,3092,371,3063,93,104342
Krys-36,true,1.00,12246,447,12245,371,401785
Krys-37,true,1.00,2998,449,2988,93,71055
Krys-38,true,1.00,10789,445,10785,329,378518
Krys-39,true,1.00,10811,407,10791,327,388881
Krys-40,true,1.00,9607,431,9604,291,353424
Krys-41,true,1.00,8847,416,8844,268,317907
Krys-42,true,1.00,28,366,16,1,479
Krys-43,true,1.00,53,353,31,1,489
Krys-44,true,1.00,8160,432,8154,254,269784
Krys-45,true,1.00,4615,423,4608,143,144390
Krys-46,true,1.00,7426,439,7419,225,263448
Krys-47,true,1.00,147,453,135,4,4423
Krys-48,true,1.00,31,374,22,1,606
Krys-49,true,1.00,79,435,68,2,2014
Krys-50,true,1.00,11324,492,11320,344,380417
Krys-51,true,1.00,7959,418,7957,242,268195
Krys-52,true,1.00,3915,378,3907,118,121858
Krys-53,true,1.00,11248,501,11242,347,398079
Krys-54,true,1.00,9245,402,9240,290,329094
Krys-55,true,1.00,10750,454,10744,327,350710
Krys-56,false,0.59,31994,999,31987,999,1128815
Krys-57,true,1.00,64,362,20,1,640
Krys-58,true,1.00,8306,454,8271,255,297447
Krys-59,true,1.00,8687,390,8672,269,292985
Krys-60,true,1.00,11661,433,11661,353,433266
Krys-61,true,1.00,8749,441,8744,265,313194
Krys-62,true,1.00,8815,426,8812,270,285399
Krys-63,true,1.00,14688,588,14683,453,449573
Krys-64,true,1.00,2542,443,2531,77,95995
Krys-65,true,1.00,8916,434,8911,275,308860
Krys-66,true,1.00,13027,515,13024,397,441832
Krys-67,false,0.71,10104,319,10102,319,384105
Krys-68,true,1.00,61,375,22,1,575
Krys-69,true,1.00,10886,466,10882,336,386727
Krys-70,false,0.80,31869,999,31868,999,1095799
Krys-71,true,1.00,121,391,103,3,1902
Krys-72,true,1.00,54,419,33,1,514
Krys-73,true,1.00,13862,574,13859,423,400904
Krys-74,true,1.00,35,391,24,1,641
Krys-75,true,1.00,230,392,222,7,6711
Krys-76,true,1.00,5221,399,5212,158,175901
Krys-77,true,1.00,28,401,15,1,459
Krys-78,true,1.00,9944,472,9939,301,310901
Krys-79,true,1.00,9614,366,9612,292,317111
Krys-80,true,1.00,44,453,32,1,951
Krys-81,true,1.00,33,386,21,1,659
Krys-82,true,1.00,4744,410,4735,144,158722
Krys-83,true,1.00,13230,482,13227,402,470138
Krys-84,true,1.00,23,385,12,1,325
Krys-85,true,1.00,8080,415,8072,252,301247
Krys-86,true,1.00,8370,450,8361,255,308493
Krys-87,true,1.00,59,392,42,1,496
Krys-88,true,1.00,8077,394,8074,245,276806
Krys-89,true,1.00,2215,378,2201,67,34514
Krys-90,true,1.00,110,364,99,3,2812
Krys-91,true,1.00,35,404,25,1,518
Krys-92,true,1.00,11726,447,11724,360,397588
Krys-93,true,1.00,576,368,563,17,19435
Krys-94,true,1.00,31,380,21,1,605
Krys-95,true,1.00,686,368,675,21,21722
Krys-96,true,1.00,28,407,18,1,520
Krys-97,true,1.00,7300,396,7293,222,259293
Krys-98,true,1.00,13964,526,13962,434,474847
Krys-99,true,1.00,6531,403,6526,198,208378
Krys-100,true,1.00,23,376,11,1,357
