SS:2.0
RIGHT_BORDER_X:200.0
level,win/fail,% travelled,run time,game ticks,planning time,total plannings,nodes evaluated,most backtracked nodes
patternCount-1,true,1.00,13976,507,13975,424,993684
patternCount-2,true,1.00,11,423,8,1,279
patternCount-3,true,1.00,12,473,8,1,506
patternCount-4,true,1.00,10,448,7,1,341
patternCount-5,true,1.00,8,427,4,1,248
patternCount-6,true,1.00,9,429,6,1,325
patternCount-7,true,1.00,30,455,15,1,387
patternCount-8,true,1.00,87,436,84,3,3033
patternCount-9,true,1.00,20,474,10,1,319
patternCount-10,true,1.00,9,429,5,1,271
patternCount-11,true,1.00,18,514,8,1,436
patternCount-12,true,1.00,12,443,9,1,553
patternCount-13,true,1.00,10,417,5,1,260
patternCount-14,true,1.00,10,397,8,1,410
patternCount-15,true,1.00,7,429,5,1,241
patternCount-16,true,1.00,22,453,19,1,352
patternCount-17,true,1.00,12,460,7,1,318
patternCount-18,true,1.00,9,418,6,1,273
patternCount-19,true,1.00,13,396,6,1,302
patternCount-20,true,1.00,9,434,6,1,336
patternCount-21,true,1.00,8,420,6,1,234
patternCount-22,true,1.00,12,524,6,1,345
patternCount-23,true,1.00,28,504,24,1,1738
patternCount-24,true,1.00,13,478,9,1,646
patternCount-25,true,1.00,7,426,5,1,231
patternCount-26,true,1.00,9,412,6,1,319
patternCount-27,true,1.00,9,417,6,1,292
patternCount-28,true,1.00,10,476,7,1,396
patternCount-29,true,1.00,9,408,6,1,297
patternCount-30,true,1.00,25,488,6,1,351
patternCount-31,true,1.00,10,404,7,1,354
patternCount-32,true,1.00,20,459,7,1,457
patternCount-33,true,1.00,27,483,23,1,569
patternCount-34,true,1.00,15,455,12,1,518
patternCount-35,true,1.00,11,480,8,1,371
patternCount-36,true,1.00,23,374,20,1,214
patternCount-37,true,1.00,6,368,4,1,202
patternCount-38,true,1.00,16,482,13,1,501
patternCount-39,true,1.00,8,428,5,1,270
patternCount-40,true,1.00,15,502,11,1,638
patternCount-41,true,1.00,9,466,6,1,333
patternCount-42,true,1.00,9,443,6,1,284
patternCount-43,true,1.00,9,464,6,1,295
patternCount-44,true,1.00,8,436,5,1,222
patternCount-45,true,1.00,23,435,20,1,1118
patternCount-46,true,1.00,8,406,5,1,299
patternCount-47,true,1.00,9,445,6,1,401
patternCount-48,true,1.00,10,471,8,1,354
patternCount-49,true,1.00,9,437,5,1,287
patternCount-50,true,1.00,9266,420,9265,282,560418
patternCount-51,true,1.00,17,449,14,1,742
patternCount-52,true,1.00,8,418,6,1,281
patternCount-53,true,1.00,10,453,6,1,375
patternCount-54,true,1.00,11,468,8,1,410
patternCount-55,true,1.00,15,444,12,1,902
patternCount-56,true,1.00,8,426,5,1,304
patternCount-57,true,1.00,8,440,5,1,276
patternCount-58,true,1.00,8310,429,8308,254,449104
patternCount-59,true,1.00,10,484,6,1,341
patternCount-60,true,1.00,9,424,6,1,306
patternCount-61,true,1.00,8,422,5,1,331
patternCount-62,true,1.00,9,450,6,1,307
patternCount-63,true,1.00,8,420,5,1,242
patternCount-64,true,1.00,7,396,5,1,244
patternCount-65,true,1.00,24,419,5,1,309
patternCount-66,true,1.00,18,487,6,1,343
patternCount-67,true,1.00,34,452,7,1,395
patternCount-68,true,1.00,10,403,8,1,393
patternCount-69,true,1.00,23,475,19,1,354
patternCount-70,true,1.00,18,442,14,1,302
patternCount-71,true,1.00,18,478,6,1,351
patternCount-72,true,1.00,31,433,22,1,890
patternCount-73,true,1.00,11,488,8,1,450
patternCount-74,true,1.00,14,466,9,1,559
patternCount-75,true,1.00,10,416,7,1,340
patternCount-76,true,1.00,28,439,8,1,361
patternCount-77,true,1.00,8,431,5,1,254
patternCount-78,true,1.00,10,486,7,1,327
patternCount-79,true,1.00,17,495,14,1,862
patternCount-80,true,1.00,10,405,7,1,408
patternCount-81,true,1.00,9,461,6,1,303
patternCount-82,true,1.00,9,471,6,1,309
patternCount-83,true,1.00,10,439,7,1,396
patternCount-84,true,1.00,11,440,7,1,374
patternCount-85,true,1.00,10,455,7,1,348
patternCount-86,true,1.00,8,410,6,1,279
patternCount-87,true,1.00,11,468,8,1,451
patternCount-88,true,1.00,11,489,7,1,443
patternCount-89,true,1.00,7,410,5,1,255
patternCount-90,true,1.00,8,420,5,1,277
patternCount-91,true,1.00,9,396,6,1,396
patternCount-92,true,1.00,8,418,6,1,256
patternCount-93,true,1.00,13,479,10,1,505
patternCount-94,true,1.00,8,426,5,1,269
patternCount-95,true,1.00,10,499,7,1,394
patternCount-96,true,1.00,9,390,7,1,351
patternCount-97,false,0.87,12521,400,12521,400,776354
patternCount-98,true,1.00,33,447,5,1,298
patternCount-99,true,1.00,19,454,6,1,315
patternCount-100,true,1.00,24,397,6,1,286
