SS:7.0
RIGHT_BORDER_X:95.0
level,win/fail,% travelled,run time,game ticks,planning time,total plannings,nodes evaluated,most backtracked nodes
patternCount-1,true,1.00,13194,501,13190,400,1003235
patternCount-2,true,1.00,10,423,7,1,279
patternCount-3,true,1.00,11,473,8,1,506
patternCount-4,true,1.00,9,448,6,1,341
patternCount-5,true,1.00,8,427,5,1,248
patternCount-6,true,1.00,8,429,7,1,325
patternCount-7,true,1.00,25,455,6,1,387
patternCount-8,true,1.00,35,437,32,1,1100
patternCount-9,true,1.00,21,474,6,1,319
patternCount-10,true,1.00,8,429,6,1,271
patternCount-11,true,1.00,23,514,7,1,436
patternCount-12,true,1.00,20,443,9,1,553
patternCount-13,true,1.00,7,417,5,1,260
patternCount-14,true,1.00,10,397,8,1,410
patternCount-15,true,1.00,7,429,5,1,241
patternCount-16,true,1.00,9,453,6,1,352
patternCount-17,true,1.00,12,460,7,1,318
patternCount-18,true,1.00,8,418,6,1,273
patternCount-19,true,1.00,7,396,5,1,302
patternCount-20,true,1.00,30,434,27,1,336
patternCount-21,true,1.00,9,420,4,1,234
patternCount-22,true,1.00,11,524,6,1,345
patternCount-23,true,1.00,25,504,22,1,1738
patternCount-24,true,1.00,12,478,9,1,646
patternCount-25,true,1.00,7,426,4,1,231
patternCount-26,true,1.00,8,412,5,1,319
patternCount-27,true,1.00,8,417,6,1,292
patternCount-28,true,1.00,11,476,8,1,396
patternCount-29,true,1.00,8,408,6,1,297
patternCount-30,true,1.00,26,488,7,1,351
patternCount-31,true,1.00,8,404,6,1,354
patternCount-32,true,1.00,22,459,7,1,457
patternCount-33,true,1.00,29,483,9,1,569
patternCount-34,true,1.00,21,455,18,1,518
patternCount-35,true,1.00,10,480,6,1,371
patternCount-36,true,1.00,7,374,4,1,214
patternCount-37,true,1.00,6,368,4,1,202
patternCount-38,true,1.00,11,482,8,1,501
patternCount-39,true,1.00,8,428,5,1,270
patternCount-40,true,1.00,14,502,11,1,638
patternCount-41,true,1.00,13,466,5,1,333
patternCount-42,true,1.00,9,443,5,1,284
patternCount-43,true,1.00,8,464,5,1,295
patternCount-44,true,1.00,7,436,5,1,222
patternCount-45,true,1.00,22,435,19,1,1118
patternCount-46,true,1.00,8,406,5,1,299
patternCount-47,true,1.00,37,445,21,1,401
patternCount-48,true,1.00,10,471,7,1,354
patternCount-49,true,1.00,8,437,5,1,287
patternCount-50,true,1.00,8914,410,8912,272,578668
patternCount-51,true,1.00,16,449,14,1,742
patternCount-52,true,1.00,8,418,5,1,281
patternCount-53,true,1.00,12,453,9,1,375
patternCount-54,true,1.00,10,468,7,1,410
patternCount-55,true,1.00,14,444,11,1,902
patternCount-56,true,1.00,8,426,5,1,304
patternCount-57,true,1.00,8,440,5,1,276
patternCount-58,true,1.00,8293,429,8292,254,482078
patternCount-59,true,1.00,9,484,6,1,341
patternCount-60,true,1.00,8,424,6,1,306
patternCount-61,true,1.00,9,422,6,1,331
patternCount-62,true,1.00,8,450,5,1,307
patternCount-63,true,1.00,6,420,4,1,242
patternCount-64,true,1.00,8,396,5,1,244
patternCount-65,true,1.00,15,419,6,1,309
patternCount-66,true,1.00,9,487,6,1,343
patternCount-67,true,1.00,18,452,6,1,395
patternCount-68,true,1.00,23,403,21,1,393
patternCount-69,true,1.00,14,475,5,1,354
patternCount-70,true,1.00,8,442,5,1,302
patternCount-71,true,1.00,9,478,6,1,351
patternCount-72,true,1.00,16,433,13,1,890
patternCount-73,true,1.00,11,488,7,1,450
patternCount-74,true,1.00,12,466,9,1,559
patternCount-75,true,1.00,10,416,6,1,340
patternCount-76,true,1.00,26,439,6,1,361
patternCount-77,true,1.00,7,431,4,1,254
patternCount-78,true,1.00,10,486,7,1,327
patternCount-79,true,1.00,16,495,13,1,862
patternCount-80,true,1.00,10,405,8,1,408
patternCount-81,true,1.00,8,461,6,1,303
patternCount-82,true,1.00,8,471,6,1,309
patternCount-83,true,1.00,9,439,6,1,396
patternCount-84,true,1.00,10,440,7,1,374
patternCount-85,true,1.00,10,455,6,1,348
patternCount-86,true,1.00,8,410,5,1,279
patternCount-87,true,1.00,11,468,8,1,451
patternCount-88,true,1.00,10,489,7,1,443
patternCount-89,true,1.00,7,410,5,1,255
patternCount-90,true,1.00,8,420,5,1,277
patternCount-91,true,1.00,8,396,6,1,396
patternCount-92,true,1.00,7,418,5,1,256
patternCount-93,true,1.00,12,479,9,1,505
patternCount-94,true,1.00,8,426,5,1,269
patternCount-95,true,1.00,10,499,8,1,394
patternCount-96,true,1.00,9,390,6,1,351
patternCount-97,false,0.87,12549,400,12544,400,829581
patternCount-98,true,1.00,35,447,6,1,298
patternCount-99,true,1.00,27,454,5,1,315
patternCount-100,true,1.00,11,397,5,1,286
