SS:3.0
RIGHT_BORDER_X:150.0
level,win/fail,% travelled,run time,game ticks,planning time,total plannings,nodes evaluated,most backtracked nodes
Krys-1,true,1.00,13459,546,13407,420,718206
Krys-2,true,1.00,4144,373,4137,124,182951
Krys-3,true,1.00,9787,490,9774,303,516266
Krys-4,true,1.00,7800,401,7799,240,443898
Krys-5,true,1.00,67,357,10,1,494
Krys-6,true,1.00,873,386,855,26,44669
Krys-7,true,1.00,11,395,8,1,426
Krys-8,true,1.00,273,410,251,7,7284
Krys-9,true,1.00,23,369,9,1,404
Krys-10,true,1.00,881,384,877,25,33527
Krys-11,true,1.00,15,404,12,1,489
Krys-12,false,0.70,31976,999,31931,999,1858872
Krys-13,true,1.00,17,440,10,1,518
Krys-14,true,1.00,6742,388,6740,207,318861
Krys-15,true,1.00,498,383,494,15,26482
Krys-16,true,1.00,6168,407,6164,192,289718
Krys-17,true,1.00,8609,436,8608,264,480646
Krys-18,true,1.00,52,384,49,2,1397
Krys-19,true,1.00,1030,409,1028,31,49431
Krys-20,true,1.00,4831,405,4814,146,244782
Krys-21,true,1.00,10,378,7,1,369
Krys-22,true,1.00,13,368,10,1,478
Krys-23,true,1.00,1552,438,1549,47,73249
Krys-24,true,1.00,9293,476,9274,283,489480
Krys-25,true,1.00,1549,411,1545,47,86038
Krys-26,true,1.00,11,359,8,1,487
Krys-27,true,1.00,6007,398,6005,182,298900
Krys-28,true,1.00,8778,441,8777,275,461063
Krys-29,true,1.00,5538,446,5537,168,324192
Krys-30,true,1.00,10231,490,10230,311,514637
Krys-31,true,1.00,53,384,50,2,2516
Krys-32,true,1.00,15,430,11,1,513
Krys-33,true,1.00,13,402,10,1,448
Krys-34,true,1.00,623,386,620,19,34487
Krys-35,true,1.00,2820,372,2818,85,145262
Krys-36,true,1.00,11588,431,11575,351,638424
Krys-37,true,1.00,2706,423,2703,82,160814
Krys-38,true,1.00,518,428,515,16,31371
Krys-39,true,1.00,10780,407,10778,327,599274
Krys-40,true,1.00,9403,419,9402,285,536549
Krys-41,false,0.70,31943,999,31942,999,1858856
Krys-42,true,1.00,12,366,10,1,479
Krys-43,true,1.00,30,353,27,1,489
Krys-44,true,1.00,8245,435,8243,254,507597
Krys-45,true,1.00,4602,423,4600,143,210306
Krys-46,true,1.00,7414,448,7414,225,399983
Krys-47,true,1.00,25,453,22,1,1122
Krys-48,true,1.00,14,374,12,1,606
Krys-49,true,1.00,29,464,24,1,1080
Krys-50,true,1.00,10340,483,10338,314,521920
Krys-51,true,1.00,35,411,32,1,1559
Krys-52,true,1.00,523,378,521,16,23417
Krys-53,true,1.00,10921,478,10919,331,539965
Krys-54,true,1.00,5051,430,5047,153,271966
Krys-55,true,1.00,10334,457,10332,315,578286
Krys-56,true,1.00,3699,356,3696,112,180530
Krys-57,true,1.00,15,362,12,1,640
Krys-58,true,1.00,6800,423,6800,209,376881
Krys-59,true,1.00,8844,393,8819,272,413982
Krys-60,true,1.00,11189,410,11174,339,599795
Krys-61,true,1.00,8313,445,8311,252,436812
Krys-62,true,1.00,6770,431,6766,209,302204
Krys-63,true,1.00,13673,584,13672,433,728680
Krys-64,true,1.00,1777,444,1774,54,104082
Krys-65,true,1.00,8692,435,8691,266,432465
Krys-66,true,1.00,11376,475,11375,345,526650
Krys-67,true,1.00,10330,477,10329,314,582990
Krys-68,true,1.00,13,375,10,1,575
Krys-69,true,1.00,8743,453,8741,266,432039
Krys-70,true,1.00,10384,435,10383,315,544935
Krys-71,true,1.00,15,413,12,1,664
Krys-72,true,1.00,14,419,11,1,514
Krys-73,true,1.00,11662,491,11661,356,594859
Krys-74,true,1.00,17,391,14,1,641
Krys-75,true,1.00,33,392,30,1,1262
Krys-76,true,1.00,4520,375,4518,137,225702
Krys-77,true,1.00,12,401,9,1,459
Krys-78,true,1.00,10215,472,10212,310,534260
Krys-79,true,1.00,69,400,65,2,2920
Krys-80,true,1.00,25,453,22,1,951
Krys-81,true,1.00,17,386,13,1,659
Krys-82,true,1.00,1186,362,1184,36,55524
Krys-83,true,1.00,12663,465,12660,385,647545
Krys-84,true,1.00,12,385,7,1,325
Krys-85,true,1.00,6967,441,6966,221,380590
Krys-86,true,1.00,8179,466,8178,250,467281
Krys-87,true,1.00,14,392,11,1,496
Krys-88,true,1.00,8150,425,8149,247,441360
Krys-89,true,1.00,26,408,23,1,995
Krys-90,true,1.00,56,363,54,2,3117
Krys-91,true,1.00,14,404,12,1,518
Krys-92,true,1.00,11058,425,11056,340,540968
Krys-93,true,1.00,35,389,32,1,1651
Krys-94,true,1.00,14,380,11,1,605
Krys-95,true,1.00,553,370,551,17,24879
Krys-96,true,1.00,16,407,10,1,520
Krys-97,true,1.00,6222,362,6221,189,318246
Krys-98,true,1.00,12845,484,12844,395,616918
Krys-99,true,1.00,5398,411,5396,164,242849
Krys-100,true,1.00,9,376,7,1,357
