SS:1.0
RIGHT_BORDER_X:235.0
level,win/fail,% travelled,run time,game ticks,planning time,total plannings,nodes evaluated,most backtracked nodes
Krys-1,true,1.00,13457,546,13426,420,677930
Krys-2,true,1.00,3444,373,3421,103,149479
Krys-3,true,1.00,9723,490,9720,303,512373
Krys-4,true,1.00,7812,401,7810,240,430650
Krys-5,true,1.00,58,357,10,1,494
Krys-6,true,1.00,814,384,792,24,36631
Krys-7,true,1.00,12,395,9,1,426
Krys-8,true,1.00,303,414,301,9,8341
Krys-9,true,1.00,11,369,8,1,404
Krys-10,true,1.00,802,383,798,24,32700
Krys-11,true,1.00,15,404,12,1,489
Krys-12,false,0.70,32030,999,31971,999,1786145
Krys-13,true,1.00,26,440,11,1,518
Krys-14,true,1.00,6772,388,6758,207,317517
Krys-15,true,1.00,466,391,463,14,23906
Krys-16,true,1.00,6167,407,6164,192,288230
Krys-17,true,1.00,8614,436,8612,264,473874
Krys-18,true,1.00,36,401,25,1,1219
Krys-19,true,1.00,1026,409,1024,31,49084
Krys-20,true,1.00,4615,425,4587,139,232836
Krys-21,true,1.00,10,378,8,1,369
Krys-22,true,1.00,26,368,23,1,478
Krys-23,true,1.00,1536,438,1531,47,72827
Krys-24,true,1.00,9264,476,9263,283,493600
Krys-25,true,1.00,1549,411,1547,47,85993
Krys-26,true,1.00,12,359,9,1,487
Krys-27,true,1.00,6006,398,6004,182,299236
Krys-28,true,1.00,8779,441,8778,275,461582
Krys-29,true,1.00,5536,446,5533,168,323927
Krys-30,true,1.00,10246,490,10230,311,516544
Krys-31,true,1.00,52,384,50,2,2034
Krys-32,true,1.00,14,430,11,1,513
Krys-33,true,1.00,14,402,11,1,448
Krys-34,true,1.00,624,386,621,19,34659
Krys-35,true,1.00,2811,372,2809,85,144840
Krys-36,true,1.00,11574,431,11574,351,638047
Krys-37,true,1.00,2706,423,2704,82,160105
Krys-38,true,1.00,518,428,515,16,31173
Krys-39,true,1.00,10780,407,10777,327,599293
Krys-40,true,1.00,9415,419,9402,285,535210
Krys-41,false,0.70,31946,999,31945,999,1858568
Krys-42,true,1.00,12,366,9,1,479
Krys-43,true,1.00,27,353,24,1,489
Krys-44,true,1.00,8244,435,8242,254,507305
Krys-45,true,1.00,4603,423,4601,143,211742
Krys-46,true,1.00,7414,448,7413,225,402666
Krys-47,true,1.00,25,453,21,1,1122
Krys-48,true,1.00,14,374,11,1,606
Krys-49,true,1.00,27,464,25,1,1080
Krys-50,true,1.00,10332,483,10331,314,528006
Krys-51,true,1.00,35,411,32,1,1559
Krys-52,true,1.00,521,378,518,16,23617
Krys-53,true,1.00,10851,478,10850,331,585600
Krys-54,true,1.00,5148,433,5146,156,280558
Krys-55,true,1.00,10331,457,10328,315,584856
Krys-56,true,1.00,3336,351,3332,101,163901
Krys-57,true,1.00,14,362,12,1,640
Krys-58,true,1.00,6799,423,6797,209,381707
Krys-59,true,1.00,8284,374,8269,253,397525
Krys-60,true,1.00,11951,442,11950,362,662644
Krys-61,true,1.00,5596,376,5594,170,292536
Krys-62,true,1.00,6765,431,6765,209,307612
Krys-63,true,1.00,14100,589,14099,438,759901
Krys-64,true,1.00,1777,444,1774,54,105598
Krys-65,true,1.00,8643,435,8642,266,449056
Krys-66,true,1.00,10954,402,10953,332,510915
Krys-67,true,1.00,10334,477,10333,314,590146
Krys-68,true,1.00,13,375,10,1,575
Krys-69,true,1.00,9403,473,9402,286,467483
Krys-70,true,1.00,10386,435,10382,315,552169
Krys-71,true,1.00,32,413,29,1,664
Krys-72,true,1.00,27,419,23,1,514
Krys-73,true,1.00,11680,491,11679,356,603623
Krys-74,true,1.00,17,391,14,1,641
Krys-75,true,1.00,32,392,29,1,1262
Krys-76,true,1.00,4519,375,4517,137,227628
Krys-77,true,1.00,12,401,9,1,459
Krys-78,true,1.00,9830,472,9828,298,525415
Krys-79,true,1.00,67,400,65,2,2930
Krys-80,true,1.00,25,453,22,1,951
Krys-81,true,1.00,16,386,13,1,659
Krys-82,true,1.00,1187,362,1183,36,56540
Krys-83,true,1.00,12660,465,12657,385,662681
Krys-84,true,1.00,10,385,7,1,325
Krys-85,true,1.00,6995,442,6994,222,390418
Krys-86,true,1.00,8178,466,8177,250,475410
Krys-87,true,1.00,14,392,11,1,496
Krys-88,true,1.00,8152,425,8147,247,450995
Krys-89,true,1.00,25,408,22,1,995
Krys-90,true,1.00,55,363,53,2,3183
Krys-91,true,1.00,14,404,11,1,518
Krys-92,true,1.00,11055,425,11054,340,552819
Krys-93,true,1.00,34,389,32,1,1651
Krys-94,true,1.00,14,380,12,1,605
Krys-95,true,1.00,557,370,550,17,25436
Krys-96,true,1.00,12,407,9,1,520
Krys-97,true,1.00,6221,362,6220,189,325312
Krys-98,true,1.00,12849,484,12847,395,627927
Krys-99,true,1.00,5843,430,5841,177,268179
Krys-100,true,1.00,9,376,7,1,357
