SS:9.0
RIGHT_BORDER_X:215.0
level,win/fail,% travelled,run time,game ticks,planning time,total plannings,nodes evaluated,most backtracked nodes
Krys-1,true,1.00,12713,507,12707,399,420739
Krys-2,true,1.00,7085,373,7048,211,205653
Krys-3,false,0.70,31547,999,31508,999,1102610
Krys-4,true,1.00,9922,412,9870,305,332290
Krys-5,true,1.00,30,357,17,1,494
Krys-6,true,1.00,4831,372,4821,150,160751
Krys-7,true,1.00,27,395,13,1,426
Krys-8,true,1.00,1860,396,1853,56,63380
Krys-9,true,1.00,25,369,14,1,404
Krys-10,true,1.00,7352,422,7335,224,242064
Krys-11,true,1.00,55,404,30,1,489
Krys-12,true,1.00,9218,446,9214,280,300959
Krys-13,true,1.00,53,440,34,1,518
Krys-14,true,1.00,7306,375,7302,224,235551
Krys-15,true,1.00,8981,417,8977,272,311862
Krys-16,true,1.00,7463,415,7456,230,234950
Krys-17,true,1.00,8826,442,8803,270,317850
Krys-18,true,1.00,60,384,48,2,1440
Krys-19,true,1.00,5867,394,5862,177,190565
Krys-20,true,1.00,7301,438,7294,221,243200
Krys-21,true,1.00,25,378,14,1,369
Krys-22,true,1.00,27,368,18,1,478
Krys-23,true,1.00,1547,438,1535,47,50475
Krys-24,true,1.00,9684,485,9670,295,331977
Krys-25,true,1.00,1663,420,1651,50,58876
Krys-26,true,1.00,36,359,15,1,487
Krys-27,true,1.00,6211,398,6206,188,196410
Krys-28,true,1.00,10816,486,10787,332,376389
Krys-29,true,1.00,5656,442,5619,170,203740
Krys-30,true,1.00,9437,456,9431,287,312699
Krys-31,true,1.00,72,384,63,2,1895
Krys-32,true,1.00,31,430,21,1,513
Krys-33,true,1.00,30,402,18,1,448
Krys-34,true,1.00,3445,448,3433,104,123738
Krys-35,true,1.00,3098,371,3063,93,102081
Krys-36,true,1.00,12242,447,12241,371,434078
Krys-37,true,1.00,3888,454,3879,122,146627
Krys-38,true,1.00,2862,417,2839,86,108083
Krys-39,true,1.00,10797,407,10795,327,383418
Krys-40,true,1.00,9609,431,9605,291,347348
Krys-41,true,1.00,8849,416,8844,268,314845
Krys-42,true,1.00,27,366,18,1,479
Krys-43,true,1.00,72,351,61,2,952
Krys-44,true,1.00,8160,432,8151,254,305113
Krys-45,true,1.00,4617,423,4610,143,141677
Krys-46,true,1.00,7425,439,7419,225,258803
Krys-47,true,1.00,432,444,423,13,13811
Krys-48,true,1.00,32,374,21,1,606
Krys-49,true,1.00,80,435,66,2,2016
Krys-50,true,1.00,11313,492,11308,344,379952
Krys-51,true,1.00,7466,418,7461,227,250433
Krys-52,true,1.00,3724,378,3717,112,114826
Krys-53,true,1.00,11253,501,11246,347,396900
Krys-54,true,1.00,9122,416,9118,286,322719
Krys-55,true,1.00,10658,448,10655,324,383966
Krys-56,false,0.59,31974,999,31970,999,1118763
Krys-57,true,1.00,49,362,21,1,640
Krys-58,true,1.00,8339,454,8334,258,299956
Krys-59,true,1.00,8614,388,8610,267,256169
Krys-60,true,1.00,11600,431,11582,351,388149
Krys-61,true,1.00,4424,379,4416,134,143756
Krys-62,true,1.00,8965,413,8960,278,278438
Krys-63,true,1.00,13833,581,13829,430,481184
Krys-64,true,1.00,2543,443,2530,77,94304
Krys-65,true,1.00,9208,440,9206,284,309164
Krys-66,true,1.00,11439,469,11436,347,362388
Krys-67,false,0.71,10107,319,10101,319,346046
Krys-68,true,1.00,47,375,22,1,575
Krys-69,true,1.00,11892,501,11889,365,385826
Krys-70,false,0.80,31732,999,31731,999,1124413
Krys-71,true,1.00,33,413,25,1,664
Krys-72,true,1.00,83,399,76,2,975
Krys-73,true,1.00,11269,477,11264,346,379261
Krys-74,true,1.00,35,391,24,1,641
Krys-75,true,1.00,230,392,219,7,6521
Krys-76,true,1.00,5221,399,5214,158,171611
Krys-77,true,1.00,28,401,16,1,459
Krys-78,false,0.70,32116,999,32116,999,1063030
Krys-79,true,1.00,9612,366,9609,292,301090
Krys-80,true,1.00,48,453,38,1,951
Krys-81,true,1.00,36,386,24,1,659
Krys-82,true,1.00,4743,410,4736,144,151427
Krys-83,true,1.00,13284,483,13278,404,448423
Krys-84,true,1.00,24,385,14,1,325
Krys-85,true,1.00,8110,415,8104,252,282907
Krys-86,true,1.00,8267,453,8262,252,300693
Krys-87,true,1.00,31,392,17,1,496
Krys-88,true,1.00,8150,396,8141,247,283870
Krys-89,true,1.00,146,408,136,4,3859
Krys-90,true,1.00,78,363,66,2,2338
Krys-91,true,1.00,34,404,20,1,518
Krys-92,true,1.00,11732,447,11725,360,374265
Krys-93,true,1.00,4332,364,4324,131,144664
Krys-94,true,1.00,30,380,20,1,605
Krys-95,true,1.00,688,368,678,21,20981
Krys-96,true,1.00,29,407,19,1,520
Krys-97,true,1.00,7295,396,7291,222,250028
Krys-98,true,1.00,14424,563,14423,448,473154
Krys-99,true,1.00,6531,403,6525,198,200641
Krys-100,true,1.00,24,376,13,1,357
