SS:5.0
RIGHT_BORDER_X:215.0
level,win/fail,% travelled,run time,game ticks,planning time,total plannings,nodes evaluated,most backtracked nodes
Krys-1,true,1.00,12445,510,12439,386,612736
Krys-2,true,1.00,3763,373,3731,112,145392
Krys-3,true,1.00,9748,490,9736,303,480862
Krys-4,true,1.00,7826,401,7824,240,416537
Krys-5,true,1.00,63,357,10,1,494
Krys-6,true,1.00,828,384,794,24,33148
Krys-7,true,1.00,15,395,12,1,426
Krys-8,true,1.00,207,414,204,6,7005
Krys-9,true,1.00,11,369,8,1,404
Krys-10,true,1.00,855,383,828,24,36583
Krys-11,true,1.00,24,404,21,1,489
Krys-12,false,0.70,31986,999,31945,999,1761930
Krys-13,true,1.00,26,440,11,1,518
Krys-14,true,1.00,6752,388,6738,207,308743
Krys-15,true,1.00,1488,383,1484,45,77288
Krys-16,true,1.00,6170,407,6167,192,283682
Krys-17,true,1.00,8614,436,8612,264,466671
Krys-18,true,1.00,38,401,27,1,1219
Krys-19,true,1.00,1039,409,1036,31,49075
Krys-20,true,1.00,4938,405,4936,149,233961
Krys-21,true,1.00,34,378,7,1,369
Krys-22,true,1.00,25,368,10,1,478
Krys-23,true,1.00,1564,438,1558,47,61939
Krys-24,true,1.00,9284,476,9282,283,468169
Krys-25,true,1.00,1546,411,1543,47,84639
Krys-26,true,1.00,12,359,9,1,487
Krys-27,true,1.00,6194,398,6192,188,304519
Krys-28,true,1.00,8776,441,8775,275,456704
Krys-29,true,1.00,5538,446,5535,168,319124
Krys-30,true,1.00,10301,477,10299,313,503775
Krys-31,true,1.00,53,384,50,2,2112
Krys-32,true,1.00,28,430,10,1,513
Krys-33,true,1.00,26,402,10,1,448
Krys-34,true,1.00,624,386,621,19,33938
Krys-35,true,1.00,2806,372,2803,85,143823
Krys-36,true,1.00,11575,431,11575,351,633935
Krys-37,true,1.00,2706,423,2703,82,160050
Krys-38,true,1.00,520,428,517,16,31100
Krys-39,true,1.00,10805,407,10779,327,576076
Krys-40,true,1.00,9403,419,9402,285,536060
Krys-41,false,0.70,31941,999,31941,999,1832937
Krys-42,true,1.00,11,366,9,1,479
Krys-43,true,1.00,40,353,24,1,489
Krys-44,true,1.00,8245,435,8244,254,508397
Krys-45,true,1.00,4602,423,4599,143,212040
Krys-46,true,1.00,7393,444,7392,224,404120
Krys-47,true,1.00,25,453,22,1,1122
Krys-48,true,1.00,14,374,12,1,606
Krys-49,true,1.00,27,464,23,1,1080
Krys-50,true,1.00,10331,483,10330,314,530090
Krys-51,true,1.00,34,411,31,1,1559
Krys-52,true,1.00,521,378,518,16,23749
Krys-53,true,1.00,10852,478,10851,331,577413
Krys-54,true,1.00,3498,425,3496,106,190613
Krys-55,true,1.00,10331,457,10328,315,583373
Krys-56,true,1.00,3105,354,3101,95,152663
Krys-57,true,1.00,20,362,13,1,640
Krys-58,true,1.00,6798,423,6797,209,379869
Krys-59,true,1.00,8713,390,8698,269,417358
Krys-60,true,1.00,11173,410,11172,339,607510
Krys-61,true,1.00,5596,376,5595,170,290715
Krys-62,true,1.00,6862,431,6861,212,305438
Krys-63,true,1.00,14760,613,14758,462,784509
Krys-64,true,1.00,1776,444,1773,54,105224
Krys-65,true,1.00,8647,435,8646,266,445738
Krys-66,true,1.00,10966,402,10966,332,506962
Krys-67,true,1.00,10341,477,10340,314,590026
Krys-68,true,1.00,13,375,10,1,575
Krys-69,true,1.00,10570,492,10569,329,533759
Krys-70,true,1.00,10448,437,10447,317,544938
Krys-71,true,1.00,31,413,28,1,664
Krys-72,true,1.00,30,419,28,1,514
Krys-73,true,1.00,11674,491,11673,356,601045
Krys-74,true,1.00,17,391,14,1,641
Krys-75,true,1.00,32,392,29,1,1262
Krys-76,true,1.00,4520,375,4518,137,228987
Krys-77,true,1.00,13,401,11,1,459
Krys-78,true,1.00,9829,472,9827,298,522537
Krys-79,true,1.00,101,407,99,3,4166
Krys-80,true,1.00,25,453,21,1,951
Krys-81,true,1.00,18,386,15,1,659
Krys-82,true,1.00,1185,362,1183,36,56418
Krys-83,true,1.00,12696,465,12695,385,638738
Krys-84,true,1.00,16,385,7,1,325
Krys-85,true,1.00,4146,465,4138,125,210441
Krys-86,true,1.00,8183,466,8181,250,460095
Krys-87,true,1.00,15,392,12,1,496
Krys-88,true,1.00,8150,425,8149,247,439493
Krys-89,true,1.00,25,408,23,1,995
Krys-90,true,1.00,56,363,54,2,3146
Krys-91,true,1.00,14,404,11,1,518
Krys-92,true,1.00,11059,425,11058,340,546605
Krys-93,true,1.00,37,389,32,1,1651
Krys-94,true,1.00,15,380,13,1,605
Krys-95,true,1.00,560,370,550,17,25240
Krys-96,true,1.00,13,407,10,1,520
Krys-97,true,1.00,6219,362,6218,189,303225
Krys-98,true,1.00,12980,489,12979,400,632561
Krys-99,true,1.00,5842,430,5840,177,266963
Krys-100,true,1.00,9,376,6,1,357
