SS:30.0
RIGHT_BORDER_X:120.0
level,win/fail,% travelled,run time,game ticks,planning time,total plannings,nodes evaluated,most backtracked nodes
Mario-1,true,1.00,163,448,134,4,822
Mario-2,true,1.00,268,323,234,7,1321
Mario-3,true,1.00,330,290,319,10,2434
Mario-4,true,1.00,1429,439,1362,38,23165
Mario-5,true,1.00,127,462,29,1,410
Mario-6,true,1.00,1186,296,1151,33,28905
Mario-7,true,1.00,49,452,15,1,398
Mario-8,true,1.00,9182,369,9152,275,320290
Mario-9,true,1.00,86,396,48,2,394
Mario-10,true,1.00,643,296,603,17,6770
Mario-11,true,1.00,420,410,359,11,2981
Mario-12,true,1.00,257,565,215,6,4446
Mario-13,true,1.00,38,323,11,1,246
Mario-14,true,1.00,39,389,11,1,227
Mario-15,true,1.00,454,850,423,12,6646
