SS:2.0
RIGHT_BORDER_X:75.0
level,win/fail,% travelled,run time,game ticks,planning time,total plannings,nodes evaluated,most backtracked nodes
Mario-1,true,1.00,59,448,30,1,284
Mario-2,true,1.00,108,322,100,3,537
Mario-3,true,1.00,68,288,63,2,710
Mario-4,true,1.00,1593,462,1542,43,22976
Mario-5,true,1.00,353,462,327,10,1076
Mario-6,true,1.00,345,288,338,10,13356
Mario-7,true,1.00,35,452,9,1,398
Mario-8,true,1.00,4338,333,4332,130,271899
Mario-9,true,1.00,35,395,25,1,199
Mario-10,true,1.00,556,305,551,16,7800
Mario-11,true,1.00,156,400,133,4,1430
Mario-12,true,1.00,323,565,301,9,4723
Mario-13,true,1.00,10,323,5,1,246
Mario-14,true,1.00,23,389,8,1,227
Mario-15,true,1.00,151,833,117,4,2993
