SS:5.0
RIGHT_BORDER_X:150.0
level,win/fail,% travelled,run time,game ticks,planning time,total plannings,nodes evaluated,most backtracked nodes
Mario-1,true,1.00,85,434,61,2,457
Mario-2,true,1.00,309,322,302,9,846
Mario-3,true,1.00,26,290,20,1,328
Mario-4,true,1.00,1434,455,1406,39,15757
Mario-5,true,1.00,28,462,10,1,410
Mario-6,true,1.00,40,288,31,1,1271
Mario-7,true,1.00,22,452,6,1,398
Mario-8,true,1.00,4517,325,4512,135,274901
Mario-9,true,1.00,35,395,26,1,199
Mario-10,true,1.00,56,305,31,1,660
Mario-11,true,1.00,105,412,89,3,1132
Mario-12,true,1.00,407,567,385,11,5804
Mario-13,true,1.00,9,323,4,1,246
Mario-14,true,1.00,20,389,6,1,227
Mario-15,true,1.00,59,837,30,1,990
