SS:4.0
RIGHT_BORDER_X:75.0
level,win/fail,% travelled,run time,game ticks,planning time,total plannings,nodes evaluated,most backtracked nodes
Krys-1,true,1.00,12556,511,12527,387,638563
Krys-2,true,1.00,3459,373,3435,103,156723
Krys-3,true,1.00,9739,490,9721,303,519005
Krys-4,true,1.00,7830,401,7812,240,442460
Krys-5,true,1.00,74,357,16,1,494
Krys-6,true,1.00,842,385,824,25,40916
Krys-7,true,1.00,20,395,9,1,426
Krys-8,true,1.00,215,414,212,6,6507
Krys-9,true,1.00,19,369,7,1,404
Krys-10,true,1.00,1636,416,1633,51,76736
Krys-11,true,1.00,14,404,11,1,489
Krys-12,false,0.70,32012,999,31962,999,1865122
Krys-13,true,1.00,37,440,19,1,518
Krys-14,true,1.00,6760,388,6758,207,313757
Krys-15,true,1.00,1799,379,1781,54,91889
Krys-16,true,1.00,6169,407,6166,192,280692
Krys-17,true,1.00,8608,436,8607,264,466225
Krys-18,true,1.00,32,401,26,1,1219
Krys-19,true,1.00,1037,409,1034,31,48448
Krys-20,true,1.00,4604,425,4589,139,225490
Krys-21,true,1.00,12,378,9,1,369
Krys-22,true,1.00,24,368,22,1,478
Krys-23,true,1.00,1563,438,1559,47,67728
Krys-24,true,1.00,9267,476,9265,283,480088
Krys-25,true,1.00,1547,411,1544,47,83945
Krys-26,true,1.00,12,359,9,1,487
Krys-27,true,1.00,6007,398,6005,182,289216
Krys-28,true,1.00,8776,441,8775,275,447366
Krys-29,true,1.00,5537,446,5535,168,314929
Krys-30,true,1.00,10394,474,10378,316,505028
Krys-31,true,1.00,54,384,51,2,2427
Krys-32,true,1.00,14,430,12,1,513
Krys-33,true,1.00,13,402,10,1,448
Krys-34,true,1.00,624,386,622,19,33399
Krys-35,true,1.00,2806,372,2805,85,139569
Krys-36,true,1.00,11575,431,11574,351,621001
Krys-37,true,1.00,2770,419,2767,84,159828
Krys-38,true,1.00,519,428,516,16,30477
Krys-39,true,1.00,10782,407,10778,327,582783
Krys-40,true,1.00,9407,419,9406,285,516777
Krys-41,false,0.70,31952,999,31952,999,1795014
Krys-42,true,1.00,12,366,9,1,479
Krys-43,true,1.00,45,351,43,2,880
Krys-44,true,1.00,8244,435,8243,254,490767
Krys-45,true,1.00,4603,423,4601,143,202931
Krys-46,true,1.00,7415,448,7413,225,386634
Krys-47,true,1.00,26,453,23,1,1122
Krys-48,true,1.00,15,374,12,1,606
Krys-49,true,1.00,27,464,24,1,1080
Krys-50,true,1.00,10596,472,10595,321,491439
Krys-51,true,1.00,398,413,395,12,19226
Krys-52,true,1.00,524,378,521,16,22811
Krys-53,true,1.00,10854,478,10853,331,562696
Krys-54,true,1.00,5050,430,5048,153,263367
Krys-55,true,1.00,10333,457,10332,315,558911
Krys-56,true,1.00,3732,345,3728,113,176481
Krys-57,true,1.00,15,362,13,1,640
Krys-58,true,1.00,6920,426,6918,215,371648
Krys-59,true,1.00,8729,392,8701,271,400514
Krys-60,true,1.00,11184,410,11181,339,584651
Krys-61,true,1.00,4390,449,4387,133,215658
Krys-62,true,1.00,6768,431,6766,209,294553
Krys-63,true,1.00,14077,591,14076,440,726548
Krys-64,true,1.00,1777,444,1774,54,101359
Krys-65,true,1.00,7926,412,7924,243,396630
Krys-66,true,1.00,11381,475,11380,345,511056
Krys-67,true,1.00,10330,477,10329,314,563224
Krys-68,true,1.00,13,375,10,1,575
Krys-69,true,1.00,9445,474,9443,287,450359
Krys-70,true,1.00,10383,435,10383,315,529258
Krys-71,true,1.00,27,413,26,1,664
Krys-72,true,1.00,32,419,28,1,514
Krys-73,true,1.00,11678,491,11677,356,577557
Krys-74,true,1.00,18,391,15,1,641
Krys-75,true,1.00,33,392,30,1,1262
Krys-76,true,1.00,4521,375,4520,137,218490
Krys-77,true,1.00,13,401,10,1,459
Krys-78,true,1.00,9800,471,9798,297,499894
Krys-79,true,1.00,529,399,527,16,22881
Krys-80,true,1.00,27,453,24,1,951
Krys-81,true,1.00,17,386,13,1,659
Krys-82,true,1.00,1187,362,1185,36,53919
Krys-83,true,1.00,12659,465,12656,385,629786
Krys-84,true,1.00,11,385,7,1,325
Krys-85,true,1.00,6977,441,6975,221,370365
Krys-86,true,1.00,8180,466,8179,250,454052
Krys-87,true,1.00,16,392,13,1,496
Krys-88,true,1.00,8153,425,8149,247,427218
Krys-89,true,1.00,26,408,23,1,995
Krys-90,true,1.00,57,363,54,2,3084
Krys-91,true,1.00,15,404,13,1,518
Krys-92,true,1.00,11060,425,11060,340,525794
Krys-93,true,1.00,60,357,57,2,2818
Krys-94,true,1.00,15,380,12,1,605
Krys-95,true,1.00,553,370,551,17,24184
Krys-96,true,1.00,13,407,10,1,520
Krys-97,true,1.00,6227,362,6226,189,310284
Krys-98,true,1.00,12313,464,12312,381,575642
Krys-99,true,1.00,6523,403,6521,198,284042
Krys-100,true,1.00,13,376,7,1,357
