SS:9.0
RIGHT_BORDER_X:95.0
level,win/fail,% travelled,run time,game ticks,planning time,total plannings,nodes evaluated,most backtracked nodes
Mario-1,true,1.00,186,434,159,5,1037
Mario-2,true,1.00,170,323,124,4,664
Mario-3,true,1.00,86,288,66,2,714
Mario-4,true,1.00,2017,435,1980,55,32446
Mario-5,true,1.00,77,462,27,1,410
Mario-6,true,1.00,877,288,847,25,25457
Mario-7,true,1.00,63,452,16,1,398
Mario-8,true,1.00,9198,404,9172,276,378652
Mario-9,true,1.00,68,395,36,1,199
Mario-10,true,1.00,678,305,639,19,6933
Mario-11,true,1.00,511,401,481,14,3669
Mario-12,true,1.00,165,565,120,3,2393
Mario-13,true,1.00,44,323,10,1,246
Mario-14,true,1.00,33,389,15,1,227
Mario-15,true,1.00,246,851,211,6,4029
