SS:1.0
RIGHT_BORDER_X:120.0
level,win/fail,% travelled,run time,game ticks,planning time,total plannings,nodes evaluated,most backtracked nodes
Krys-1,true,1.00,11019,530,10983,340,641992
Krys-2,true,1.00,3476,373,3472,103,168629
Krys-3,true,1.00,9651,488,9639,301,566178
Krys-4,true,1.00,7777,401,7770,240,486690
Krys-5,true,1.00,64,357,10,1,494
Krys-6,true,1.00,843,385,830,25,44583
Krys-7,true,1.00,27,395,24,1,426
Krys-8,true,1.00,168,410,146,4,4794
Krys-9,true,1.00,14,369,6,1,404
Krys-10,true,1.00,691,413,687,20,24956
Krys-11,true,1.00,29,404,10,1,489
Krys-12,false,0.70,31968,999,31921,999,2027839
Krys-13,true,1.00,37,440,18,1,518
Krys-14,true,1.00,1435,389,1418,43,69163
Krys-15,true,1.00,133,396,130,4,6679
Krys-16,true,1.00,6563,418,6562,203,338301
Krys-17,true,1.00,8549,449,8544,262,525557
Krys-18,true,1.00,28,401,22,1,1219
Krys-19,true,1.00,1043,409,1040,31,55823
Krys-20,true,1.00,664,405,661,20,37201
Krys-21,true,1.00,34,378,8,1,369
Krys-22,true,1.00,19,368,9,1,478
Krys-23,true,1.00,1543,438,1540,47,76282
Krys-24,true,1.00,9268,476,9267,283,550127
Krys-25,true,1.00,1543,411,1540,47,96005
Krys-26,true,1.00,10,359,8,1,487
Krys-27,true,1.00,6002,398,6000,182,339916
Krys-28,true,1.00,11499,511,11497,360,684247
Krys-29,true,1.00,5532,446,5531,168,363782
Krys-30,true,1.00,9571,470,9569,291,530145
Krys-31,true,1.00,51,384,48,2,2554
Krys-32,true,1.00,36,430,10,1,513
Krys-33,true,1.00,20,402,9,1,448
Krys-34,true,1.00,622,386,620,19,36545
Krys-35,true,1.00,2806,375,2804,85,154701
Krys-36,true,1.00,11575,431,11574,351,683731
Krys-37,true,1.00,2242,433,2239,68,150698
Krys-38,true,1.00,516,428,513,16,35280
Krys-39,true,1.00,10787,407,10786,327,665775
Krys-40,true,1.00,7291,433,7290,221,468494
Krys-41,true,1.00,11939,497,11937,362,745313
Krys-42,true,1.00,11,366,9,1,479
Krys-43,true,1.00,30,353,28,1,489
Krys-44,true,1.00,7820,430,7820,237,545906
Krys-45,true,1.00,4606,423,4604,143,236546
Krys-46,true,1.00,7356,437,7355,223,449950
Krys-47,true,1.00,22,453,19,1,1122
Krys-48,true,1.00,12,374,10,1,606
Krys-49,true,1.00,24,464,20,1,1080
Krys-50,true,1.00,10336,483,10335,314,588204
Krys-51,true,1.00,31,411,29,1,1559
Krys-52,true,1.00,518,378,516,16,26095
Krys-53,true,1.00,10398,482,10395,317,625924
Krys-54,true,1.00,234,416,231,7,14110
Krys-55,true,1.00,10326,457,10325,315,627544
Krys-56,true,1.00,36,353,31,1,1706
Krys-57,true,1.00,13,362,11,1,640
Krys-58,true,1.00,6805,423,6804,209,420493
Krys-59,true,1.00,6404,413,6402,196,342985
Krys-60,true,1.00,11161,409,11136,337,680384
Krys-61,true,1.00,4415,444,4413,134,260473
Krys-62,true,1.00,5492,430,5489,169,271086
Krys-63,true,1.00,13295,574,13294,423,798778
Krys-64,true,1.00,1774,444,1771,54,118846
Krys-65,true,1.00,8674,435,8673,266,486868
Krys-66,true,1.00,9674,402,9673,293,491584
Krys-67,true,1.00,10225,516,10224,314,646922
Krys-68,true,1.00,13,375,10,1,575
Krys-69,true,1.00,10577,493,10576,330,575834
Krys-70,true,1.00,10019,424,10018,304,580514
Krys-71,true,1.00,29,413,11,1,664
Krys-72,true,1.00,24,419,21,1,514
Krys-73,true,1.00,11354,506,11353,346,656854
Krys-74,true,1.00,16,391,14,1,641
Krys-75,true,1.00,29,392,27,1,1262
Krys-76,true,1.00,3929,375,3925,119,226362
Krys-77,true,1.00,14,401,8,1,459
Krys-78,true,1.00,9827,472,9826,298,592247
Krys-79,true,1.00,31,399,28,1,1496
Krys-80,true,1.00,22,453,19,1,951
Krys-81,true,1.00,17,386,12,1,659
Krys-82,true,1.00,1182,362,1180,36,62896
Krys-83,true,1.00,13023,476,13021,396,749627
Krys-84,true,1.00,11,385,7,1,325
Krys-85,true,1.00,2774,448,2771,84,165376
Krys-86,true,1.00,8176,466,8174,250,530229
Krys-87,true,1.00,12,392,9,1,496
Krys-88,true,1.00,7952,420,7951,241,496220
Krys-89,true,1.00,23,408,21,1,995
Krys-90,true,1.00,53,363,51,2,3373
Krys-91,true,1.00,13,404,10,1,518
Krys-92,true,1.00,11074,425,11073,340,611158
Krys-93,true,1.00,31,389,29,1,1651
Krys-94,true,1.00,13,380,10,1,605
Krys-95,true,1.00,550,370,548,17,28057
Krys-96,true,1.00,10,407,9,1,520
Krys-97,true,1.00,8302,360,8301,254,488709
Krys-98,true,1.00,12739,484,12738,395,694640
Krys-99,true,1.00,5149,430,5147,156,261700
Krys-100,true,1.00,8,376,7,1,357
