SS:10.0
RIGHT_BORDER_X:120.0
level,win/fail,% travelled,run time,game ticks,planning time,total plannings,nodes evaluated,most backtracked nodes
Krys-1,true,1.00,12935,511,12925,403,442735
Krys-2,true,1.00,7028,373,6987,211,215330
Krys-3,false,0.70,31485,999,31442,999,1120905
Krys-4,true,1.00,9946,412,9887,305,344670
Krys-5,true,1.00,39,357,20,1,494
Krys-6,true,1.00,4858,376,4850,151,167020
Krys-7,true,1.00,27,395,15,1,426
Krys-8,true,1.00,1957,396,1949,59,66692
Krys-9,true,1.00,39,369,14,1,404
Krys-10,true,1.00,7068,416,7035,215,235429
Krys-11,true,1.00,62,404,20,1,489
Krys-12,true,1.00,9249,447,9245,281,310445
Krys-13,true,1.00,32,440,21,1,518
Krys-14,true,1.00,7290,375,7284,224,241858
Krys-15,true,1.00,6738,395,6733,204,239456
Krys-16,true,1.00,6304,416,6300,195,204757
Krys-17,true,1.00,8809,442,8803,270,324532
Krys-18,true,1.00,80,384,59,2,918
Krys-19,true,1.00,5877,394,5869,177,194067
Krys-20,true,1.00,7433,439,7428,225,256980
Krys-21,true,1.00,24,378,14,1,369
Krys-22,true,1.00,28,368,16,1,478
Krys-23,true,1.00,1545,438,1533,47,52198
Krys-24,true,1.00,9677,485,9669,295,344756
Krys-25,true,1.00,1660,420,1649,50,60784
Krys-26,true,1.00,35,359,16,1,487
Krys-27,true,1.00,6210,398,6205,188,205205
Krys-28,true,1.00,10809,486,10784,332,388362
Krys-29,true,1.00,5651,442,5632,170,211972
Krys-30,true,1.00,9409,459,9405,286,319417
Krys-31,true,1.00,71,384,63,2,1986
Krys-32,true,1.00,31,430,18,1,513
Krys-33,true,1.00,28,402,19,1,448
Krys-34,true,1.00,3741,448,3734,113,136931
Krys-35,true,1.00,3488,383,3467,105,119267
Krys-36,true,1.00,12363,460,12346,374,432822
Krys-37,true,1.00,3898,454,3885,122,142113
Krys-38,true,1.00,2851,417,2842,86,102042
Krys-39,true,1.00,10803,407,10802,327,390195
Krys-40,true,1.00,9605,431,9601,291,355490
Krys-41,true,1.00,8846,416,8844,268,324352
Krys-42,true,1.00,26,366,16,1,479
Krys-43,true,1.00,69,351,58,2,957
Krys-44,true,1.00,8154,432,8149,254,322099
Krys-45,true,1.00,4615,423,4609,143,149013
Krys-46,true,1.00,7421,439,7417,225,271818
Krys-47,true,1.00,47,453,39,1,1122
Krys-48,true,1.00,31,374,19,1,606
Krys-49,true,1.00,78,435,66,2,2058
Krys-50,true,1.00,11314,492,11311,344,392049
Krys-51,true,1.00,6969,418,6963,212,238887
Krys-52,true,1.00,1058,378,1049,31,31414
Krys-53,true,1.00,11258,496,11256,343,406441
Krys-54,true,1.00,8258,453,8252,254,301119
Krys-55,true,1.00,10719,450,10715,326,401034
Krys-56,false,0.59,31964,999,31962,999,1159393
Krys-57,true,1.00,30,362,22,1,640
Krys-58,true,1.00,8328,454,8324,258,310978
Krys-59,true,1.00,9836,399,9835,302,323897
Krys-60,true,1.00,11704,433,11664,353,426360
Krys-61,true,1.00,8652,449,8646,262,311111
Krys-62,true,1.00,8198,386,8192,251,263585
Krys-63,true,1.00,13831,581,13826,430,503401
Krys-64,true,1.00,2382,444,2376,72,93718
Krys-65,true,1.00,8915,434,8910,275,312380
Krys-66,true,1.00,13025,515,13023,397,436386
Krys-67,false,0.71,10105,319,10100,319,381377
Krys-68,true,1.00,62,375,18,1,575
Krys-69,true,1.00,11119,468,11115,344,390557
Krys-70,false,0.80,31718,999,31717,999,1179309
Krys-71,true,1.00,31,413,22,1,664
Krys-72,true,1.00,30,419,19,1,514
Krys-73,true,1.00,11332,478,11326,347,400217
Krys-74,true,1.00,33,391,21,1,641
Krys-75,true,1.00,229,392,216,7,6642
Krys-76,true,1.00,5218,399,5211,158,178036
Krys-77,true,1.00,28,401,17,1,459
Krys-78,false,0.70,32134,999,32126,999,1122564
Krys-79,true,1.00,9611,366,9609,292,313926
Krys-80,true,1.00,44,453,32,1,951
Krys-81,true,1.00,33,386,22,1,659
Krys-82,true,1.00,4743,410,4737,144,158650
Krys-83,true,1.00,13229,482,13225,402,470032
Krys-84,true,1.00,21,385,11,1,325
Krys-85,true,1.00,8077,415,8072,252,301514
Krys-86,true,1.00,8257,453,8249,252,322473
Krys-87,true,1.00,27,392,19,1,496
Krys-88,true,1.00,8078,394,8073,245,303907
Krys-89,true,1.00,45,408,38,1,995
Krys-90,true,1.00,76,363,67,2,2413
Krys-91,true,1.00,28,404,19,1,518
Krys-92,true,1.00,11722,447,11720,360,403456
Krys-93,true,1.00,576,368,561,17,19660
Krys-94,true,1.00,29,380,19,1,605
Krys-95,true,1.00,670,370,661,20,21393
Krys-96,true,1.00,26,407,18,1,520
Krys-97,true,1.00,7293,396,7288,222,265093
Krys-98,true,1.00,12878,494,12875,402,445141
Krys-99,true,1.00,6531,403,6526,198,210266
Krys-100,true,1.00,22,376,15,1,357
