SS:8.0
RIGHT_BORDER_X:235.0
level,win/fail,% travelled,run time,game ticks,planning time,total plannings,nodes evaluated,most backtracked nodes
Krys-1,true,1.00,12867,510,12854,402,453080
Krys-2,true,1.00,7047,373,6992,211,213002
Krys-3,false,0.70,31476,999,31440,999,1131717
Krys-4,true,1.00,9975,412,9924,305,346945
Krys-5,true,1.00,42,357,17,1,494
Krys-6,true,1.00,4850,372,4842,150,161442
Krys-7,true,1.00,26,395,13,1,426
Krys-8,true,1.00,1957,396,1946,59,66877
Krys-9,true,1.00,37,369,13,1,404
Krys-10,true,1.00,7058,416,7051,215,229407
Krys-11,true,1.00,56,404,25,1,489
Krys-12,true,1.00,9216,445,9212,279,304802
Krys-13,true,1.00,42,440,31,1,518
Krys-14,true,1.00,7289,375,7286,224,238250
Krys-15,true,1.00,8025,395,8019,243,283468
Krys-16,true,1.00,6307,416,6301,195,200561
Krys-17,true,1.00,8822,442,8805,270,321602
Krys-18,true,1.00,61,384,52,2,1402
Krys-19,true,1.00,5862,394,5854,177,191460
Krys-20,true,1.00,8224,439,8220,249,278502
Krys-21,true,1.00,24,378,11,1,369
Krys-22,true,1.00,26,368,16,1,478
Krys-23,true,1.00,1545,438,1536,47,51130
Krys-24,true,1.00,9675,485,9666,295,340066
Krys-25,true,1.00,1665,420,1648,50,60800
Krys-26,true,1.00,25,359,19,1,487
Krys-27,true,1.00,6210,398,6204,188,205855
Krys-28,true,1.00,10834,486,10788,332,384823
Krys-29,true,1.00,5606,442,5599,170,217233
Krys-30,true,1.00,9410,459,9404,286,323747
Krys-31,true,1.00,70,384,62,2,1970
Krys-32,true,1.00,29,430,20,1,513
Krys-33,true,1.00,27,402,15,1,448
Krys-34,true,1.00,3442,448,3434,104,129564
Krys-35,true,1.00,3104,371,3075,93,107510
Krys-36,true,1.00,12264,447,12262,371,453355
Krys-37,true,1.00,3885,454,3878,122,154424
Krys-38,true,1.00,2847,417,2838,86,113337
Krys-39,true,1.00,10804,407,10786,327,401191
Krys-40,true,1.00,9648,417,9646,292,363644
Krys-41,true,1.00,8846,416,8842,268,325649
Krys-42,true,1.00,25,366,17,1,479
Krys-43,true,1.00,62,351,51,2,863
Krys-44,true,1.00,8384,436,8381,258,335963
Krys-45,true,1.00,4616,423,4605,143,150340
Krys-46,true,1.00,7423,439,7418,225,271142
Krys-47,true,1.00,146,453,133,4,4433
Krys-48,true,1.00,32,374,21,1,606
Krys-49,true,1.00,78,435,66,2,2022
Krys-50,true,1.00,11323,492,11317,344,386192
Krys-51,true,1.00,6739,417,6733,205,234689
Krys-52,true,1.00,1751,378,1743,52,54862
Krys-53,true,1.00,11267,496,11262,343,412951
Krys-54,true,1.00,8259,453,8256,254,303968
Krys-55,true,1.00,10655,448,10652,324,396896
Krys-56,false,0.59,31973,999,31969,999,1159073
Krys-57,true,1.00,30,362,19,1,640
Krys-58,true,1.00,8327,454,8321,258,311614
Krys-59,true,1.00,8690,390,8672,269,287862
Krys-60,true,1.00,11653,433,11650,353,426375
Krys-61,true,1.00,8654,449,8648,262,307663
Krys-62,true,1.00,8968,413,8966,278,284523
Krys-63,true,1.00,13831,581,13829,430,505209
Krys-64,true,1.00,2381,444,2371,72,94297
Krys-65,true,1.00,9115,462,9110,281,317060
Krys-66,true,1.00,13027,515,13023,397,439470
Krys-67,false,0.71,10101,319,10100,319,374453
Krys-68,true,1.00,46,375,17,1,575
Krys-69,true,1.00,10779,463,10775,333,380355
Krys-70,true,1.00,12972,525,12968,393,464647
Krys-71,true,1.00,76,360,66,2,1246
Krys-72,true,1.00,58,419,34,1,514
Krys-73,true,1.00,11281,477,11277,346,381988
Krys-74,true,1.00,78,401,66,2,984
Krys-75,true,1.00,229,392,217,7,6530
Krys-76,true,1.00,5219,399,5213,158,175492
Krys-77,true,1.00,26,401,15,1,459
Krys-78,true,1.00,9937,472,9935,301,357591
Krys-79,true,1.00,9616,366,9614,292,314045
Krys-80,true,1.00,45,453,34,1,951
Krys-81,true,1.00,31,386,22,1,659
Krys-82,true,1.00,4744,410,4734,144,155842
Krys-83,true,1.00,13232,482,13227,402,463638
Krys-84,true,1.00,22,385,12,1,325
Krys-85,true,1.00,8082,415,8076,252,301031
Krys-86,true,1.00,8348,459,8343,255,328007
Krys-87,true,1.00,28,392,20,1,496
Krys-88,true,1.00,8077,394,8074,245,298761
Krys-89,true,1.00,45,408,37,1,995
Krys-90,true,1.00,73,363,63,2,2413
Krys-91,true,1.00,28,404,19,1,518
Krys-92,true,1.00,11725,447,11723,360,400584
Krys-93,true,1.00,81,357,68,2,2300
Krys-94,true,1.00,28,380,20,1,605
Krys-95,true,1.00,687,368,676,21,21755
Krys-96,true,1.00,26,407,17,1,520
Krys-97,true,1.00,7295,396,7289,222,263299
Krys-98,true,1.00,12881,494,12880,402,439328
Krys-99,true,1.00,6530,403,6524,198,208752
Krys-100,true,1.00,21,376,12,1,357
