SS:4.0
RIGHT_BORDER_X:95.0
level,win/fail,% travelled,run time,game ticks,planning time,total plannings,nodes evaluated,most backtracked nodes
Mario-1,true,1.00,53,448,30,1,284
Mario-2,true,1.00,462,323,441,13,1087
Mario-3,true,1.00,23,290,11,1,328
Mario-4,true,1.00,1347,439,1310,38,20506
Mario-5,true,1.00,488,463,476,14,1477
Mario-6,true,1.00,147,288,125,4,4711
Mario-7,true,1.00,13,452,7,1,398
Mario-8,true,1.00,4394,333,4385,130,267262
Mario-9,true,1.00,33,395,17,1,199
Mario-10,true,1.00,155,305,135,4,2201
Mario-11,true,1.00,39,412,25,1,441
Mario-12,true,1.00,348,565,307,9,4548
Mario-13,true,1.00,10,323,5,1,246
Mario-14,true,1.00,29,389,6,1,227
Mario-15,true,1.00,260,837,237,7,5607
