SS:1.0
RIGHT_BORDER_X:75.0
level,win/fail,% travelled,run time,game ticks,planning time,total plannings,nodes evaluated,most backtracked nodes
Mario-1,true,1.00,55,448,43,1,284
Mario-2,true,1.00,31,323,13,1,196
Mario-3,true,1.00,26,290,22,1,328
Mario-4,true,1.00,517,439,483,14,8622
Mario-5,true,1.00,35,462,9,1,410
Mario-6,true,1.00,118,287,98,3,4266
Mario-7,true,1.00,17,452,8,1,398
Mario-8,true,1.00,4263,321,4259,125,252474
Mario-9,true,1.00,53,395,28,1,199
Mario-10,true,1.00,441,305,419,13,6284
Mario-11,true,1.00,28,412,22,1,441
Mario-12,true,1.00,78,567,65,2,1779
Mario-13,true,1.00,9,323,4,1,246
Mario-14,true,1.00,17,389,6,1,227
Mario-15,true,1.00,58,837,30,1,990
