SS:2.0
RIGHT_BORDER_X:65.0
level,win/fail,% travelled,run time,game ticks,planning time,total plannings,nodes evaluated,most backtracked nodes
patternCount-1,true,1.00,13800,514,13800,431,883550
patternCount-2,true,1.00,11,423,8,1,279
patternCount-3,true,1.00,12,473,9,1,506
patternCount-4,true,1.00,10,448,7,1,341
patternCount-5,true,1.00,9,427,6,1,248
patternCount-6,true,1.00,9,429,7,1,325
patternCount-7,true,1.00,29,455,8,1,387
patternCount-8,true,1.00,50,437,32,1,1100
patternCount-9,true,1.00,10,474,6,1,319
patternCount-10,true,1.00,9,429,6,1,271
patternCount-11,true,1.00,26,514,22,1,436
patternCount-12,true,1.00,15,443,12,1,553
patternCount-13,true,1.00,8,417,5,1,260
patternCount-14,true,1.00,11,397,8,1,410
patternCount-15,true,1.00,9,429,6,1,241
patternCount-16,true,1.00,10,453,8,1,352
patternCount-17,true,1.00,43,461,39,2,536
patternCount-18,true,1.00,9,418,7,1,273
patternCount-19,true,1.00,10,396,7,1,302
patternCount-20,true,1.00,10,434,7,1,336
patternCount-21,true,1.00,8,420,5,1,234
patternCount-22,true,1.00,11,524,7,1,345
patternCount-23,true,1.00,29,504,26,1,1738
patternCount-24,true,1.00,13,478,10,1,646
patternCount-25,true,1.00,8,426,5,1,231
patternCount-26,true,1.00,10,412,7,1,319
patternCount-27,true,1.00,9,417,6,1,292
patternCount-28,true,1.00,12,476,8,1,396
patternCount-29,true,1.00,10,408,7,1,297
patternCount-30,true,1.00,33,488,8,1,351
patternCount-31,true,1.00,10,404,7,1,354
patternCount-32,true,1.00,21,459,16,1,457
patternCount-33,true,1.00,28,483,25,1,569
patternCount-34,true,1.00,20,455,9,1,518
patternCount-35,true,1.00,17,480,7,1,371
patternCount-36,true,1.00,7,374,5,1,214
patternCount-37,true,1.00,7,368,5,1,202
patternCount-38,true,1.00,12,482,9,1,501
patternCount-39,true,1.00,8,428,5,1,270
patternCount-40,true,1.00,17,502,12,1,638
patternCount-41,true,1.00,10,466,7,1,333
patternCount-42,true,1.00,9,443,5,1,284
patternCount-43,true,1.00,22,464,6,1,295
patternCount-44,true,1.00,8,436,5,1,222
patternCount-45,true,1.00,63,460,54,2,1966
patternCount-46,true,1.00,9,406,6,1,299
patternCount-47,true,1.00,25,445,22,1,401
patternCount-48,true,1.00,18,471,9,1,354
patternCount-49,true,1.00,9,437,6,1,287
patternCount-50,true,1.00,8827,408,8826,270,482576
patternCount-51,true,1.00,19,449,16,1,742
patternCount-52,true,1.00,8,418,5,1,281
patternCount-53,true,1.00,11,453,8,1,375
patternCount-54,true,1.00,13,468,9,1,410
patternCount-55,true,1.00,17,444,14,1,902
patternCount-56,true,1.00,9,426,6,1,304
patternCount-57,true,1.00,24,440,6,1,276
patternCount-58,true,1.00,8341,427,8340,255,417134
patternCount-59,true,1.00,10,484,7,1,341
patternCount-60,true,1.00,9,424,7,1,306
patternCount-61,true,1.00,10,422,7,1,331
patternCount-62,true,1.00,9,450,7,1,307
patternCount-63,true,1.00,8,420,5,1,242
patternCount-64,true,1.00,8,396,5,1,244
patternCount-65,true,1.00,9,419,6,1,309
patternCount-66,true,1.00,11,487,8,1,343
patternCount-67,true,1.00,24,452,8,1,395
patternCount-68,true,1.00,10,403,8,1,393
patternCount-69,true,1.00,23,475,20,1,354
patternCount-70,true,1.00,19,442,7,1,302
patternCount-71,true,1.00,10,478,7,1,351
patternCount-72,true,1.00,19,433,16,1,890
patternCount-73,true,1.00,12,488,9,1,450
patternCount-74,true,1.00,15,466,11,1,559
patternCount-75,true,1.00,12,416,8,1,340
patternCount-76,true,1.00,28,439,8,1,361
patternCount-77,true,1.00,10,431,6,1,254
patternCount-78,true,1.00,10,486,7,1,327
patternCount-79,true,1.00,19,495,15,1,862
patternCount-80,true,1.00,11,405,9,1,408
patternCount-81,true,1.00,10,461,7,1,303
patternCount-82,true,1.00,10,471,7,1,309
patternCount-83,true,1.00,12,439,8,1,396
patternCount-84,true,1.00,11,440,8,1,374
patternCount-85,true,1.00,10,455,7,1,348
patternCount-86,true,1.00,9,410,6,1,279
patternCount-87,true,1.00,12,468,9,1,451
patternCount-88,true,1.00,12,489,9,1,443
patternCount-89,true,1.00,8,410,5,1,255
patternCount-90,true,1.00,9,420,6,1,277
patternCount-91,true,1.00,9,396,7,1,396
patternCount-92,true,1.00,9,418,6,1,256
patternCount-93,true,1.00,13,479,10,1,505
patternCount-94,true,1.00,9,426,6,1,269
patternCount-95,true,1.00,12,499,8,1,394
patternCount-96,true,1.00,10,390,7,1,351
patternCount-97,false,0.87,12749,405,12745,405,711289
patternCount-98,true,1.00,39,447,6,1,298
patternCount-99,true,1.00,26,454,7,1,315
patternCount-100,true,1.00,24,397,18,1,286
