SS:6.0
RIGHT_BORDER_X:75.0
level,win/fail,% travelled,run time,game ticks,planning time,total plannings,nodes evaluated,most backtracked nodes
Krys-1,true,1.00,12628,512,12592,388,638093
Krys-2,true,1.00,3447,373,3435,103,146156
Krys-3,true,1.00,9863,490,9860,303,499006
Krys-4,true,1.00,7806,401,7805,240,431306
Krys-5,true,1.00,70,357,10,1,494
Krys-6,true,1.00,819,384,789,24,40120
Krys-7,true,1.00,24,395,21,1,426
Krys-8,true,1.00,242,414,223,6,6700
Krys-9,true,1.00,21,369,19,1,404
Krys-10,true,1.00,861,384,856,25,34405
Krys-11,true,1.00,18,404,12,1,489
Krys-12,false,0.70,32022,999,31970,999,1804635
Krys-13,true,1.00,30,440,12,1,518
Krys-14,true,1.00,7328,375,7300,224,331566
Krys-15,true,1.00,1647,379,1643,50,83114
Krys-16,true,1.00,6566,418,6561,203,294799
Krys-17,true,1.00,8617,436,8607,264,458773
Krys-18,true,1.00,49,384,45,2,950
Krys-19,true,1.00,1022,409,1019,31,46783
Krys-20,true,1.00,4773,412,4770,144,226162
Krys-21,true,1.00,10,378,8,1,369
Krys-22,true,1.00,29,368,13,1,478
Krys-23,true,1.00,1550,438,1540,47,66930
Krys-24,true,1.00,9269,475,9265,282,453743
Krys-25,true,1.00,1547,411,1544,47,82532
Krys-26,true,1.00,12,359,9,1,487
Krys-27,true,1.00,6007,398,6005,182,285848
Krys-28,true,1.00,8785,441,8784,275,443881
Krys-29,true,1.00,5539,446,5535,168,311932
Krys-30,true,1.00,9883,459,9882,301,479855
Krys-31,true,1.00,54,384,51,2,2430
Krys-32,true,1.00,14,430,11,1,513
Krys-33,true,1.00,14,402,10,1,448
Krys-34,true,1.00,624,386,621,19,33144
Krys-35,true,1.00,2871,386,2868,87,140893
Krys-36,true,1.00,11590,431,11576,351,615274
Krys-37,true,1.00,2771,419,2769,84,158751
Krys-38,true,1.00,519,428,517,16,30145
Krys-39,true,1.00,10808,407,10781,327,576192
Krys-40,true,1.00,9403,419,9402,285,514826
Krys-41,false,0.70,31953,999,31952,999,1790003
Krys-42,true,1.00,12,366,10,1,479
Krys-43,true,1.00,26,353,24,1,489
Krys-44,true,1.00,8244,435,8242,254,490560
Krys-45,true,1.00,4603,423,4601,143,204859
Krys-46,true,1.00,7417,448,7416,225,390019
Krys-47,true,1.00,26,453,23,1,1122
Krys-48,true,1.00,15,374,12,1,606
Krys-49,true,1.00,30,464,24,1,1080
Krys-50,true,1.00,10555,472,10554,321,520510
Krys-51,true,1.00,35,411,32,1,1559
Krys-52,true,1.00,523,378,520,16,22914
Krys-53,true,1.00,10853,478,10851,331,566848
Krys-54,true,1.00,5054,430,5050,153,265428
Krys-55,true,1.00,10335,457,10334,315,564272
Krys-56,true,1.00,3897,350,3893,118,185029
Krys-57,true,1.00,15,362,12,1,640
Krys-58,true,1.00,6920,426,6918,215,374211
Krys-59,true,1.00,8568,384,8567,263,397079
Krys-60,true,1.00,11207,410,11180,339,584830
Krys-61,true,1.00,5595,376,5594,170,280197
Krys-62,true,1.00,6770,431,6768,209,293698
Krys-63,true,1.00,14075,591,14073,440,731092
Krys-64,true,1.00,1777,444,1774,54,101409
Krys-65,true,1.00,8644,435,8643,266,431348
Krys-66,true,1.00,11381,475,11380,345,514361
Krys-67,true,1.00,10329,477,10328,314,567720
Krys-68,true,1.00,13,375,10,1,575
Krys-69,true,1.00,9444,474,9442,287,452278
Krys-70,true,1.00,10382,435,10380,315,531564
Krys-71,true,1.00,34,413,31,1,664
Krys-72,true,1.00,26,419,23,1,514
Krys-73,true,1.00,11662,491,11661,356,580090
Krys-74,true,1.00,17,391,14,1,641
Krys-75,true,1.00,33,392,30,1,1262
Krys-76,true,1.00,4520,375,4518,137,220835
Krys-77,true,1.00,13,401,10,1,459
Krys-78,true,1.00,9830,472,9828,298,503791
Krys-79,true,1.00,529,399,526,16,23183
Krys-80,true,1.00,25,453,22,1,951
Krys-81,true,1.00,17,386,14,1,659
Krys-82,true,1.00,1188,362,1184,36,54322
Krys-83,true,1.00,12679,465,12679,385,615316
Krys-84,true,1.00,12,385,7,1,325
Krys-85,true,1.00,6971,441,6970,221,368512
Krys-86,true,1.00,8180,466,8179,250,457695
Krys-87,true,1.00,14,392,11,1,496
Krys-88,true,1.00,8153,425,8149,247,430682
Krys-89,true,1.00,26,408,23,1,995
Krys-90,true,1.00,57,363,54,2,3119
Krys-91,true,1.00,14,404,11,1,518
Krys-92,true,1.00,11058,425,11057,340,528565
Krys-93,true,1.00,60,357,57,2,2781
Krys-94,true,1.00,17,380,12,1,605
Krys-95,true,1.00,558,370,551,17,24450
Krys-96,true,1.00,13,407,10,1,520
Krys-97,true,1.00,6235,362,6230,189,312523
Krys-98,true,1.00,12842,484,12841,395,604804
Krys-99,true,1.00,6520,403,6518,198,287998
Krys-100,true,1.00,10,376,7,1,357
