SS:30.0
RIGHT_BORDER_X:65.0
level,win/fail,% travelled,run time,game ticks,planning time,total plannings,nodes evaluated,most backtracked nodes
Krys-1,true,1.00,13271,522,13255,414,425197
Krys-2,true,1.00,7019,373,7001,211,205533
Krys-3,false,0.70,31487,999,31448,999,1038900
Krys-4,true,1.00,9948,412,9902,305,318050
Krys-5,true,1.00,82,321,66,2,1095
Krys-6,true,1.00,5841,376,5836,181,181433
Krys-7,true,1.00,28,395,19,1,426
Krys-8,true,1.00,4565,394,4556,138,145668
Krys-9,true,1.00,27,369,18,1,404
Krys-10,true,1.00,8450,415,8430,257,262804
Krys-11,true,1.00,53,404,23,1,489
Krys-12,true,1.00,9190,445,9185,279,286617
Krys-13,true,1.00,43,440,30,1,518
Krys-14,true,1.00,7292,375,7287,224,223696
Krys-15,true,1.00,9672,432,9668,293,322758
Krys-16,true,1.00,7491,415,7462,230,218834
Krys-17,true,1.00,8813,442,8807,270,304311
Krys-18,true,1.00,63,384,52,2,1399
Krys-19,true,1.00,5875,394,5843,177,179281
Krys-20,true,1.00,8188,438,8182,248,260395
Krys-21,true,1.00,25,378,17,1,369
Krys-22,true,1.00,27,368,15,1,478
Krys-23,true,1.00,1547,438,1535,47,47687
Krys-24,true,1.00,9679,485,9668,295,314507
Krys-25,true,1.00,1668,420,1650,50,55429
Krys-26,true,1.00,37,359,15,1,487
Krys-27,true,1.00,6309,398,6301,191,190190
Krys-28,true,1.00,10823,486,10787,332,357161
Krys-29,true,1.00,5650,442,5626,170,193537
Krys-30,true,1.00,9669,463,9665,294,301546
Krys-31,true,1.00,74,384,64,2,1763
Krys-32,true,1.00,32,430,19,1,513
Krys-33,true,1.00,31,402,22,1,448
Krys-34,true,1.00,6510,448,6503,197,226258
Krys-35,true,1.00,3745,385,3722,113,118250
Krys-36,true,1.00,12350,460,12347,374,409480
Krys-37,true,1.00,3890,454,3881,122,138104
Krys-38,true,1.00,10818,445,10802,329,393269
Krys-39,true,1.00,11802,438,11799,358,400550
Krys-40,true,1.00,9804,446,9802,297,340208
Krys-41,true,1.00,8850,416,8847,268,299367
Krys-42,true,1.00,28,366,18,1,479
Krys-43,true,1.00,69,351,59,2,747
Krys-44,true,1.00,8157,432,8153,254,305909
Krys-45,true,1.00,4617,423,4610,143,141258
Krys-46,true,1.00,7426,439,7421,225,259868
Krys-47,true,1.00,431,444,420,13,13802
Krys-48,true,1.00,31,374,22,1,606
Krys-49,true,1.00,81,435,74,2,2019
Krys-50,true,1.00,11317,492,11312,344,374433
Krys-51,true,1.00,8323,417,8318,253,276836
Krys-52,true,1.00,3807,378,3798,115,117941
Krys-53,true,1.00,11249,501,11243,347,389399
Krys-54,true,1.00,9123,416,9119,286,319921
Krys-55,true,1.00,10774,450,10771,328,385729
Krys-56,false,0.59,31978,999,31975,999,1097274
Krys-57,true,1.00,56,362,22,1,640
Krys-58,true,1.00,8335,454,8330,258,295718
Krys-59,true,1.00,8744,392,8740,271,277569
Krys-60,true,1.00,11234,411,11219,340,386351
Krys-61,true,1.00,8679,445,8676,264,290077
Krys-62,true,1.00,8965,413,8960,278,268019
Krys-63,true,1.00,13733,565,13729,430,439562
Krys-64,true,1.00,2542,443,2534,77,91557
Krys-65,true,1.00,9048,437,9043,279,292550
Krys-66,true,1.00,12503,518,12499,379,386137
Krys-67,false,0.71,9707,307,9706,307,339443
Krys-68,true,1.00,63,375,18,1,575
Krys-69,true,1.00,10803,463,10800,333,353405
Krys-70,true,1.00,12971,525,12967,393,432691
Krys-71,true,1.00,34,413,23,1,664
Krys-72,true,1.00,33,419,22,1,514
Krys-73,true,1.00,11333,478,11329,347,372747
Krys-74,true,1.00,35,391,23,1,641
Krys-75,true,1.00,231,392,221,7,6454
Krys-76,true,1.00,5223,399,5214,158,167619
Krys-77,true,1.00,29,401,17,1,459
Krys-78,true,1.00,9239,442,9228,280,311443
Krys-79,true,1.00,9613,366,9611,292,297901
Krys-80,true,1.00,48,453,35,1,951
Krys-81,true,1.00,35,386,23,1,659
Krys-82,true,1.00,4745,410,4739,144,149385
Krys-83,true,1.00,13285,483,13282,404,421367
Krys-84,true,1.00,26,385,16,1,325
Krys-85,true,1.00,8124,415,8120,252,274052
Krys-86,true,1.00,8248,453,8245,252,292341
Krys-87,true,1.00,113,339,89,3,1208
Krys-88,true,1.00,8080,394,8078,245,285574
Krys-89,true,1.00,79,415,65,2,1951
Krys-90,true,1.00,102,364,91,3,3160
Krys-91,true,1.00,31,404,18,1,518
Krys-92,true,1.00,11728,447,11725,360,380951
Krys-93,true,1.00,5587,363,5579,169,185608
Krys-94,true,1.00,30,380,21,1,605
Krys-95,true,1.00,690,368,678,21,20767
Krys-96,true,1.00,29,407,20,1,520
Krys-97,true,1.00,7297,396,7291,222,248291
Krys-98,true,1.00,14587,565,14585,453,477965
Krys-99,true,1.00,6532,403,6525,198,198787
Krys-100,true,1.00,23,376,14,1,357
