SS:3.0
RIGHT_BORDER_X:65.0
level,win/fail,% travelled,run time,game ticks,planning time,total plannings,nodes evaluated,most backtracked nodes
Krys-1,true,1.00,11145,510,11137,347,551430
Krys-2,true,1.00,3737,373,3712,112,156792
Krys-3,true,1.00,9763,490,9742,303,512447
Krys-4,true,1.00,7805,401,7803,240,435714
Krys-5,true,1.00,56,357,26,1,494
Krys-6,true,1.00,851,385,840,25,41466
Krys-7,true,1.00,38,395,9,1,426
Krys-8,true,1.00,237,414,210,6,6014
Krys-9,true,1.00,23,369,8,1,404
Krys-10,true,1.00,804,383,800,24,27139
Krys-11,true,1.00,35,404,32,1,489
Krys-12,false,0.70,32014,999,31956,999,1823541
Krys-13,true,1.00,35,440,10,1,518
Krys-14,true,1.00,7180,388,7154,219,331908
Krys-15,true,1.00,1784,398,1781,54,93083
Krys-16,true,1.00,6169,407,6165,192,282543
Krys-17,true,1.00,8610,436,8608,264,471338
Krys-18,true,1.00,32,401,26,1,1219
Krys-19,true,1.00,1021,409,1018,31,47773
Krys-20,true,1.00,4238,423,4223,128,209387
Krys-21,true,1.00,21,378,8,1,369
Krys-22,true,1.00,27,368,9,1,478
Krys-23,true,1.00,1574,438,1571,47,69282
Krys-24,true,1.00,9266,476,9265,283,481268
Krys-25,true,1.00,1546,411,1544,47,82946
Krys-26,true,1.00,12,359,9,1,487
Krys-27,true,1.00,6007,398,6005,182,289762
Krys-28,true,1.00,8776,441,8775,275,452703
Krys-29,true,1.00,5536,446,5534,168,318093
Krys-30,true,1.00,10261,490,10231,311,506358
Krys-31,true,1.00,61,384,59,2,1920
Krys-32,true,1.00,14,430,11,1,513
Krys-33,true,1.00,13,402,10,1,448
Krys-34,true,1.00,623,386,620,19,33970
Krys-35,true,1.00,2806,372,2804,85,141969
Krys-36,true,1.00,11577,431,11577,351,630658
Krys-37,true,1.00,2769,419,2767,84,162914
Krys-38,true,1.00,519,428,516,16,31085
Krys-39,true,1.00,10782,407,10779,327,591981
Krys-40,true,1.00,9403,419,9402,285,529808
Krys-41,false,0.70,31943,999,31940,999,1845076
Krys-42,true,1.00,12,366,10,1,479
Krys-43,true,1.00,36,353,25,1,489
Krys-44,true,1.00,8244,435,8243,254,503895
Krys-45,true,1.00,4603,423,4601,143,209666
Krys-46,true,1.00,7393,444,7391,224,398994
Krys-47,true,1.00,25,453,22,1,1122
Krys-48,true,1.00,15,374,12,1,606
Krys-49,true,1.00,27,464,24,1,1080
Krys-50,true,1.00,10328,483,10327,314,522639
Krys-51,true,1.00,35,411,32,1,1559
Krys-52,true,1.00,522,378,519,16,23053
Krys-53,true,1.00,10855,478,10853,331,580545
Krys-54,true,1.00,5049,430,5047,153,271684
Krys-55,true,1.00,10328,457,10327,315,579907
Krys-56,true,1.00,3369,355,3365,102,164024
Krys-57,true,1.00,14,362,12,1,640
Krys-58,true,1.00,6919,426,6918,215,381792
Krys-59,true,1.00,8822,395,8796,274,415080
Krys-60,true,1.00,11184,410,11183,339,603432
Krys-61,true,1.00,5601,376,5597,170,289079
Krys-62,true,1.00,6770,431,6768,209,300663
Krys-63,true,1.00,13674,584,13673,433,728520
Krys-64,true,1.00,1776,444,1773,54,104328
Krys-65,true,1.00,8648,435,8648,266,442830
Krys-66,true,1.00,11380,475,11379,345,527619
Krys-67,true,1.00,10332,477,10330,314,586917
Krys-68,true,1.00,14,375,11,1,575
Krys-69,true,1.00,8746,453,8741,266,431137
Krys-70,true,1.00,10447,437,10447,317,550038
Krys-71,true,1.00,15,413,12,1,664
Krys-72,true,1.00,14,419,11,1,514
Krys-73,true,1.00,11662,491,11661,356,597407
Krys-74,true,1.00,18,391,15,1,641
Krys-75,true,1.00,32,392,29,1,1262
Krys-76,true,1.00,4519,375,4517,137,226648
Krys-77,true,1.00,12,401,10,1,459
Krys-78,true,1.00,9830,472,9828,298,514100
Krys-79,true,1.00,68,400,65,2,2932
Krys-80,true,1.00,24,453,21,1,951
Krys-81,true,1.00,17,386,13,1,659
Krys-82,true,1.00,1186,362,1184,36,55455
Krys-83,true,1.00,12660,465,12657,385,649016
Krys-84,true,1.00,10,385,7,1,325
Krys-85,true,1.00,6967,441,6966,221,380452
Krys-86,true,1.00,8179,466,8178,250,467847
Krys-87,true,1.00,15,392,12,1,496
Krys-88,true,1.00,8153,425,8149,247,445013
Krys-89,true,1.00,26,408,23,1,995
Krys-90,true,1.00,57,363,54,2,3160
Krys-91,true,1.00,14,404,11,1,518
Krys-92,true,1.00,11056,425,11055,340,543479
Krys-93,true,1.00,59,357,57,2,2824
Krys-94,true,1.00,14,380,11,1,605
Krys-95,true,1.00,559,370,550,17,24733
Krys-96,true,1.00,13,407,10,1,520
Krys-97,true,1.00,6223,362,6222,189,320324
Krys-98,true,1.00,12976,489,12975,400,626308
Krys-99,true,1.00,6521,403,6519,198,294899
Krys-100,true,1.00,10,376,7,1,357
