SS:1.0
RIGHT_BORDER_X:200.0
level,win/fail,% travelled,run time,game ticks,planning time,total plannings,nodes evaluated,most backtracked nodes
Mario-1,true,1.00,70,434,50,2,421
Mario-2,true,1.00,42,323,23,1,196
Mario-3,true,1.00,36,290,30,1,328
Mario-4,true,1.00,922,439,909,26,14265
Mario-5,true,1.00,17,462,8,1,410
Mario-6,true,1.00,35,288,29,1,1271
Mario-7,true,1.00,14,452,8,1,398
Mario-8,true,1.00,4378,321,4371,129,268617
Mario-9,true,1.00,40,395,29,1,199
Mario-10,true,1.00,673,305,669,19,9128
Mario-11,true,1.00,28,412,11,1,441
Mario-12,true,1.00,56,563,19,1,970
Mario-13,true,1.00,8,323,4,1,246
Mario-14,true,1.00,20,389,6,1,227
Mario-15,true,1.00,153,833,127,4,3306
