SS:4.0
RIGHT_BORDER_X:65.0
level,win/fail,% travelled,run time,game ticks,planning time,total plannings,nodes evaluated,most backtracked nodes
Krys-1,true,1.00,12196,544,12158,374,645158
Krys-2,true,1.00,3715,373,3713,112,169274
Krys-3,true,1.00,9749,490,9745,303,520971
Krys-4,true,1.00,7800,401,7800,240,446455
Krys-5,true,1.00,13,357,11,1,494
Krys-6,true,1.00,828,385,823,25,42401
Krys-7,true,1.00,12,395,9,1,426
Krys-8,true,1.00,119,409,90,3,3766
Krys-9,true,1.00,21,369,19,1,404
Krys-10,true,1.00,842,383,821,24,31770
Krys-11,true,1.00,34,404,12,1,489
Krys-12,false,0.70,32041,999,31992,999,1847460
Krys-13,true,1.00,26,440,11,1,518
Krys-14,true,1.00,6764,388,6734,207,312674
Krys-15,true,1.00,1490,392,1485,45,75398
Krys-16,true,1.00,6169,407,6166,192,283127
Krys-17,true,1.00,8613,436,8611,264,469461
Krys-18,true,1.00,38,401,26,1,1219
Krys-19,true,1.00,1028,409,1025,31,48110
Krys-20,true,1.00,4816,405,4814,146,238485
Krys-21,true,1.00,36,378,7,1,369
Krys-22,true,1.00,17,368,10,1,478
Krys-23,true,1.00,1533,438,1528,47,70715
Krys-24,true,1.00,9265,476,9262,283,477341
Krys-25,true,1.00,1546,411,1544,47,83581
Krys-26,true,1.00,12,359,9,1,487
Krys-27,true,1.00,6007,398,6005,182,290994
Krys-28,true,1.00,8781,441,8781,275,447156
Krys-29,true,1.00,5536,446,5534,168,314536
Krys-30,true,1.00,10398,474,10378,316,507373
Krys-31,true,1.00,54,384,51,2,1642
Krys-32,true,1.00,15,430,12,1,513
Krys-33,true,1.00,13,402,10,1,448
Krys-34,true,1.00,625,386,622,19,33416
Krys-35,true,1.00,2813,372,2811,85,141403
Krys-36,true,1.00,11577,431,11575,351,620199
Krys-37,true,1.00,2771,419,2769,84,159898
Krys-38,true,1.00,519,428,516,16,30300
Krys-39,true,1.00,10805,407,10789,327,578333
Krys-40,true,1.00,9405,419,9404,285,520959
Krys-41,false,0.70,31950,999,31950,999,1804207
Krys-42,true,1.00,13,366,10,1,479
Krys-43,true,1.00,41,353,25,1,489
Krys-44,true,1.00,8245,435,8243,254,488770
Krys-45,true,1.00,4603,423,4601,143,205174
Krys-46,true,1.00,7416,448,7414,225,388274
Krys-47,true,1.00,27,453,24,1,1122
Krys-48,true,1.00,16,374,13,1,606
Krys-49,true,1.00,29,464,25,1,1080
Krys-50,true,1.00,10349,483,10348,314,489299
Krys-51,true,1.00,6544,414,6543,198,310930
Krys-52,true,1.00,522,378,519,16,22917
Krys-53,true,1.00,10853,478,10852,331,565340
Krys-54,true,1.00,5050,430,5048,153,264453
Krys-55,true,1.00,10337,457,10334,315,559939
Krys-56,true,1.00,3564,360,3561,109,169863
Krys-57,true,1.00,14,362,11,1,640
Krys-58,true,1.00,6920,426,6918,215,372577
Krys-59,true,1.00,8755,393,8731,272,404815
Krys-60,true,1.00,11186,410,11185,339,588069
Krys-61,true,1.00,4388,449,4386,133,216410
Krys-62,true,1.00,6767,431,6766,209,296008
Krys-63,true,1.00,14076,591,14074,440,727615
Krys-64,true,1.00,1778,444,1776,54,101012
Krys-65,true,1.00,8660,435,8657,266,429566
Krys-66,true,1.00,11379,475,11378,345,513337
Krys-67,true,1.00,10329,477,10328,314,567466
Krys-68,true,1.00,14,375,11,1,575
Krys-69,true,1.00,9442,474,9440,287,450449
Krys-70,true,1.00,10383,435,10382,315,530416
Krys-71,true,1.00,16,413,13,1,664
Krys-72,true,1.00,35,419,32,1,514
Krys-73,true,1.00,11882,519,11881,362,593428
Krys-74,true,1.00,37,391,20,1,641
Krys-75,true,1.00,65,387,63,2,2254
Krys-76,true,1.00,4520,375,4518,137,220146
Krys-77,true,1.00,12,401,9,1,459
Krys-78,true,1.00,9831,472,9829,298,504055
Krys-79,true,1.00,497,428,494,15,21638
Krys-80,true,1.00,26,453,22,1,951
Krys-81,true,1.00,16,386,13,1,659
Krys-82,true,1.00,1189,362,1184,36,54316
Krys-83,true,1.00,12662,465,12659,385,633652
Krys-84,true,1.00,10,385,8,1,325
Krys-85,true,1.00,6974,441,6973,221,369084
Krys-86,true,1.00,8180,466,8179,250,454096
Krys-87,true,1.00,15,392,12,1,496
Krys-88,true,1.00,8151,425,8150,247,429055
Krys-89,true,1.00,26,408,24,1,995
Krys-90,true,1.00,57,363,54,2,3075
Krys-91,true,1.00,15,404,12,1,518
Krys-92,true,1.00,11060,425,11059,340,529071
Krys-93,true,1.00,59,357,56,2,2761
Krys-94,true,1.00,16,380,11,1,605
Krys-95,true,1.00,559,370,551,17,24403
Krys-96,true,1.00,13,407,10,1,520
Krys-97,true,1.00,6228,362,6223,189,310710
Krys-98,true,1.00,12882,484,12880,398,604062
Krys-99,true,1.00,6521,403,6520,198,286822
Krys-100,true,1.00,9,376,6,1,357
