SS:5.0
RIGHT_BORDER_X:95.0
level,win/fail,% travelled,run time,game ticks,planning time,total plannings,nodes evaluated,most backtracked nodes
Mario-1,true,1.00,57,448,32,1,284
Mario-2,true,1.00,40,323,24,1,196
Mario-3,true,1.00,40,290,29,1,328
Mario-4,true,1.00,336,439,306,8,4220
Mario-5,true,1.00,195,463,158,5,1662
Mario-6,true,1.00,161,288,142,4,4738
Mario-7,true,1.00,23,452,9,1,398
Mario-8,true,1.00,4388,321,4380,129,252755
Mario-9,true,1.00,32,395,16,1,199
Mario-10,true,1.00,540,297,537,15,7171
Mario-11,true,1.00,400,402,394,12,4135
Mario-12,true,1.00,88,567,52,2,1803
Mario-13,true,1.00,8,323,4,1,246
Mario-14,true,1.00,29,389,7,1,227
Mario-15,true,1.00,143,833,119,4,3042
