SS:4.0
RIGHT_BORDER_X:215.0
level,win/fail,% travelled,run time,game ticks,planning time,total plannings,nodes evaluated,most backtracked nodes
Mario-1,true,1.00,50,448,28,1,284
Mario-2,true,1.00,326,322,319,9,909
Mario-3,true,1.00,52,290,32,1,328
Mario-4,true,1.00,600,439,589,17,7263
Mario-5,true,1.00,28,462,17,1,410
Mario-6,true,1.00,36,288,30,1,1271
Mario-7,true,1.00,23,452,6,1,398
Mario-8,true,1.00,4939,326,4924,142,259054
Mario-9,true,1.00,31,395,15,1,199
Mario-10,true,1.00,636,297,617,18,9037
Mario-11,true,1.00,86,411,62,2,763
Mario-12,true,1.00,305,567,275,8,4040
Mario-13,true,1.00,9,323,4,1,246
Mario-14,true,1.00,14,389,6,1,227
Mario-15,true,1.00,74,837,31,1,990
