SS:8.0
RIGHT_BORDER_X:235.0
level,win/fail,% travelled,run time,game ticks,planning time,total plannings,nodes evaluated,most backtracked nodes
patternCount-1,false,0.98,15388,501,15388,501,649295
patternCount-2,true,1.00,23,423,15,1,279
patternCount-3,true,1.00,28,473,19,1,506
patternCount-4,true,1.00,25,448,13,1,341
patternCount-5,true,1.00,21,427,11,1,248
patternCount-6,true,1.00,42,429,11,1,325
patternCount-7,true,1.00,27,455,15,1,387
patternCount-8,true,1.00,144,437,134,4,3139
patternCount-9,true,1.00,23,474,13,1,319
patternCount-10,true,1.00,21,429,10,1,271
patternCount-11,true,1.00,29,514,16,1,436
patternCount-12,true,1.00,28,443,19,1,553
patternCount-13,true,1.00,20,417,12,1,260
patternCount-14,true,1.00,23,397,14,1,410
patternCount-15,true,1.00,31,429,12,1,241
patternCount-16,true,1.00,30,453,16,1,352
patternCount-17,true,1.00,57,460,27,1,318
patternCount-18,true,1.00,25,418,11,1,273
patternCount-19,true,1.00,20,396,9,1,302
patternCount-20,true,1.00,23,434,14,1,336
patternCount-21,true,1.00,19,420,9,1,234
patternCount-22,true,1.00,27,524,15,1,345
patternCount-23,true,1.00,4859,478,4850,147,212862
patternCount-24,true,1.00,30,478,20,1,646
patternCount-25,true,1.00,21,426,11,1,231
patternCount-26,true,1.00,21,412,12,1,319
patternCount-27,true,1.00,21,417,13,1,292
patternCount-28,true,1.00,44,476,13,1,396
patternCount-29,true,1.00,28,408,19,1,297
patternCount-30,true,1.00,26,488,13,1,351
patternCount-31,true,1.00,22,404,13,1,354
patternCount-32,true,1.00,27,459,18,1,457
patternCount-33,true,1.00,30,483,19,1,569
patternCount-34,true,1.00,27,455,18,1,518
patternCount-35,true,1.00,55,480,32,1,371
patternCount-36,true,1.00,22,374,10,1,214
patternCount-37,true,1.00,26,368,7,1,202
patternCount-38,true,1.00,33,482,21,1,501
patternCount-39,true,1.00,21,428,12,1,270
patternCount-40,true,1.00,33,502,20,1,638
patternCount-41,true,1.00,24,466,11,1,333
patternCount-42,true,1.00,22,443,10,1,284
patternCount-43,true,1.00,37,464,10,1,295
patternCount-44,true,1.00,28,436,12,1,222
patternCount-45,true,1.00,46,435,32,1,1118
patternCount-46,true,1.00,21,406,11,1,299
patternCount-47,true,1.00,43,445,14,1,401
patternCount-48,true,1.00,46,471,19,1,354
patternCount-49,true,1.00,39,437,9,1,287
patternCount-50,true,1.00,9194,417,9190,279,344538
patternCount-51,true,1.00,35,449,23,1,742
patternCount-52,true,1.00,20,418,12,1,281
patternCount-53,true,1.00,32,453,19,1,375
patternCount-54,true,1.00,27,468,17,1,410
patternCount-55,true,1.00,35,444,26,1,902
patternCount-56,true,1.00,21,426,12,1,304
patternCount-57,true,1.00,22,440,14,1,276
patternCount-58,false,0.85,13312,424,13312,424,471386
patternCount-59,true,1.00,25,484,14,1,341
patternCount-60,true,1.00,21,424,9,1,306
patternCount-61,true,1.00,22,422,12,1,331
patternCount-62,true,1.00,23,450,10,1,307
patternCount-63,true,1.00,20,420,7,1,242
patternCount-64,true,1.00,19,396,8,1,244
patternCount-65,true,1.00,21,419,13,1,309
patternCount-66,true,1.00,51,487,14,1,343
patternCount-67,true,1.00,36,452,26,1,395
patternCount-68,true,1.00,48,403,13,1,393
patternCount-69,true,1.00,24,475,14,1,354
patternCount-70,true,1.00,22,442,12,1,302
patternCount-71,true,1.00,24,478,13,1,351
patternCount-72,true,1.00,37,433,24,1,890
patternCount-73,true,1.00,27,488,16,1,450
patternCount-74,true,1.00,32,466,20,1,559
patternCount-75,true,1.00,26,416,17,1,340
patternCount-76,true,1.00,48,439,11,1,361
patternCount-77,true,1.00,21,431,10,1,254
patternCount-78,true,1.00,25,486,14,1,327
patternCount-79,true,1.00,37,495,25,1,862
patternCount-80,true,1.00,24,405,15,1,408
patternCount-81,true,1.00,23,461,10,1,303
patternCount-82,true,1.00,23,471,15,1,309
patternCount-83,true,1.00,24,439,14,1,396
patternCount-84,true,1.00,25,440,12,1,374
patternCount-85,true,1.00,24,455,13,1,348
patternCount-86,true,1.00,22,410,10,1,279
patternCount-87,true,1.00,27,468,16,1,451
patternCount-88,true,1.00,27,489,15,1,443
patternCount-89,true,1.00,20,410,10,1,255
patternCount-90,true,1.00,21,420,10,1,277
patternCount-91,true,1.00,23,396,13,1,396
patternCount-92,true,1.00,20,418,12,1,256
patternCount-93,true,1.00,29,479,17,1,505
patternCount-94,true,1.00,20,426,12,1,269
patternCount-95,true,1.00,27,499,13,1,394
patternCount-96,true,1.00,21,390,11,1,351
patternCount-97,false,0.87,12752,406,12752,406,483365
patternCount-98,true,1.00,21,447,10,1,298
patternCount-99,true,1.00,23,454,13,1,315
patternCount-100,true,1.00,20,397,10,1,286
