SS:7.0
RIGHT_BORDER_X:165.0
level,win/fail,% travelled,run time,game ticks,planning time,total plannings,nodes evaluated,most backtracked nodes
Krys-1,true,1.00,11182,509,11120,346,552551
Krys-2,true,1.00,3443,373,3429,103,148545
Krys-3,true,1.00,9761,490,9757,303,511521
Krys-4,true,1.00,7823,401,7814,240,421788
Krys-5,true,1.00,64,357,26,1,494
Krys-6,true,1.00,876,386,860,26,35911
Krys-7,true,1.00,12,395,9,1,426
Krys-8,true,1.00,264,410,245,7,7462
Krys-9,true,1.00,19,369,9,1,404
Krys-10,true,1.00,840,383,834,24,31885
Krys-11,true,1.00,15,404,12,1,489
Krys-12,false,0.70,31987,999,31950,999,1727664
Krys-13,true,1.00,35,440,11,1,518
Krys-14,true,1.00,7195,388,7177,219,331668
Krys-15,true,1.00,1718,390,1715,52,87613
Krys-16,true,1.00,6169,407,6165,192,283672
Krys-17,true,1.00,8617,436,8610,264,470537
Krys-18,true,1.00,63,384,60,2,1619
Krys-19,true,1.00,1028,409,1025,31,45489
Krys-20,true,1.00,4604,425,4588,139,227011
Krys-21,true,1.00,10,378,7,1,369
Krys-22,true,1.00,31,368,18,1,478
Krys-23,true,1.00,1535,438,1531,47,70784
Krys-24,true,1.00,9264,476,9262,283,483241
Krys-25,true,1.00,1547,411,1545,47,84410
Krys-26,true,1.00,11,359,8,1,487
Krys-27,true,1.00,6006,398,6004,182,293231
Krys-28,true,1.00,8775,441,8774,275,449804
Krys-29,true,1.00,5536,446,5534,168,318013
Krys-30,true,1.00,10230,490,10229,311,506919
Krys-31,true,1.00,53,384,50,2,2372
Krys-32,true,1.00,14,430,11,1,513
Krys-33,true,1.00,15,402,11,1,448
Krys-34,true,1.00,625,386,622,19,33979
Krys-35,true,1.00,2808,372,2806,85,142808
Krys-36,true,1.00,11599,431,11583,351,630240
Krys-37,true,1.00,2772,419,2769,84,160097
Krys-38,true,1.00,519,428,516,16,30756
Krys-39,true,1.00,10792,407,10777,327,591658
Krys-40,true,1.00,8916,404,8915,270,497093
Krys-41,false,0.70,31949,999,31949,999,1826348
Krys-42,true,1.00,12,366,9,1,479
Krys-43,true,1.00,46,351,44,2,760
Krys-44,true,1.00,8245,435,8244,254,501063
Krys-45,true,1.00,4605,423,4603,143,209313
Krys-46,true,1.00,7415,448,7413,225,397378
Krys-47,true,1.00,26,453,23,1,1122
Krys-48,true,1.00,15,374,12,1,606
Krys-49,true,1.00,27,464,23,1,1080
Krys-50,true,1.00,10332,483,10329,314,520502
Krys-51,true,1.00,34,411,30,1,1559
Krys-52,true,1.00,523,378,520,16,23337
Krys-53,true,1.00,10854,478,10852,331,579618
Krys-54,true,1.00,5068,430,5063,153,269036
Krys-55,true,1.00,10332,457,10331,315,575081
Krys-56,true,1.00,3864,349,3860,117,187787
Krys-57,true,1.00,15,362,12,1,640
Krys-58,true,1.00,6920,426,6919,215,382027
Krys-59,true,1.00,8469,380,8467,259,399499
Krys-60,true,1.00,11205,410,11190,339,598897
Krys-61,true,1.00,5602,376,5597,170,287195
Krys-62,true,1.00,6767,431,6765,209,300966
Krys-63,true,1.00,13677,584,13676,433,722582
Krys-64,true,1.00,1777,444,1775,54,103557
Krys-65,true,1.00,8647,435,8644,266,438901
Krys-66,true,1.00,11377,475,11376,345,523082
Krys-67,true,1.00,10330,477,10329,314,580598
Krys-68,true,1.00,13,375,10,1,575
Krys-69,true,1.00,9964,474,9963,311,502912
Krys-70,true,1.00,10385,435,10384,315,544563
Krys-71,true,1.00,15,413,12,1,664
Krys-72,true,1.00,15,419,11,1,514
Krys-73,true,1.00,11664,491,11662,356,596575
Krys-74,true,1.00,17,391,14,1,641
Krys-75,true,1.00,31,392,28,1,1262
Krys-76,true,1.00,4519,375,4517,137,225605
Krys-77,true,1.00,12,401,9,1,459
Krys-78,true,1.00,9833,472,9831,298,515822
Krys-79,true,1.00,101,407,98,3,4368
Krys-80,true,1.00,25,453,21,1,951
Krys-81,true,1.00,17,386,13,1,659
Krys-82,true,1.00,1187,362,1183,36,55440
Krys-83,true,1.00,12660,465,12659,385,649286
Krys-84,true,1.00,12,385,7,1,325
Krys-85,true,1.00,6968,441,6966,221,380437
Krys-86,true,1.00,8180,466,8178,250,467801
Krys-87,true,1.00,14,392,11,1,496
Krys-88,true,1.00,8152,425,8148,247,443916
Krys-89,true,1.00,26,408,23,1,995
Krys-90,true,1.00,56,363,53,2,3183
Krys-91,true,1.00,14,404,12,1,518
Krys-92,true,1.00,11060,425,11059,340,541827
Krys-93,true,1.00,58,357,55,2,2809
Krys-94,true,1.00,14,380,11,1,605
Krys-95,true,1.00,553,370,550,17,24912
Krys-96,true,1.00,12,407,10,1,520
Krys-97,true,1.00,6226,362,6225,189,320466
Krys-98,true,1.00,13210,496,13209,407,634323
Krys-99,true,1.00,6521,403,6519,198,293756
Krys-100,true,1.00,10,376,7,1,357
