SS:2.0
RIGHT_BORDER_X:95.0
level,win/fail,% travelled,run time,game ticks,planning time,total plannings,nodes evaluated,most backtracked nodes
Mario-1,true,1.00,91,434,62,2,499
Mario-2,true,1.00,29,323,11,1,196
Mario-3,true,1.00,20,290,11,1,328
Mario-4,true,1.00,1711,412,1688,47,27238
Mario-5,true,1.00,612,464,596,18,2558
Mario-6,true,1.00,154,288,131,4,5188
Mario-7,true,1.00,27,452,10,1,398
Mario-8,true,1.00,4437,333,4420,130,263081
Mario-9,true,1.00,35,395,27,1,199
Mario-10,true,1.00,264,305,245,7,3630
Mario-11,true,1.00,42,412,19,1,441
Mario-12,true,1.00,704,567,679,20,11145
Mario-13,true,1.00,25,323,5,1,246
Mario-14,true,1.00,31,389,6,1,227
Mario-15,true,1.00,160,833,135,4,3294
