SS:6.0
RIGHT_BORDER_X:65.0
level,win/fail,% travelled,run time,game ticks,planning time,total plannings,nodes evaluated,most backtracked nodes
Krys-1,true,1.00,12771,528,12708,402,669284
Krys-2,true,1.00,4119,373,4116,124,172335
Krys-3,true,1.00,9803,490,9784,303,514564
Krys-4,true,1.00,7808,401,7804,240,438119
Krys-5,true,1.00,28,357,19,1,494
Krys-6,true,1.00,825,385,821,25,42087
Krys-7,true,1.00,28,395,26,1,426
Krys-8,true,1.00,94,409,91,3,3592
Krys-9,true,1.00,11,369,8,1,404
Krys-10,true,1.00,1653,416,1634,51,72134
Krys-11,true,1.00,15,404,12,1,489
Krys-12,false,0.70,32028,999,31959,999,1820251
Krys-13,true,1.00,45,440,11,1,518
Krys-14,true,1.00,6734,388,6733,207,319370
Krys-15,true,1.00,907,383,890,27,47125
Krys-16,true,1.00,6171,407,6168,192,285144
Krys-17,true,1.00,8609,436,8608,264,474008
Krys-18,true,1.00,31,401,25,1,1219
Krys-19,true,1.00,1021,409,1018,31,51343
Krys-20,true,1.00,4846,405,4843,146,217394
Krys-21,true,1.00,31,378,8,1,369
Krys-22,true,1.00,13,368,10,1,478
Krys-23,true,1.00,1582,438,1578,47,68909
Krys-24,true,1.00,9270,476,9269,283,475525
Krys-25,true,1.00,1547,411,1545,47,85468
Krys-26,true,1.00,11,359,9,1,487
Krys-27,true,1.00,6007,398,6005,182,297513
Krys-28,true,1.00,8774,441,8773,275,457724
Krys-29,true,1.00,5537,446,5535,168,323042
Krys-30,true,1.00,10257,490,10232,311,511890
Krys-31,true,1.00,52,384,49,2,2405
Krys-32,true,1.00,14,430,11,1,513
Krys-33,true,1.00,13,402,10,1,448
Krys-34,true,1.00,624,386,621,19,34293
Krys-35,true,1.00,2824,372,2822,85,139659
Krys-36,true,1.00,11576,431,11576,351,640779
Krys-37,true,1.00,2246,433,2243,68,134018
Krys-38,true,1.00,519,428,516,16,31307
Krys-39,true,1.00,10780,407,10777,327,600651
Krys-40,true,1.00,9402,419,9401,285,538168
Krys-41,false,0.70,31941,999,31941,999,1865923
Krys-42,true,1.00,12,366,9,1,479
Krys-43,true,1.00,32,353,23,1,489
Krys-44,true,1.00,8245,435,8244,254,510321
Krys-45,true,1.00,4601,423,4599,143,213044
Krys-46,true,1.00,7395,444,7392,224,403198
Krys-47,true,1.00,26,453,23,1,1122
Krys-48,true,1.00,14,374,12,1,606
Krys-49,true,1.00,28,464,24,1,1080
Krys-50,true,1.00,10329,483,10327,314,529468
Krys-51,true,1.00,33,411,30,1,1559
Krys-52,true,1.00,522,378,519,16,23780
Krys-53,true,1.00,10853,478,10851,331,588784
Krys-54,true,1.00,5148,433,5146,156,281149
Krys-55,true,1.00,10331,457,10330,315,584961
Krys-56,true,1.00,3110,353,3101,94,153227
Krys-57,true,1.00,14,362,11,1,640
Krys-58,true,1.00,6800,423,6798,209,381588
Krys-59,true,1.00,8834,394,8833,273,423658
Krys-60,true,1.00,11202,410,11177,339,607879
Krys-61,true,1.00,5602,376,5597,170,289781
Krys-62,true,1.00,6766,431,6764,209,306507
Krys-63,true,1.00,13672,584,13669,433,737278
Krys-64,true,1.00,1776,444,1773,54,105501
Krys-65,true,1.00,8667,435,8664,266,436201
Krys-66,true,1.00,11379,475,11378,345,533704
Krys-67,true,1.00,10330,477,10329,314,589001
Krys-68,true,1.00,13,375,11,1,575
Krys-69,true,1.00,9930,473,9929,310,508005
Krys-70,true,1.00,10382,435,10381,315,551831
Krys-71,true,1.00,31,413,28,1,664
Krys-72,true,1.00,36,419,24,1,514
Krys-73,true,1.00,11661,491,11660,356,601058
Krys-74,true,1.00,17,391,14,1,641
Krys-75,true,1.00,31,392,28,1,1262
Krys-76,true,1.00,4519,375,4517,137,228089
Krys-77,true,1.00,12,401,9,1,459
Krys-78,true,1.00,9831,472,9828,298,524830
Krys-79,true,1.00,34,399,31,1,1496
Krys-80,true,1.00,25,453,22,1,951
Krys-81,true,1.00,18,386,13,1,659
Krys-82,true,1.00,1186,362,1183,36,56594
Krys-83,true,1.00,12703,465,12696,385,636592
Krys-84,true,1.00,12,385,7,1,325
Krys-85,true,1.00,6961,441,6959,221,379473
Krys-86,true,1.00,8179,466,8177,250,474633
Krys-87,true,1.00,14,392,11,1,496
Krys-88,true,1.00,8153,425,8149,247,446993
Krys-89,true,1.00,26,408,23,1,995
Krys-90,true,1.00,55,363,53,2,3114
Krys-91,true,1.00,14,404,11,1,518
Krys-92,true,1.00,11056,425,11056,340,550126
Krys-93,true,1.00,34,389,31,1,1651
Krys-94,true,1.00,14,380,12,1,605
Krys-95,true,1.00,558,370,550,17,25432
Krys-96,true,1.00,12,407,9,1,520
Krys-97,true,1.00,6227,362,6225,189,325646
Krys-98,true,1.00,12847,484,12846,395,627188
Krys-99,true,1.00,5400,411,5398,164,247001
Krys-100,true,1.00,9,376,7,1,357
