SS:30.0
RIGHT_BORDER_X:150.0
level,win/fail,% travelled,run time,game ticks,planning time,total plannings,nodes evaluated,most backtracked nodes
patternCount-1,false,0.98,14300,464,14300,464,554666
patternCount-2,true,1.00,27,423,20,1,279
patternCount-3,true,1.00,31,473,21,1,506
patternCount-4,true,1.00,25,448,13,1,341
patternCount-5,true,1.00,24,427,12,1,248
patternCount-6,true,1.00,52,429,18,1,325
patternCount-7,true,1.00,42,455,32,1,387
patternCount-8,true,1.00,149,416,138,4,3123
patternCount-9,true,1.00,25,474,15,1,319
patternCount-10,true,1.00,21,429,13,1,271
patternCount-11,true,1.00,32,514,19,1,436
patternCount-12,true,1.00,31,443,19,1,553
patternCount-13,true,1.00,38,417,28,1,260
patternCount-14,true,1.00,25,397,19,1,410
patternCount-15,true,1.00,38,429,12,1,241
patternCount-16,true,1.00,38,453,25,1,352
patternCount-17,true,1.00,66,460,18,1,318
patternCount-18,true,1.00,30,418,23,1,273
patternCount-19,true,1.00,22,396,12,1,302
patternCount-20,true,1.00,25,434,16,1,336
patternCount-21,true,1.00,21,420,11,1,234
patternCount-22,true,1.00,29,524,18,1,345
patternCount-23,true,1.00,6722,463,6716,204,270518
patternCount-24,true,1.00,33,478,21,1,646
patternCount-25,true,1.00,22,426,10,1,231
patternCount-26,true,1.00,22,412,15,1,319
patternCount-27,true,1.00,22,417,13,1,292
patternCount-28,true,1.00,48,476,13,1,396
patternCount-29,true,1.00,31,408,14,1,297
patternCount-30,true,1.00,28,488,15,1,351
patternCount-31,true,1.00,24,404,16,1,354
patternCount-32,true,1.00,29,459,15,1,457
patternCount-33,true,1.00,32,483,20,1,569
patternCount-34,true,1.00,29,455,16,1,518
patternCount-35,true,1.00,26,480,16,1,371
patternCount-36,true,1.00,31,374,12,1,214
patternCount-37,true,1.00,21,368,7,1,202
patternCount-38,true,1.00,30,482,18,1,501
patternCount-39,true,1.00,24,428,13,1,270
patternCount-40,true,1.00,34,502,21,1,638
patternCount-41,true,1.00,25,466,15,1,333
patternCount-42,true,1.00,36,443,11,1,284
patternCount-43,true,1.00,32,464,20,1,295
patternCount-44,true,1.00,22,436,10,1,222
patternCount-45,true,1.00,112,413,99,3,3272
patternCount-46,true,1.00,22,406,9,1,299
patternCount-47,true,1.00,27,445,15,1,401
patternCount-48,true,1.00,26,471,13,1,354
patternCount-49,true,1.00,22,437,14,1,287
patternCount-50,true,1.00,9228,419,9225,281,328186
patternCount-51,true,1.00,38,449,27,1,742
patternCount-52,true,1.00,22,418,14,1,281
patternCount-53,true,1.00,27,453,14,1,375
patternCount-54,true,1.00,29,468,15,1,410
patternCount-55,true,1.00,37,444,27,1,902
patternCount-56,true,1.00,23,426,13,1,304
patternCount-57,true,1.00,24,440,14,1,276
patternCount-58,false,0.85,13698,433,13696,433,433315
patternCount-59,true,1.00,26,484,12,1,341
patternCount-60,true,1.00,23,424,12,1,306
patternCount-61,true,1.00,25,422,11,1,331
patternCount-62,true,1.00,23,450,12,1,307
patternCount-63,true,1.00,20,420,9,1,242
patternCount-64,true,1.00,22,396,11,1,244
patternCount-65,true,1.00,42,419,19,1,309
patternCount-66,true,1.00,34,487,13,1,343
patternCount-67,true,1.00,42,452,31,1,395
patternCount-68,true,1.00,28,403,18,1,393
patternCount-69,true,1.00,25,475,16,1,354
patternCount-70,true,1.00,23,442,13,1,302
patternCount-71,true,1.00,26,478,13,1,351
patternCount-72,true,1.00,39,433,28,1,890
patternCount-73,true,1.00,29,488,18,1,450
patternCount-74,true,1.00,33,466,18,1,559
patternCount-75,true,1.00,43,416,14,1,340
patternCount-76,true,1.00,35,439,17,1,361
patternCount-77,true,1.00,28,431,14,1,254
patternCount-78,true,1.00,56,486,31,1,327
patternCount-79,true,1.00,1966,493,1953,59,34423
patternCount-80,true,1.00,34,405,18,1,408
patternCount-81,true,1.00,40,461,21,1,303
patternCount-82,true,1.00,36,471,24,1,309
patternCount-83,true,1.00,31,439,21,1,396
patternCount-84,true,1.00,30,440,20,1,374
patternCount-85,true,1.00,30,455,18,1,348
patternCount-86,true,1.00,26,410,13,1,279
patternCount-87,true,1.00,31,468,22,1,451
patternCount-88,true,1.00,31,489,17,1,443
patternCount-89,true,1.00,23,410,12,1,255
patternCount-90,true,1.00,23,420,12,1,277
patternCount-91,true,1.00,36,396,19,1,396
patternCount-92,true,1.00,24,418,15,1,256
patternCount-93,true,1.00,29,479,18,1,505
patternCount-94,true,1.00,22,426,11,1,269
patternCount-95,true,1.00,27,499,12,1,394
patternCount-96,true,1.00,23,390,13,1,351
patternCount-97,false,0.87,12753,406,12752,406,478147
patternCount-98,true,1.00,22,447,10,1,298
patternCount-99,true,1.00,23,454,11,1,315
patternCount-100,true,1.00,21,397,13,1,286
