SS:2.0
RIGHT_BORDER_X:95.0
level,win/fail,% travelled,run time,game ticks,planning time,total plannings,nodes evaluated,most backtracked nodes
Krys-1,true,1.00,12574,511,12529,387,665175
Krys-2,true,1.00,4201,373,4173,124,176355
Krys-3,true,1.00,9743,490,9726,303,514136
Krys-4,true,1.00,7803,401,7802,240,438070
Krys-5,true,1.00,70,357,10,1,494
Krys-6,true,1.00,871,386,854,26,44271
Krys-7,true,1.00,13,395,10,1,426
Krys-8,true,1.00,224,414,205,6,6466
Krys-9,true,1.00,27,369,8,1,404
Krys-10,true,1.00,1654,416,1648,51,70453
Krys-11,true,1.00,32,404,27,1,489
Krys-12,false,0.70,32017,999,31967,999,1827434
Krys-13,true,1.00,17,440,10,1,518
Krys-14,true,1.00,7174,388,7155,219,325990
Krys-15,true,1.00,1647,379,1644,50,83804
Krys-16,true,1.00,6170,407,6167,192,278213
Krys-17,true,1.00,8607,436,8606,264,466211
Krys-18,true,1.00,64,384,61,2,1389
Krys-19,true,1.00,1027,409,1024,31,47834
Krys-20,true,1.00,4607,425,4584,139,225645
Krys-21,true,1.00,12,378,10,1,369
Krys-22,true,1.00,12,368,9,1,478
Krys-23,true,1.00,1532,438,1528,47,71024
Krys-24,true,1.00,9270,476,9266,283,473728
Krys-25,true,1.00,1548,411,1545,47,82680
Krys-26,true,1.00,12,359,9,1,487
Krys-27,true,1.00,6007,398,6005,182,286958
Krys-28,true,1.00,8777,441,8776,275,444323
Krys-29,true,1.00,5540,446,5536,168,306522
Krys-30,true,1.00,10001,483,10000,304,480682
Krys-31,true,1.00,53,384,50,2,2486
Krys-32,true,1.00,14,430,11,1,513
Krys-33,true,1.00,14,402,10,1,448
Krys-34,true,1.00,623,386,620,19,33754
Krys-35,true,1.00,2872,386,2869,87,142565
Krys-36,true,1.00,11600,431,11575,351,616473
Krys-37,true,1.00,2769,419,2767,84,160130
Krys-38,true,1.00,519,428,518,16,30321
Krys-39,true,1.00,10781,407,10780,327,578592
Krys-40,true,1.00,9404,419,9403,285,521542
Krys-41,false,0.70,31975,999,31962,999,1795139
Krys-42,true,1.00,13,366,10,1,479
Krys-43,true,1.00,47,351,44,2,753
Krys-44,true,1.00,8244,435,8243,254,496780
Krys-45,true,1.00,4602,423,4600,143,205292
Krys-46,true,1.00,7417,448,7414,225,392940
Krys-47,true,1.00,26,453,22,1,1122
Krys-48,true,1.00,15,374,12,1,606
Krys-49,true,1.00,27,464,23,1,1080
Krys-50,true,1.00,10335,483,10332,314,512543
Krys-51,true,1.00,35,411,32,1,1559
Krys-52,true,1.00,522,378,519,16,23176
Krys-53,true,1.00,10852,478,10851,331,572895
Krys-54,true,1.00,5053,430,5051,153,267455
Krys-55,true,1.00,10331,457,10330,315,572856
Krys-56,true,1.00,4032,348,4025,122,191942
Krys-57,true,1.00,15,362,13,1,640
Krys-58,true,1.00,6921,426,6919,215,378152
Krys-59,true,1.00,8752,393,8733,272,403802
Krys-60,true,1.00,11186,410,11186,339,588975
Krys-61,true,1.00,4389,449,4386,133,219097
Krys-62,true,1.00,6769,431,6764,209,297754
Krys-63,true,1.00,14073,591,14072,440,737967
Krys-64,true,1.00,1778,444,1775,54,102851
Krys-65,true,1.00,8658,435,8657,266,433916
Krys-66,true,1.00,11378,475,11377,345,518527
Krys-67,true,1.00,10331,477,10329,314,584043
Krys-68,true,1.00,14,375,11,1,575
Krys-69,true,1.00,9437,474,9435,287,456995
Krys-70,true,1.00,10450,437,10448,317,539430
Krys-71,true,1.00,30,413,13,1,664
Krys-72,true,1.00,35,419,33,1,514
Krys-73,true,1.00,11663,491,11662,356,587691
Krys-74,true,1.00,17,391,14,1,641
Krys-75,true,1.00,32,392,29,1,1262
Krys-76,true,1.00,4520,375,4518,137,222939
Krys-77,true,1.00,12,401,10,1,459
Krys-78,true,1.00,9764,470,9762,296,506884
Krys-79,true,1.00,167,400,164,5,7255
Krys-80,true,1.00,26,453,23,1,951
Krys-81,true,1.00,17,386,15,1,659
Krys-82,true,1.00,1186,362,1184,36,53915
Krys-83,true,1.00,12661,465,12657,385,638858
Krys-84,true,1.00,10,385,7,1,325
Krys-85,true,1.00,6968,441,6967,221,382424
Krys-86,true,1.00,8180,466,8178,250,463824
Krys-87,true,1.00,14,392,11,1,496
Krys-88,true,1.00,8151,425,8149,247,433540
Krys-89,true,1.00,28,408,25,1,995
Krys-90,true,1.00,61,363,56,2,2998
Krys-91,true,1.00,15,404,12,1,518
Krys-92,true,1.00,11060,425,11059,340,527314
Krys-93,true,1.00,58,357,55,2,2816
Krys-94,true,1.00,14,380,11,1,605
Krys-95,true,1.00,560,370,550,17,24709
Krys-96,true,1.00,13,407,10,1,520
Krys-97,true,1.00,6226,362,6224,189,315984
Krys-98,true,1.00,12979,489,12978,400,614416
Krys-99,true,1.00,6524,403,6522,198,290058
Krys-100,true,1.00,12,376,6,1,357
