SS:5.0
RIGHT_BORDER_X:65.0
level,win/fail,% travelled,run time,game ticks,planning time,total plannings,nodes evaluated,most backtracked nodes
patternCount-1,true,1.00,13314,508,13313,404,1007616
patternCount-2,true,1.00,9,423,6,1,279
patternCount-3,true,1.00,11,473,8,1,506
patternCount-4,true,1.00,9,448,7,1,341
patternCount-5,true,1.00,8,427,5,1,248
patternCount-6,true,1.00,19,429,5,1,325
patternCount-7,true,1.00,10,455,7,1,387
patternCount-8,true,1.00,67,438,64,2,2026
patternCount-9,true,1.00,9,474,6,1,319
patternCount-10,true,1.00,7,429,4,1,271
patternCount-11,true,1.00,19,514,15,1,436
patternCount-12,true,1.00,21,443,18,1,553
patternCount-13,true,1.00,8,417,5,1,260
patternCount-14,true,1.00,10,397,7,1,410
patternCount-15,true,1.00,7,429,4,1,241
patternCount-16,true,1.00,10,453,6,1,352
patternCount-17,true,1.00,11,460,6,1,318
patternCount-18,true,1.00,8,418,5,1,273
patternCount-19,true,1.00,8,396,6,1,302
patternCount-20,true,1.00,9,434,6,1,336
patternCount-21,true,1.00,7,420,5,1,234
patternCount-22,true,1.00,10,524,7,1,345
patternCount-23,true,1.00,24,504,21,1,1738
patternCount-24,true,1.00,13,478,10,1,646
patternCount-25,true,1.00,7,426,4,1,231
patternCount-26,true,1.00,9,412,6,1,319
patternCount-27,true,1.00,8,417,5,1,292
patternCount-28,true,1.00,23,476,6,1,396
patternCount-29,true,1.00,9,408,7,1,297
patternCount-30,true,1.00,25,488,8,1,351
patternCount-31,true,1.00,13,404,11,1,354
patternCount-32,true,1.00,10,459,7,1,457
patternCount-33,true,1.00,26,483,23,1,569
patternCount-34,true,1.00,20,455,8,1,518
patternCount-35,true,1.00,10,480,7,1,371
patternCount-36,true,1.00,7,374,4,1,214
patternCount-37,true,1.00,6,368,5,1,202
patternCount-38,true,1.00,11,482,8,1,501
patternCount-39,true,1.00,8,428,5,1,270
patternCount-40,true,1.00,14,502,10,1,638
patternCount-41,true,1.00,8,466,5,1,333
patternCount-42,true,1.00,8,443,5,1,284
patternCount-43,true,1.00,9,464,6,1,295
patternCount-44,true,1.00,7,436,4,1,222
patternCount-45,true,1.00,22,435,19,1,1118
patternCount-46,true,1.00,8,406,6,1,299
patternCount-47,true,1.00,31,445,6,1,401
patternCount-48,true,1.00,22,471,19,1,354
patternCount-49,true,1.00,14,437,5,1,287
patternCount-50,true,1.00,8921,410,8920,272,569553
patternCount-51,true,1.00,17,449,14,1,742
patternCount-52,true,1.00,8,418,5,1,281
patternCount-53,true,1.00,10,453,7,1,375
patternCount-54,true,1.00,10,468,7,1,410
patternCount-55,true,1.00,15,444,12,1,902
patternCount-56,true,1.00,8,426,5,1,304
patternCount-57,true,1.00,8,440,5,1,276
patternCount-58,true,1.00,8281,429,8280,254,481177
patternCount-59,true,1.00,9,484,7,1,341
patternCount-60,true,1.00,8,424,5,1,306
patternCount-61,true,1.00,9,422,6,1,331
patternCount-62,true,1.00,8,450,5,1,307
patternCount-63,true,1.00,7,420,5,1,242
patternCount-64,true,1.00,7,396,4,1,244
patternCount-65,true,1.00,19,419,16,1,309
patternCount-66,true,1.00,10,487,6,1,343
patternCount-67,true,1.00,9,452,7,1,395
patternCount-68,true,1.00,10,403,8,1,393
patternCount-69,true,1.00,9,475,6,1,354
patternCount-70,true,1.00,8,442,6,1,302
patternCount-71,true,1.00,9,478,6,1,351
patternCount-72,true,1.00,16,433,13,1,890
patternCount-73,true,1.00,11,488,8,1,450
patternCount-74,true,1.00,12,466,9,1,559
patternCount-75,true,1.00,10,416,6,1,340
patternCount-76,true,1.00,10,439,7,1,361
patternCount-77,true,1.00,24,431,5,1,254
patternCount-78,true,1.00,9,486,6,1,327
patternCount-79,true,1.00,17,495,14,1,862
patternCount-80,true,1.00,10,405,7,1,408
patternCount-81,true,1.00,9,461,6,1,303
patternCount-82,true,1.00,9,471,6,1,309
patternCount-83,true,1.00,9,439,6,1,396
patternCount-84,true,1.00,11,440,7,1,374
patternCount-85,true,1.00,9,455,6,1,348
patternCount-86,true,1.00,8,410,5,1,279
patternCount-87,true,1.00,11,468,8,1,451
patternCount-88,true,1.00,12,489,8,1,443
patternCount-89,true,1.00,7,410,4,1,255
patternCount-90,true,1.00,8,420,5,1,277
patternCount-91,true,1.00,8,396,6,1,396
patternCount-92,true,1.00,7,418,5,1,256
patternCount-93,true,1.00,12,479,8,1,505
patternCount-94,true,1.00,7,426,4,1,269
patternCount-95,true,1.00,10,499,7,1,394
patternCount-96,true,1.00,8,390,6,1,351
patternCount-97,false,0.87,12536,400,12536,400,819619
patternCount-98,true,1.00,33,447,6,1,298
patternCount-99,true,1.00,25,454,6,1,315
patternCount-100,true,1.00,11,397,6,1,286
