SS:30.0
RIGHT_BORDER_X:120.0
level,win/fail,% travelled,run time,game ticks,planning time,total plannings,nodes evaluated,most backtracked nodes
Krys-1,true,1.00,13263,522,13244,414,438230
Krys-2,true,1.00,7041,373,7035,211,173732
Krys-3,false,0.70,31771,999,31709,999,1098397
Krys-4,true,1.00,9969,412,9902,305,334272
Krys-5,true,1.00,68,357,34,1,494
Krys-6,true,1.00,4851,372,4833,150,155610
Krys-7,true,1.00,27,395,17,1,426
Krys-8,true,1.00,1858,396,1848,56,63210
Krys-9,true,1.00,24,369,17,1,404
Krys-10,true,1.00,8749,422,8742,266,251027
Krys-11,true,1.00,30,404,20,1,489
Krys-12,true,1.00,9220,446,9216,280,268229
Krys-13,true,1.00,38,440,26,1,518
Krys-14,true,1.00,7323,376,7320,225,238769
Krys-15,true,1.00,7135,395,7131,216,250106
Krys-16,true,1.00,6326,416,6321,195,201331
Krys-17,true,1.00,8833,442,8815,270,320181
Krys-18,true,1.00,59,384,50,2,1418
Krys-19,true,1.00,5877,394,5872,177,189350
Krys-20,true,1.00,8222,439,8217,249,271054
Krys-21,true,1.00,24,378,17,1,369
Krys-22,true,1.00,28,368,15,1,478
Krys-23,true,1.00,1546,438,1535,47,50498
Krys-24,true,1.00,9682,485,9667,295,327395
Krys-25,true,1.00,1662,420,1649,50,57406
Krys-26,true,1.00,27,359,18,1,487
Krys-27,true,1.00,6308,398,6302,191,197849
Krys-28,true,1.00,10793,486,10787,332,372439
Krys-29,true,1.00,5608,442,5600,170,206201
Krys-30,true,1.00,9438,456,9433,287,307799
Krys-31,true,1.00,71,384,57,2,1857
Krys-32,true,1.00,31,430,21,1,513
Krys-33,true,1.00,29,402,18,1,448
Krys-34,true,1.00,4928,448,4919,149,177089
Krys-35,true,1.00,3591,383,3560,108,117033
Krys-36,true,1.00,12245,447,12242,371,428125
Krys-37,true,1.00,3890,454,3881,122,143878
Krys-38,true,1.00,2864,417,2842,86,104165
Krys-39,true,1.00,10808,407,10806,327,369314
Krys-40,true,1.00,9608,431,9603,291,348238
Krys-41,true,1.00,8850,416,8846,268,317332
Krys-42,true,1.00,26,366,17,1,479
Krys-43,true,1.00,64,351,55,2,876
Krys-44,true,1.00,8157,432,8153,254,316454
Krys-45,true,1.00,4619,423,4609,143,143184
Krys-46,true,1.00,7424,439,7418,225,261443
Krys-47,true,1.00,433,444,423,13,14020
Krys-48,true,1.00,31,374,19,1,606
Krys-49,true,1.00,80,435,67,2,2037
Krys-50,true,1.00,11321,492,11318,344,376149
Krys-51,true,1.00,7959,418,7953,242,266647
Krys-52,true,1.00,3824,378,3818,115,117823
Krys-53,true,1.00,11248,501,11242,347,397381
Krys-54,true,1.00,9121,416,9118,286,321764
Krys-55,true,1.00,10772,450,10768,328,386917
Krys-56,false,0.59,31975,999,31973,999,1109154
Krys-57,true,1.00,52,362,20,1,640
Krys-58,true,1.00,8347,454,8342,258,299225
Krys-59,true,1.00,8758,392,8739,271,280670
Krys-60,true,1.00,11034,409,11031,334,380968
Krys-61,true,1.00,4423,379,4415,134,145368
Krys-62,true,1.00,8978,413,8975,278,275240
Krys-63,true,1.00,13832,581,13827,430,483306
Krys-64,true,1.00,2215,438,2204,69,85199
Krys-65,true,1.00,9377,439,9373,289,322414
Krys-66,true,1.00,13027,515,13024,397,428878
Krys-67,false,0.71,10110,319,10105,319,370448
Krys-68,true,1.00,60,375,21,1,575
Krys-69,true,1.00,10770,463,10766,333,372620
Krys-70,false,0.80,31733,999,31732,999,1139472
Krys-71,true,1.00,33,413,25,1,664
Krys-72,true,1.00,31,419,21,1,514
Krys-73,true,1.00,13861,574,13855,423,472097
Krys-74,true,1.00,34,391,22,1,641
Krys-75,true,1.00,230,392,220,7,6526
Krys-76,true,1.00,5219,399,5213,158,171802
Krys-77,true,1.00,27,401,18,1,459
Krys-78,true,1.00,9946,472,9940,301,343587
Krys-79,true,1.00,9613,366,9611,292,305595
Krys-80,true,1.00,49,453,34,1,951
Krys-81,true,1.00,35,386,24,1,659
Krys-82,true,1.00,4743,410,4737,144,152880
Krys-83,true,1.00,13281,483,13279,404,447735
Krys-84,true,1.00,27,385,12,1,325
Krys-85,true,1.00,8099,415,8096,252,285265
Krys-86,true,1.00,8261,453,8256,252,307750
Krys-87,true,1.00,29,392,19,1,496
Krys-88,true,1.00,8080,394,8075,245,292958
Krys-89,true,1.00,79,415,66,2,1990
Krys-90,true,1.00,101,364,91,3,3127
Krys-91,true,1.00,33,404,21,1,518
Krys-92,true,1.00,11725,447,11723,360,389377
Krys-93,true,1.00,572,368,562,17,19133
Krys-94,true,1.00,32,380,20,1,605
Krys-95,true,1.00,686,368,677,21,21045
Krys-96,true,1.00,32,407,19,1,520
Krys-97,true,1.00,7297,396,7293,222,255909
Krys-98,true,1.00,13963,526,13962,434,468474
Krys-99,true,1.00,6531,403,6526,198,204033
Krys-100,true,1.00,22,376,12,1,357
