SS:10.0
RIGHT_BORDER_X:215.0
level,win/fail,% travelled,run time,game ticks,planning time,total plannings,nodes evaluated,most backtracked nodes
patternCount-1,false,0.98,15357,500,15356,500,638229
patternCount-2,true,1.00,23,423,12,1,279
patternCount-3,true,1.00,29,473,19,1,506
patternCount-4,true,1.00,25,448,13,1,341
patternCount-5,true,1.00,21,427,11,1,248
patternCount-6,true,1.00,51,429,27,1,325
patternCount-7,true,1.00,38,455,28,1,387
patternCount-8,true,1.00,123,436,113,3,2374
patternCount-9,true,1.00,25,474,12,1,319
patternCount-10,true,1.00,20,429,13,1,271
patternCount-11,true,1.00,29,514,17,1,436
patternCount-12,true,1.00,28,443,15,1,553
patternCount-13,true,1.00,21,417,13,1,260
patternCount-14,true,1.00,23,397,16,1,410
patternCount-15,true,1.00,52,429,42,1,241
patternCount-16,true,1.00,31,453,19,1,352
patternCount-17,true,1.00,43,460,18,1,318
patternCount-18,true,1.00,26,418,18,1,273
patternCount-19,true,1.00,21,396,11,1,302
patternCount-20,true,1.00,24,434,15,1,336
patternCount-21,true,1.00,21,420,10,1,234
patternCount-22,true,1.00,26,524,13,1,345
patternCount-23,true,1.00,4860,478,4853,147,208093
patternCount-24,true,1.00,31,478,23,1,646
patternCount-25,true,1.00,20,426,11,1,231
patternCount-26,true,1.00,22,412,16,1,319
patternCount-27,true,1.00,23,417,10,1,292
patternCount-28,true,1.00,44,476,13,1,396
patternCount-29,true,1.00,38,408,12,1,297
patternCount-30,true,1.00,26,488,11,1,351
patternCount-31,true,1.00,22,404,14,1,354
patternCount-32,true,1.00,28,459,16,1,457
patternCount-33,true,1.00,30,483,18,1,569
patternCount-34,true,1.00,28,455,16,1,518
patternCount-35,true,1.00,26,480,14,1,371
patternCount-36,true,1.00,39,374,29,1,214
patternCount-37,true,1.00,30,368,22,1,202
patternCount-38,true,1.00,28,482,17,1,501
patternCount-39,true,1.00,25,428,10,1,270
patternCount-40,true,1.00,34,502,22,1,638
patternCount-41,true,1.00,24,466,10,1,333
patternCount-42,true,1.00,21,443,14,1,284
patternCount-43,true,1.00,38,464,10,1,295
patternCount-44,true,1.00,20,436,8,1,222
patternCount-45,true,1.00,44,435,33,1,1118
patternCount-46,true,1.00,21,406,12,1,299
patternCount-47,true,1.00,26,445,12,1,401
patternCount-48,true,1.00,25,471,14,1,354
patternCount-49,true,1.00,21,437,10,1,287
patternCount-50,true,1.00,9225,419,9222,281,340255
patternCount-51,true,1.00,36,449,24,1,742
patternCount-52,true,1.00,21,418,12,1,281
patternCount-53,true,1.00,25,453,13,1,375
patternCount-54,true,1.00,27,468,15,1,410
patternCount-55,true,1.00,35,444,25,1,902
patternCount-56,true,1.00,21,426,13,1,304
patternCount-57,true,1.00,22,440,12,1,276
patternCount-58,false,0.85,13332,424,13332,424,466432
patternCount-59,true,1.00,24,484,15,1,341
patternCount-60,true,1.00,21,424,11,1,306
patternCount-61,true,1.00,22,422,13,1,331
patternCount-62,true,1.00,22,450,10,1,307
patternCount-63,true,1.00,22,420,10,1,242
patternCount-64,true,1.00,19,396,8,1,244
patternCount-65,true,1.00,37,419,29,1,309
patternCount-66,true,1.00,31,487,13,1,343
patternCount-67,true,1.00,51,452,17,1,395
patternCount-68,true,1.00,24,403,18,1,393
patternCount-69,true,1.00,25,475,12,1,354
patternCount-70,true,1.00,23,442,14,1,302
patternCount-71,true,1.00,25,478,15,1,351
patternCount-72,true,1.00,39,433,28,1,890
patternCount-73,true,1.00,28,488,15,1,450
patternCount-74,true,1.00,33,466,18,1,559
patternCount-75,true,1.00,23,416,15,1,340
patternCount-76,true,1.00,38,439,14,1,361
patternCount-77,true,1.00,21,431,11,1,254
patternCount-78,true,1.00,24,486,12,1,327
patternCount-79,true,1.00,38,495,28,1,862
patternCount-80,true,1.00,24,405,16,1,408
patternCount-81,true,1.00,23,461,14,1,303
patternCount-82,true,1.00,24,471,14,1,309
patternCount-83,true,1.00,25,439,17,1,396
patternCount-84,true,1.00,24,440,14,1,374
patternCount-85,true,1.00,25,455,14,1,348
patternCount-86,true,1.00,21,410,12,1,279
patternCount-87,true,1.00,27,468,18,1,451
patternCount-88,true,1.00,28,489,15,1,443
patternCount-89,true,1.00,20,410,13,1,255
patternCount-90,true,1.00,21,420,12,1,277
patternCount-91,true,1.00,22,396,13,1,396
patternCount-92,true,1.00,22,418,13,1,256
patternCount-93,true,1.00,30,479,18,1,505
patternCount-94,true,1.00,21,426,11,1,269
patternCount-95,true,1.00,26,499,16,1,394
patternCount-96,true,1.00,22,390,12,1,351
patternCount-97,false,0.87,12752,406,12752,406,462380
patternCount-98,true,1.00,22,447,10,1,298
patternCount-99,true,1.00,23,454,13,1,315
patternCount-100,true,1.00,20,397,13,1,286
