SS:10.0
RIGHT_BORDER_X:215.0
level,win/fail,% travelled,run time,game ticks,planning time,total plannings,nodes evaluated,most backtracked nodes
Krys-1,true,1.00,13110,518,13106,410,487496
Krys-2,true,1.00,5945,373,5888,178,187733
Krys-3,false,0.70,31428,999,31405,999,1158058
Krys-4,true,1.00,9964,412,9891,305,346756
Krys-5,true,1.00,26,357,17,1,494
Krys-6,true,1.00,4628,372,4619,144,161865
Krys-7,true,1.00,30,395,22,1,426
Krys-8,true,1.00,1595,409,1587,48,56460
Krys-9,true,1.00,25,369,13,1,404
Krys-10,true,1.00,7045,416,7036,215,241603
Krys-11,true,1.00,59,404,34,1,489
Krys-12,true,1.00,9188,445,9182,279,314510
Krys-13,true,1.00,35,440,22,1,518
Krys-14,true,1.00,7288,375,7286,224,247622
Krys-15,true,1.00,6839,395,6833,207,249449
Krys-16,true,1.00,6304,416,6298,195,207861
Krys-17,true,1.00,8806,442,8803,270,334549
Krys-18,true,1.00,93,384,62,2,1061
Krys-19,true,1.00,5852,394,5847,177,196953
Krys-20,true,1.00,7432,439,7425,225,261893
Krys-21,true,1.00,22,378,11,1,369
Krys-22,true,1.00,27,368,18,1,478
Krys-23,true,1.00,1546,438,1535,47,53083
Krys-24,true,1.00,9281,476,9273,283,335371
Krys-25,true,1.00,1657,420,1646,50,61698
Krys-26,true,1.00,32,359,16,1,487
Krys-27,true,1.00,6209,398,6205,188,180537
Krys-28,true,1.00,9044,442,9040,276,331017
Krys-29,true,1.00,5636,442,5613,170,222392
Krys-30,true,1.00,9415,459,9410,286,329991
Krys-31,true,1.00,68,384,60,2,1974
Krys-32,true,1.00,28,430,19,1,513
Krys-33,true,1.00,27,402,17,1,448
Krys-34,true,1.00,3046,448,3037,92,79648
Krys-35,true,1.00,3105,371,3077,93,106088
Krys-36,true,1.00,12253,447,12248,371,454702
Krys-37,true,1.00,3887,454,3878,122,154653
Krys-38,true,1.00,2847,417,2840,86,114195
Krys-39,true,1.00,10788,407,10786,327,402395
Krys-40,true,1.00,9110,416,9107,276,345763
Krys-41,true,1.00,8845,416,8842,268,322977
Krys-42,true,1.00,25,366,19,1,479
Krys-43,true,1.00,55,353,30,1,489
Krys-44,true,1.00,8079,424,8075,252,324916
Krys-45,true,1.00,4614,423,4607,143,150845
Krys-46,true,1.00,7423,439,7416,225,276379
Krys-47,true,1.00,45,453,36,1,1122
Krys-48,true,1.00,30,374,23,1,606
Krys-49,true,1.00,75,435,68,2,2055
Krys-50,true,1.00,11315,492,11309,344,398925
Krys-51,true,1.00,6639,417,6634,202,234608
Krys-52,true,1.00,2434,378,2429,73,53314
Krys-53,true,1.00,11255,496,11250,343,425554
Krys-54,true,1.00,7468,453,7463,227,280698
Krys-55,true,1.00,10629,448,10625,324,408578
Krys-56,false,0.59,31991,999,31969,999,1149737
Krys-57,true,1.00,29,362,21,1,640
Krys-58,true,1.00,8132,454,8126,252,315984
Krys-59,true,1.00,8275,374,8257,253,280945
Krys-60,true,1.00,11206,410,11189,339,388889
Krys-61,true,1.00,8906,437,8902,270,329991
Krys-62,true,1.00,8756,425,8752,269,287239
Krys-63,true,1.00,13763,578,13760,427,515061
Krys-64,true,1.00,2213,438,2202,69,89397
Krys-65,true,1.00,8915,434,8910,275,320009
Krys-66,true,1.00,13023,515,13019,397,450240
Krys-67,false,0.71,10101,319,10101,319,333245
Krys-68,true,1.00,58,375,17,1,575
Krys-69,true,1.00,11579,487,11574,357,413577
Krys-70,true,1.00,13396,521,13390,406,460713
Krys-71,true,1.00,43,413,31,1,664
Krys-72,true,1.00,150,428,140,4,2293
Krys-73,true,1.00,11332,478,11328,347,396097
Krys-74,true,1.00,33,391,24,1,641
Krys-75,true,1.00,229,392,216,7,6706
Krys-76,true,1.00,5220,399,5214,158,176784
Krys-77,true,1.00,26,401,16,1,459
Krys-78,true,1.00,9936,472,9932,301,354429
Krys-79,true,1.00,9612,366,9610,292,312281
Krys-80,true,1.00,47,453,35,1,951
Krys-81,true,1.00,36,386,27,1,659
Krys-82,true,1.00,4742,410,4736,144,156659
Krys-83,true,1.00,13229,482,13225,402,463838
Krys-84,true,1.00,22,385,12,1,325
Krys-85,true,1.00,8084,415,8082,252,300882
Krys-86,true,1.00,8351,459,8346,255,325529
Krys-87,true,1.00,28,392,21,1,496
Krys-88,true,1.00,8079,394,8074,245,302738
Krys-89,true,1.00,44,408,37,1,995
Krys-90,true,1.00,74,363,66,2,2416
Krys-91,true,1.00,28,404,18,1,518
Krys-92,true,1.00,11724,447,11722,360,396665
Krys-93,true,1.00,575,368,565,17,19478
Krys-94,true,1.00,28,380,22,1,605
Krys-95,true,1.00,685,368,675,21,21324
Krys-96,true,1.00,29,407,20,1,520
Krys-97,true,1.00,7294,396,7290,222,261908
Krys-98,true,1.00,13466,535,13463,420,464537
Krys-99,true,1.00,6532,403,6526,198,209199
Krys-100,true,1.00,21,376,12,1,357
