SS:6.0
RIGHT_BORDER_X:75.0
level,win/fail,% travelled,run time,game ticks,planning time,total plannings,nodes evaluated,most backtracked nodes
patternCount-1,true,1.00,13800,514,13799,431,863386
patternCount-2,true,1.00,11,423,8,1,279
patternCount-3,true,1.00,13,473,10,1,506
patternCount-4,true,1.00,10,448,7,1,341
patternCount-5,true,1.00,9,427,7,1,248
patternCount-6,true,1.00,9,429,6,1,325
patternCount-7,true,1.00,34,455,17,1,387
patternCount-8,true,1.00,72,438,52,2,1939
patternCount-9,true,1.00,20,474,7,1,319
patternCount-10,true,1.00,13,429,6,1,271
patternCount-11,true,1.00,20,514,16,1,436
patternCount-12,true,1.00,14,443,11,1,553
patternCount-13,true,1.00,8,417,5,1,260
patternCount-14,true,1.00,11,397,9,1,410
patternCount-15,true,1.00,9,429,6,1,241
patternCount-16,true,1.00,24,453,21,1,352
patternCount-17,true,1.00,13,460,7,1,318
patternCount-18,true,1.00,14,418,11,1,273
patternCount-19,true,1.00,9,396,6,1,302
patternCount-20,true,1.00,10,434,7,1,336
patternCount-21,true,1.00,9,420,6,1,234
patternCount-22,true,1.00,12,524,7,1,345
patternCount-23,true,1.00,31,504,27,1,1738
patternCount-24,true,1.00,15,478,11,1,646
patternCount-25,true,1.00,8,426,5,1,231
patternCount-26,true,1.00,10,412,7,1,319
patternCount-27,true,1.00,9,417,6,1,292
patternCount-28,true,1.00,37,476,8,1,396
patternCount-29,true,1.00,9,408,6,1,297
patternCount-30,true,1.00,21,488,17,1,351
patternCount-31,true,1.00,21,404,7,1,354
patternCount-32,true,1.00,11,459,8,1,457
patternCount-33,true,1.00,19,483,15,1,569
patternCount-34,true,1.00,15,455,11,1,518
patternCount-35,true,1.00,22,480,8,1,371
patternCount-36,true,1.00,7,374,5,1,214
patternCount-37,true,1.00,7,368,4,1,202
patternCount-38,true,1.00,21,482,9,1,501
patternCount-39,true,1.00,13,428,6,1,270
patternCount-40,true,1.00,16,502,12,1,638
patternCount-41,true,1.00,10,466,6,1,333
patternCount-42,true,1.00,22,443,7,1,284
patternCount-43,true,1.00,23,464,7,1,295
patternCount-44,true,1.00,9,436,5,1,222
patternCount-45,true,1.00,26,435,23,1,1118
patternCount-46,true,1.00,9,406,6,1,299
patternCount-47,true,1.00,11,445,8,1,401
patternCount-48,true,1.00,11,471,7,1,354
patternCount-49,true,1.00,9,437,6,1,287
patternCount-50,true,1.00,9157,418,9156,280,487701
patternCount-51,true,1.00,19,449,16,1,742
patternCount-52,true,1.00,9,418,6,1,281
patternCount-53,true,1.00,11,453,7,1,375
patternCount-54,true,1.00,12,468,9,1,410
patternCount-55,true,1.00,17,444,15,1,902
patternCount-56,true,1.00,9,426,6,1,304
patternCount-57,true,1.00,9,440,6,1,276
patternCount-58,true,1.00,9964,476,9963,302,481818
patternCount-59,true,1.00,11,484,7,1,341
patternCount-60,true,1.00,9,424,6,1,306
patternCount-61,true,1.00,9,422,6,1,331
patternCount-62,true,1.00,10,450,6,1,307
patternCount-63,true,1.00,8,420,5,1,242
patternCount-64,true,1.00,8,396,5,1,244
patternCount-65,true,1.00,9,419,6,1,309
patternCount-66,true,1.00,11,487,8,1,343
patternCount-67,true,1.00,32,452,8,1,395
patternCount-68,true,1.00,12,403,9,1,393
patternCount-69,true,1.00,29,475,7,1,354
patternCount-70,true,1.00,10,442,7,1,302
patternCount-71,true,1.00,11,478,8,1,351
patternCount-72,true,1.00,19,433,16,1,890
patternCount-73,true,1.00,13,488,10,1,450
patternCount-74,true,1.00,17,466,11,1,559
patternCount-75,true,1.00,11,416,7,1,340
patternCount-76,true,1.00,28,439,7,1,361
patternCount-77,true,1.00,9,431,6,1,254
patternCount-78,true,1.00,11,486,7,1,327
patternCount-79,true,1.00,19,495,15,1,862
patternCount-80,true,1.00,10,405,7,1,408
patternCount-81,true,1.00,10,461,6,1,303
patternCount-82,true,1.00,10,471,6,1,309
patternCount-83,true,1.00,11,439,8,1,396
patternCount-84,true,1.00,12,440,8,1,374
patternCount-85,true,1.00,11,455,7,1,348
patternCount-86,true,1.00,9,410,7,1,279
patternCount-87,true,1.00,12,468,9,1,451
patternCount-88,true,1.00,12,489,9,1,443
patternCount-89,true,1.00,9,410,6,1,255
patternCount-90,true,1.00,9,420,6,1,277
patternCount-91,true,1.00,10,396,8,1,396
patternCount-92,true,1.00,8,418,5,1,256
patternCount-93,true,1.00,14,479,11,1,505
patternCount-94,true,1.00,9,426,6,1,269
patternCount-95,true,1.00,12,499,8,1,394
patternCount-96,true,1.00,9,390,7,1,351
patternCount-97,false,0.87,12747,405,12747,405,691888
patternCount-98,true,1.00,40,447,6,1,298
patternCount-99,true,1.00,28,454,19,1,315
patternCount-100,true,1.00,13,397,7,1,286
