SS:9.0
RIGHT_BORDER_X:235.0
level,win/fail,% travelled,run time,game ticks,planning time,total plannings,nodes evaluated,most backtracked nodes
patternCount-1,false,0.98,15331,499,15328,499,640255
patternCount-2,true,1.00,23,423,11,1,279
patternCount-3,true,1.00,29,473,17,1,506
patternCount-4,true,1.00,24,448,15,1,341
patternCount-5,true,1.00,43,427,10,1,248
patternCount-6,true,1.00,29,429,21,1,325
patternCount-7,true,1.00,42,455,30,1,387
patternCount-8,true,1.00,89,438,82,2,1929
patternCount-9,true,1.00,24,474,12,1,319
patternCount-10,true,1.00,22,429,12,1,271
patternCount-11,true,1.00,30,514,17,1,436
patternCount-12,true,1.00,30,443,20,1,553
patternCount-13,true,1.00,20,417,11,1,260
patternCount-14,true,1.00,24,397,13,1,410
patternCount-15,true,1.00,42,429,34,1,241
patternCount-16,true,1.00,38,453,12,1,352
patternCount-17,true,1.00,51,460,9,1,318
patternCount-18,true,1.00,24,418,14,1,273
patternCount-19,true,1.00,22,396,13,1,302
patternCount-20,true,1.00,24,434,13,1,336
patternCount-21,true,1.00,20,420,11,1,234
patternCount-22,true,1.00,27,524,11,1,345
patternCount-23,true,1.00,4763,477,4752,146,202618
patternCount-24,true,1.00,32,478,20,1,646
patternCount-25,true,1.00,21,426,10,1,231
patternCount-26,true,1.00,22,412,13,1,319
patternCount-27,true,1.00,21,417,11,1,292
patternCount-28,true,1.00,45,476,15,1,396
patternCount-29,true,1.00,33,408,21,1,297
patternCount-30,true,1.00,28,488,13,1,351
patternCount-31,true,1.00,23,404,14,1,354
patternCount-32,true,1.00,28,459,18,1,457
patternCount-33,true,1.00,32,483,20,1,569
patternCount-34,true,1.00,28,455,20,1,518
patternCount-35,true,1.00,39,480,13,1,371
patternCount-36,true,1.00,26,374,15,1,214
patternCount-37,true,1.00,37,368,27,1,202
patternCount-38,true,1.00,40,482,29,1,501
patternCount-39,true,1.00,21,428,12,1,270
patternCount-40,true,1.00,35,502,26,1,638
patternCount-41,true,1.00,24,466,12,1,333
patternCount-42,true,1.00,41,443,13,1,284
patternCount-43,true,1.00,36,464,22,1,295
patternCount-44,true,1.00,21,436,12,1,222
patternCount-45,true,1.00,79,460,65,2,2218
patternCount-46,true,1.00,21,406,12,1,299
patternCount-47,true,1.00,26,445,14,1,401
patternCount-48,true,1.00,26,471,16,1,354
patternCount-49,true,1.00,22,437,13,1,287
patternCount-50,true,1.00,9215,418,9212,280,309718
patternCount-51,true,1.00,36,449,25,1,742
patternCount-52,true,1.00,22,418,15,1,281
patternCount-53,true,1.00,26,453,15,1,375
patternCount-54,true,1.00,27,468,16,1,410
patternCount-55,true,1.00,36,444,26,1,902
patternCount-56,true,1.00,22,426,10,1,304
patternCount-57,true,1.00,22,440,10,1,276
patternCount-58,false,0.85,13282,423,13282,423,427170
patternCount-59,true,1.00,25,484,14,1,341
patternCount-60,true,1.00,22,424,12,1,306
patternCount-61,true,1.00,22,422,11,1,331
patternCount-62,true,1.00,23,450,12,1,307
patternCount-63,true,1.00,20,420,9,1,242
patternCount-64,true,1.00,31,396,16,1,244
patternCount-65,true,1.00,49,419,25,1,309
patternCount-66,true,1.00,270,487,246,7,1988
patternCount-67,true,1.00,159,457,107,3,873
patternCount-68,true,1.00,216,405,200,6,1696
patternCount-69,true,1.00,51,475,24,1,354
patternCount-70,true,1.00,44,442,22,1,302
patternCount-71,true,1.00,47,478,26,1,351
patternCount-72,true,1.00,348,433,331,10,7425
patternCount-73,true,1.00,40,488,25,1,450
patternCount-74,true,1.00,44,466,25,1,559
patternCount-75,true,1.00,54,416,17,1,340
patternCount-76,true,1.00,31,439,18,1,361
patternCount-77,true,1.00,25,431,13,1,254
patternCount-78,true,1.00,31,486,18,1,327
patternCount-79,true,1.00,44,495,31,1,862
patternCount-80,true,1.00,26,405,16,1,408
patternCount-81,true,1.00,24,461,14,1,303
patternCount-82,true,1.00,25,471,14,1,309
patternCount-83,true,1.00,26,439,15,1,396
patternCount-84,true,1.00,25,440,14,1,374
patternCount-85,true,1.00,24,455,13,1,348
patternCount-86,true,1.00,22,410,15,1,279
patternCount-87,true,1.00,30,468,18,1,451
patternCount-88,true,1.00,28,489,17,1,443
patternCount-89,true,1.00,21,410,13,1,255
patternCount-90,true,1.00,22,420,13,1,277
patternCount-91,true,1.00,23,396,14,1,396
patternCount-92,true,1.00,22,418,9,1,256
patternCount-93,true,1.00,30,479,21,1,505
patternCount-94,true,1.00,21,426,11,1,269
patternCount-95,true,1.00,29,499,16,1,394
patternCount-96,true,1.00,22,390,10,1,351
patternCount-97,false,0.87,12852,409,12852,409,451246
patternCount-98,true,1.00,38,447,20,1,298
patternCount-99,true,1.00,37,454,24,1,315
patternCount-100,true,1.00,32,397,20,1,286
