SS:5.0
RIGHT_BORDER_X:120.0
level,win/fail,% travelled,run time,game ticks,planning time,total plannings,nodes evaluated,most backtracked nodes
Krys-1,true,1.00,11888,559,11865,365,709747
Krys-2,true,1.00,3450,373,3446,103,168459
Krys-3,true,1.00,9619,486,9615,299,554112
Krys-4,true,1.00,7774,401,7772,240,495615
Krys-5,true,1.00,59,357,19,1,494
Krys-6,true,1.00,849,385,828,25,42144
Krys-7,true,1.00,20,395,8,1,426
Krys-8,true,1.00,242,410,239,7,8250
Krys-9,true,1.00,16,369,14,1,404
Krys-10,true,1.00,864,384,854,25,30176
Krys-11,true,1.00,13,404,10,1,489
Krys-12,true,1.00,10163,466,10161,309,599510
Krys-13,true,1.00,19,440,14,1,518
Krys-14,true,1.00,1224,389,1221,37,66121
Krys-15,true,1.00,146,396,130,4,8092
Krys-16,true,1.00,6566,418,6563,203,348022
Krys-17,true,1.00,9400,470,9365,286,598617
Krys-18,true,1.00,60,384,56,2,1396
Krys-19,true,1.00,1080,409,1065,31,53004
Krys-20,true,1.00,660,405,656,20,38686
Krys-21,true,1.00,9,378,7,1,369
Krys-22,true,1.00,10,368,7,1,478
Krys-23,true,1.00,1532,438,1527,47,87985
Krys-24,true,1.00,9262,476,9260,283,576473
Krys-25,true,1.00,1542,411,1539,47,100345
Krys-26,true,1.00,10,359,7,1,487
Krys-27,true,1.00,6103,401,6101,185,354070
Krys-28,true,1.00,11145,502,11138,348,682555
Krys-29,true,1.00,5540,446,5530,168,379475
Krys-30,true,1.00,9632,469,9631,293,579130
Krys-31,true,1.00,50,384,47,2,2742
Krys-32,true,1.00,12,430,9,1,513
Krys-33,true,1.00,12,402,9,1,448
Krys-34,true,1.00,428,403,426,13,27529
Krys-35,true,1.00,2898,374,2881,87,178047
Krys-36,true,1.00,11794,428,11793,358,766944
Krys-37,true,1.00,2241,433,2239,68,157085
Krys-38,true,1.00,515,428,512,16,36910
Krys-39,true,1.00,10776,407,10776,327,704152
Krys-40,true,1.00,7424,437,7423,225,498042
Krys-41,true,1.00,11154,509,11152,338,721769
Krys-42,true,1.00,11,366,8,1,479
Krys-43,true,1.00,35,353,22,1,489
Krys-44,true,1.00,7820,430,7818,237,572489
Krys-45,true,1.00,1767,396,1749,53,92185
Krys-46,true,1.00,7364,437,7363,223,465427
Krys-47,true,1.00,22,453,19,1,1122
Krys-48,true,1.00,13,374,12,1,606
Krys-49,true,1.00,23,464,20,1,1080
Krys-50,true,1.00,10132,483,10131,308,603457
Krys-51,true,1.00,29,411,26,1,1559
Krys-52,true,1.00,518,378,516,16,27435
Krys-53,true,1.00,10295,482,10294,314,645773
Krys-54,true,1.00,231,416,228,7,14748
Krys-55,true,1.00,10169,447,10168,310,674008
Krys-56,true,1.00,34,353,30,1,1706
Krys-57,true,1.00,13,362,10,1,640
Krys-58,true,1.00,6794,423,6793,209,440698
Krys-59,true,1.00,8645,415,8644,267,484461
Krys-60,true,1.00,11146,409,11119,337,712655
Krys-61,true,1.00,4414,444,4412,134,273907
Krys-62,true,1.00,7589,428,7587,239,403214
Krys-63,true,1.00,13534,579,13533,428,848657
Krys-64,true,1.00,1772,444,1769,54,123567
Krys-65,true,1.00,8651,435,8650,266,520779
Krys-66,true,1.00,9671,402,9670,293,512933
Krys-67,true,1.00,10420,495,10419,320,707140
Krys-68,true,1.00,11,375,8,1,575
Krys-69,true,1.00,9865,486,9863,302,575642
Krys-70,true,1.00,10646,443,10645,323,664967
Krys-71,true,1.00,29,413,27,1,664
Krys-72,true,1.00,35,419,32,1,514
Krys-73,true,1.00,11286,505,11285,345,686790
Krys-74,true,1.00,33,391,30,1,641
Krys-75,true,1.00,29,392,26,1,1262
Krys-76,true,1.00,3926,375,3924,119,234303
Krys-77,true,1.00,11,401,8,1,459
Krys-78,true,1.00,9791,471,9790,297,615896
Krys-79,true,1.00,32,399,30,1,1496
Krys-80,true,1.00,25,453,19,1,951
Krys-81,true,1.00,15,386,12,1,659
Krys-82,true,1.00,1181,362,1179,36,66056
Krys-83,true,1.00,12888,472,12885,392,793113
Krys-84,true,1.00,9,385,6,1,325
Krys-85,true,1.00,2760,476,2757,85,176542
Krys-86,true,1.00,8174,466,8173,250,548187
Krys-87,true,1.00,17,392,15,1,496
Krys-88,true,1.00,7953,420,7952,241,510071
Krys-89,true,1.00,28,408,26,1,995
Krys-90,true,1.00,53,363,51,2,3057
Krys-91,true,1.00,15,404,9,1,518
Krys-92,true,1.00,11078,425,11076,340,628292
Krys-93,true,1.00,32,389,29,1,1651
Krys-94,true,1.00,13,380,11,1,605
Krys-95,true,1.00,554,370,551,17,26530
Krys-96,true,1.00,24,407,21,1,520
Krys-97,true,1.00,7560,354,7559,229,449078
Krys-98,true,1.00,12658,496,12657,392,711927
Krys-99,true,1.00,6262,400,6260,189,338147
Krys-100,true,1.00,8,376,6,1,357
