SS:10.0
RIGHT_BORDER_X:235.0
level,win/fail,% travelled,run time,game ticks,planning time,total plannings,nodes evaluated,most backtracked nodes
patternCount-1,false,0.98,14105,457,14103,457,552489
patternCount-2,true,1.00,29,423,17,1,279
patternCount-3,true,1.00,31,473,17,1,506
patternCount-4,true,1.00,27,448,16,1,341
patternCount-5,true,1.00,27,427,9,1,248
patternCount-6,true,1.00,26,429,17,1,325
patternCount-7,true,1.00,27,455,17,1,387
patternCount-8,true,1.00,143,437,132,4,2911
patternCount-9,true,1.00,43,474,15,1,319
patternCount-10,true,1.00,45,429,35,1,271
patternCount-11,true,1.00,67,524,52,2,928
patternCount-12,true,1.00,30,443,21,1,553
patternCount-13,true,1.00,40,417,27,1,260
patternCount-14,true,1.00,27,397,15,1,410
patternCount-15,true,1.00,22,429,12,1,241
patternCount-16,true,1.00,27,453,13,1,352
patternCount-17,true,1.00,27,460,12,1,318
patternCount-18,true,1.00,23,418,11,1,273
patternCount-19,true,1.00,22,396,11,1,302
patternCount-20,true,1.00,27,434,16,1,336
patternCount-21,true,1.00,21,420,10,1,234
patternCount-22,true,1.00,29,524,12,1,345
patternCount-23,true,1.00,8529,488,8527,259,346371
patternCount-24,true,1.00,35,478,27,1,646
patternCount-25,true,1.00,22,426,13,1,231
patternCount-26,true,1.00,24,412,12,1,319
patternCount-27,true,1.00,23,417,11,1,292
patternCount-28,true,1.00,29,476,15,1,396
patternCount-29,true,1.00,23,408,14,1,297
patternCount-30,true,1.00,49,488,30,1,351
patternCount-31,true,1.00,48,404,26,1,354
patternCount-32,true,1.00,62,459,25,1,457
patternCount-33,true,1.00,33,483,21,1,569
patternCount-34,true,1.00,29,455,17,1,518
patternCount-35,true,1.00,29,480,17,1,371
patternCount-36,true,1.00,20,374,13,1,214
patternCount-37,true,1.00,18,368,9,1,202
patternCount-38,true,1.00,31,482,19,1,501
patternCount-39,true,1.00,23,428,12,1,270
patternCount-40,true,1.00,35,502,22,1,638
patternCount-41,true,1.00,50,466,15,1,333
patternCount-42,true,1.00,36,443,24,1,284
patternCount-43,true,1.00,26,464,17,1,295
patternCount-44,true,1.00,21,436,11,1,222
patternCount-45,true,1.00,113,413,100,3,3260
patternCount-46,true,1.00,24,406,12,1,299
patternCount-47,true,1.00,27,445,19,1,401
patternCount-48,true,1.00,26,471,14,1,354
patternCount-49,true,1.00,23,437,13,1,287
patternCount-50,true,1.00,9259,420,9256,282,330178
patternCount-51,true,1.00,39,449,31,1,742
patternCount-52,true,1.00,23,418,14,1,281
patternCount-53,true,1.00,27,453,18,1,375
patternCount-54,true,1.00,29,468,19,1,410
patternCount-55,true,1.00,39,444,27,1,902
patternCount-56,true,1.00,24,426,15,1,304
patternCount-57,true,1.00,23,440,12,1,276
patternCount-58,true,1.00,8950,441,8948,272,294825
patternCount-59,true,1.00,28,484,15,1,341
patternCount-60,true,1.00,23,424,11,1,306
patternCount-61,true,1.00,23,422,13,1,331
patternCount-62,true,1.00,23,450,12,1,307
patternCount-63,true,1.00,23,420,12,1,242
patternCount-64,true,1.00,20,396,9,1,244
patternCount-65,true,1.00,22,419,11,1,309
patternCount-66,true,1.00,57,487,30,1,343
patternCount-67,true,1.00,33,452,22,1,395
patternCount-68,true,1.00,39,403,17,1,393
patternCount-69,true,1.00,26,475,15,1,354
patternCount-70,true,1.00,23,442,10,1,302
patternCount-71,true,1.00,26,478,15,1,351
patternCount-72,true,1.00,40,433,28,1,890
patternCount-73,true,1.00,28,488,17,1,450
patternCount-74,true,1.00,34,466,20,1,559
patternCount-75,true,1.00,26,416,13,1,340
patternCount-76,true,1.00,45,439,17,1,361
patternCount-77,true,1.00,22,431,11,1,254
patternCount-78,true,1.00,25,486,12,1,327
patternCount-79,true,1.00,38,495,27,1,862
patternCount-80,true,1.00,24,405,18,1,408
patternCount-81,true,1.00,26,461,12,1,303
patternCount-82,true,1.00,23,471,14,1,309
patternCount-83,true,1.00,24,439,15,1,396
patternCount-84,true,1.00,27,440,14,1,374
patternCount-85,true,1.00,25,455,14,1,348
patternCount-86,true,1.00,22,410,14,1,279
patternCount-87,true,1.00,28,468,13,1,451
patternCount-88,true,1.00,29,489,16,1,443
patternCount-89,true,1.00,21,410,10,1,255
patternCount-90,true,1.00,21,420,11,1,277
patternCount-91,true,1.00,23,396,14,1,396
patternCount-92,true,1.00,21,418,11,1,256
patternCount-93,true,1.00,30,479,18,1,505
patternCount-94,true,1.00,21,426,12,1,269
patternCount-95,true,1.00,29,499,16,1,394
patternCount-96,true,1.00,22,390,15,1,351
patternCount-97,false,0.87,12754,406,12754,406,473730
patternCount-98,true,1.00,23,447,10,1,298
patternCount-99,true,1.00,22,454,12,1,315
patternCount-100,true,1.00,21,397,11,1,286
