SS:1.0
RIGHT_BORDER_X:95.0
level,win/fail,% travelled,run time,game ticks,planning time,total plannings,nodes evaluated,most backtracked nodes
patternCount-1,true,1.00,13317,508,13316,404,996704
patternCount-2,true,1.00,9,423,6,1,279
patternCount-3,true,1.00,11,473,8,1,506
patternCount-4,true,1.00,9,448,6,1,341
patternCount-5,true,1.00,7,427,4,1,248
patternCount-6,true,1.00,8,429,5,1,325
patternCount-7,true,1.00,10,455,8,1,387
patternCount-8,true,1.00,69,438,66,2,1977
patternCount-9,true,1.00,21,474,18,1,319
patternCount-10,true,1.00,19,429,13,1,271
patternCount-11,true,1.00,19,514,16,1,436
patternCount-12,true,1.00,20,443,9,1,553
patternCount-13,true,1.00,8,417,5,1,260
patternCount-14,true,1.00,10,397,7,1,410
patternCount-15,true,1.00,7,429,4,1,241
patternCount-16,true,1.00,12,453,9,1,352
patternCount-17,true,1.00,17,460,6,1,318
patternCount-18,true,1.00,13,418,6,1,273
patternCount-19,true,1.00,8,396,6,1,302
patternCount-20,true,1.00,10,434,6,1,336
patternCount-21,true,1.00,7,420,5,1,234
patternCount-22,true,1.00,9,524,6,1,345
patternCount-23,true,1.00,25,504,22,1,1738
patternCount-24,true,1.00,12,478,9,1,646
patternCount-25,true,1.00,7,426,6,1,231
patternCount-26,true,1.00,8,412,5,1,319
patternCount-27,true,1.00,8,417,5,1,292
patternCount-28,true,1.00,31,476,7,1,396
patternCount-29,true,1.00,15,408,13,1,297
patternCount-30,true,1.00,17,488,12,1,351
patternCount-31,true,1.00,9,404,6,1,354
patternCount-32,true,1.00,10,459,7,1,457
patternCount-33,true,1.00,13,483,10,1,569
patternCount-34,true,1.00,29,455,14,1,518
patternCount-35,true,1.00,21,480,6,1,371
patternCount-36,true,1.00,9,374,7,1,214
patternCount-37,true,1.00,6,368,4,1,202
patternCount-38,true,1.00,12,482,9,1,501
patternCount-39,true,1.00,8,428,6,1,270
patternCount-40,true,1.00,15,502,12,1,638
patternCount-41,true,1.00,9,466,6,1,333
patternCount-42,true,1.00,23,443,5,1,284
patternCount-43,true,1.00,18,464,6,1,295
patternCount-44,true,1.00,15,436,13,1,222
patternCount-45,true,1.00,32,435,29,1,1118
patternCount-46,true,1.00,8,406,6,1,299
patternCount-47,true,1.00,26,445,24,1,401
patternCount-48,true,1.00,9,471,7,1,354
patternCount-49,true,1.00,20,437,5,1,287
patternCount-50,true,1.00,9261,418,9260,280,583183
patternCount-51,true,1.00,16,449,13,1,742
patternCount-52,true,1.00,7,418,4,1,281
patternCount-53,true,1.00,11,453,7,1,375
patternCount-54,true,1.00,10,468,7,1,410
patternCount-55,true,1.00,14,444,12,1,902
patternCount-56,true,1.00,8,426,5,1,304
patternCount-57,true,1.00,8,440,6,1,276
patternCount-58,true,1.00,8291,429,8290,254,472188
patternCount-59,true,1.00,10,484,6,1,341
patternCount-60,true,1.00,8,424,6,1,306
patternCount-61,true,1.00,9,422,6,1,331
patternCount-62,true,1.00,8,450,6,1,307
patternCount-63,true,1.00,7,420,5,1,242
patternCount-64,true,1.00,6,396,4,1,244
patternCount-65,true,1.00,8,419,6,1,309
patternCount-66,true,1.00,12,487,9,1,343
patternCount-67,true,1.00,9,452,8,1,395
patternCount-68,true,1.00,9,403,7,1,393
patternCount-69,true,1.00,18,475,5,1,354
patternCount-70,true,1.00,9,442,6,1,302
patternCount-71,true,1.00,23,478,6,1,351
patternCount-72,true,1.00,17,433,14,1,890
patternCount-73,true,1.00,11,488,8,1,450
patternCount-74,true,1.00,29,466,26,1,559
patternCount-75,true,1.00,17,416,6,1,340
patternCount-76,true,1.00,16,439,7,1,361
patternCount-77,true,1.00,17,431,15,1,254
patternCount-78,true,1.00,9,486,6,1,327
patternCount-79,true,1.00,17,495,13,1,862
patternCount-80,true,1.00,9,405,6,1,408
patternCount-81,true,1.00,9,461,6,1,303
patternCount-82,true,1.00,8,471,5,1,309
patternCount-83,true,1.00,9,439,6,1,396
patternCount-84,true,1.00,11,440,7,1,374
patternCount-85,true,1.00,8,455,6,1,348
patternCount-86,true,1.00,9,410,6,1,279
patternCount-87,true,1.00,10,468,7,1,451
patternCount-88,true,1.00,10,489,8,1,443
patternCount-89,true,1.00,7,410,5,1,255
patternCount-90,true,1.00,8,420,5,1,277
patternCount-91,true,1.00,8,396,5,1,396
patternCount-92,true,1.00,8,418,5,1,256
patternCount-93,true,1.00,17,479,12,1,505
patternCount-94,true,1.00,8,426,5,1,269
patternCount-95,true,1.00,11,499,7,1,394
patternCount-96,true,1.00,8,390,5,1,351
patternCount-97,false,0.87,12531,400,12530,400,780554
patternCount-98,true,1.00,33,447,6,1,298
patternCount-99,true,1.00,12,454,5,1,315
patternCount-100,true,1.00,11,397,5,1,286
