SS:4.0
RIGHT_BORDER_X:255.0
level,win/fail,% travelled,run time,game ticks,planning time,total plannings,nodes evaluated,most backtracked nodes
Mario-1,true,1.00,255,448,230,7,929
Mario-2,true,1.00,16,323,8,1,196
Mario-3,true,1.00,25,290,20,1,328
Mario-4,true,1.00,864,458,846,24,9480
Mario-5,true,1.00,22,462,10,1,410
Mario-6,true,1.00,669,288,648,19,23948
Mario-7,true,1.00,25,452,6,1,398
Mario-8,true,1.00,4648,320,4636,136,257565
Mario-9,true,1.00,43,395,36,1,199
Mario-10,true,1.00,540,305,522,16,7531
Mario-11,true,1.00,18,412,12,1,441
Mario-12,true,1.00,80,567,52,2,1876
Mario-13,true,1.00,9,323,5,1,246
Mario-14,true,1.00,12,389,6,1,227
Mario-15,true,1.00,98,850,68,2,2020
