SS:3.0
RIGHT_BORDER_X:150.0
level,win/fail,% travelled,run time,game ticks,planning time,total plannings,nodes evaluated,most backtracked nodes
Mario-1,true,1.00,58,448,32,1,284
Mario-2,true,1.00,29,323,19,1,196
Mario-3,true,1.00,30,290,26,1,328
Mario-4,true,1.00,1748,462,1704,49,27693
Mario-5,true,1.00,534,464,523,15,2154
Mario-6,true,1.00,137,288,130,4,4576
Mario-7,true,1.00,24,452,6,1,398
Mario-8,true,1.00,4463,321,4448,132,272321
Mario-9,true,1.00,45,395,19,1,199
Mario-10,true,1.00,553,297,546,15,8137
Mario-11,true,1.00,30,412,24,1,441
Mario-12,true,1.00,92,567,59,2,1808
Mario-13,true,1.00,9,323,4,1,246
Mario-14,true,1.00,31,389,6,1,227
Mario-15,true,1.00,331,844,305,9,7213
