SS:30.0
RIGHT_BORDER_X:65.0
level,win/fail,% travelled,run time,game ticks,planning time,total plannings,nodes evaluated,most backtracked nodes
patternCount-1,true,1.00,14267,505,14265,439,545163
patternCount-2,true,1.00,25,423,16,1,279
patternCount-3,true,1.00,33,473,20,1,506
patternCount-4,true,1.00,26,448,16,1,341
patternCount-5,true,1.00,23,427,13,1,248
patternCount-6,true,1.00,46,429,28,1,325
patternCount-7,true,1.00,31,455,22,1,387
patternCount-8,true,1.00,121,436,112,3,2387
patternCount-9,true,1.00,27,474,20,1,319
patternCount-10,true,1.00,23,429,14,1,271
patternCount-11,true,1.00,31,514,18,1,436
patternCount-12,true,1.00,31,443,19,1,553
patternCount-13,true,1.00,22,417,13,1,260
patternCount-14,true,1.00,28,397,18,1,410
patternCount-15,true,1.00,23,429,10,1,241
patternCount-16,true,1.00,54,453,44,1,352
patternCount-17,true,1.00,32,460,18,1,318
patternCount-18,true,1.00,28,418,13,1,273
patternCount-19,true,1.00,23,396,10,1,302
patternCount-20,true,1.00,26,434,13,1,336
patternCount-21,true,1.00,23,420,12,1,234
patternCount-22,true,1.00,30,524,16,1,345
patternCount-23,true,1.00,7270,477,7264,221,289776
patternCount-24,true,1.00,33,478,22,1,646
patternCount-25,true,1.00,22,426,13,1,231
patternCount-26,true,1.00,24,412,14,1,319
patternCount-27,true,1.00,24,417,13,1,292
patternCount-28,true,1.00,44,476,14,1,396
patternCount-29,true,1.00,36,408,13,1,297
patternCount-30,true,1.00,35,488,19,1,351
patternCount-31,true,1.00,25,404,14,1,354
patternCount-32,true,1.00,28,459,17,1,457
patternCount-33,true,1.00,34,483,21,1,569
patternCount-34,true,1.00,31,455,21,1,518
patternCount-35,true,1.00,29,480,14,1,371
patternCount-36,true,1.00,36,374,8,1,214
patternCount-37,true,1.00,20,368,11,1,202
patternCount-38,true,1.00,32,482,21,1,501
patternCount-39,true,1.00,23,428,11,1,270
patternCount-40,true,1.00,36,502,21,1,638
patternCount-41,true,1.00,26,466,14,1,333
patternCount-42,true,1.00,44,443,11,1,284
patternCount-43,true,1.00,34,464,21,1,295
patternCount-44,true,1.00,22,436,13,1,222
patternCount-45,true,1.00,409,413,400,12,12911
patternCount-46,true,1.00,25,406,15,1,299
patternCount-47,true,1.00,65,426,57,2,634
patternCount-48,true,1.00,44,471,18,1,354
patternCount-49,true,1.00,39,437,15,1,287
patternCount-50,true,1.00,8767,406,8764,268,298892
patternCount-51,true,1.00,38,449,26,1,742
patternCount-52,true,1.00,22,418,11,1,281
patternCount-53,true,1.00,27,453,18,1,375
patternCount-54,true,1.00,30,468,20,1,410
patternCount-55,true,1.00,41,444,31,1,902
patternCount-56,true,1.00,26,426,16,1,304
patternCount-57,true,1.00,24,440,11,1,276
patternCount-58,false,0.85,12065,385,12063,385,391433
patternCount-59,true,1.00,27,484,17,1,341
patternCount-60,true,1.00,24,424,13,1,306
patternCount-61,true,1.00,24,422,13,1,331
patternCount-62,true,1.00,24,450,11,1,307
patternCount-63,true,1.00,23,420,11,1,242
patternCount-64,true,1.00,20,396,9,1,244
patternCount-65,true,1.00,25,419,15,1,309
patternCount-66,true,1.00,58,487,28,1,343
patternCount-67,true,1.00,29,452,17,1,395
patternCount-68,true,1.00,53,403,16,1,393
patternCount-69,true,1.00,32,475,21,1,354
patternCount-70,true,1.00,24,442,14,1,302
patternCount-71,true,1.00,26,478,13,1,351
patternCount-72,true,1.00,40,433,29,1,890
patternCount-73,true,1.00,31,488,20,1,450
patternCount-74,true,1.00,35,466,20,1,559
patternCount-75,true,1.00,24,416,13,1,340
patternCount-76,true,1.00,46,439,13,1,361
patternCount-77,true,1.00,23,431,15,1,254
patternCount-78,true,1.00,27,486,14,1,327
patternCount-79,true,1.00,42,495,30,1,862
patternCount-80,true,1.00,27,405,14,1,408
patternCount-81,true,1.00,25,461,17,1,303
patternCount-82,true,1.00,27,471,16,1,309
patternCount-83,true,1.00,27,439,16,1,396
patternCount-84,true,1.00,27,440,18,1,374
patternCount-85,true,1.00,26,455,17,1,348
patternCount-86,true,1.00,24,410,12,1,279
patternCount-87,true,1.00,32,468,17,1,451
patternCount-88,true,1.00,31,489,21,1,443
patternCount-89,true,1.00,23,410,9,1,255
patternCount-90,true,1.00,25,420,15,1,277
patternCount-91,true,1.00,25,396,15,1,396
patternCount-92,true,1.00,23,418,16,1,256
patternCount-93,true,1.00,33,479,22,1,505
patternCount-94,true,1.00,24,426,16,1,269
patternCount-95,true,1.00,29,499,17,1,394
patternCount-96,true,1.00,23,390,14,1,351
patternCount-97,false,0.87,12755,406,12754,406,452770
patternCount-98,true,1.00,23,447,15,1,298
patternCount-99,true,1.00,25,454,16,1,315
patternCount-100,true,1.00,22,397,12,1,286
