SS:5.0
RIGHT_BORDER_X:75.0
level,win/fail,% travelled,run time,game ticks,planning time,total plannings,nodes evaluated,most backtracked nodes
Krys-1,true,1.00,12504,577,12468,383,719331
Krys-2,true,1.00,4156,373,4151,124,202681
Krys-3,true,1.00,9639,481,9618,294,557005
Krys-4,true,1.00,7767,401,7764,240,492551
Krys-5,true,1.00,57,357,9,1,494
Krys-6,true,1.00,866,386,851,26,49667
Krys-7,true,1.00,14,395,8,1,426
Krys-8,true,1.00,216,414,213,6,6615
Krys-9,true,1.00,23,369,11,1,404
Krys-10,true,1.00,681,413,677,20,28380
Krys-11,true,1.00,21,404,18,1,489
Krys-12,true,1.00,10162,466,10159,309,593364
Krys-13,true,1.00,32,440,21,1,518
Krys-14,true,1.00,101,388,98,3,4967
Krys-15,true,1.00,146,396,143,4,5065
Krys-16,true,1.00,6577,418,6575,203,337965
Krys-17,true,1.00,8566,449,8549,262,539722
Krys-18,true,1.00,34,401,23,1,1219
Krys-19,true,1.00,1045,409,1042,31,57931
Krys-20,true,1.00,660,405,656,20,38097
Krys-21,true,1.00,9,378,7,1,369
Krys-22,true,1.00,24,368,9,1,478
Krys-23,true,1.00,1549,438,1546,47,82943
Krys-24,true,1.00,9261,476,9259,283,565441
Krys-25,true,1.00,1542,411,1539,47,98802
Krys-26,true,1.00,10,359,7,1,487
Krys-27,true,1.00,6072,408,6070,184,350682
Krys-28,true,1.00,11508,511,11507,360,696530
Krys-29,true,1.00,5533,446,5531,168,373413
Krys-30,true,1.00,9715,483,9702,295,572482
Krys-31,true,1.00,51,384,48,2,2738
Krys-32,true,1.00,12,430,10,1,513
Krys-33,true,1.00,13,402,8,1,448
Krys-34,true,1.00,430,403,429,13,27324
Krys-35,true,1.00,2822,375,2820,85,172385
Krys-36,true,1.00,11595,431,11583,351,735268
Krys-37,true,1.00,2272,433,2240,68,153911
Krys-38,true,1.00,2790,399,2763,83,183736
Krys-39,true,1.00,10777,407,10776,327,692272
Krys-40,true,1.00,7522,440,7520,228,497129
Krys-41,true,1.00,11155,509,11154,338,712606
Krys-42,true,1.00,10,366,8,1,479
Krys-43,true,1.00,43,351,41,2,786
Krys-44,true,1.00,7826,430,7825,237,561516
Krys-45,true,1.00,1752,396,1750,53,90246
Krys-46,true,1.00,7362,437,7360,223,461941
Krys-47,true,1.00,22,453,19,1,1122
Krys-48,true,1.00,13,374,10,1,606
Krys-49,true,1.00,24,464,21,1,1080
Krys-50,true,1.00,10135,483,10134,308,596174
Krys-51,true,1.00,29,411,26,1,1559
Krys-52,true,1.00,518,378,515,16,27103
Krys-53,true,1.00,10296,482,10295,314,638567
Krys-54,true,1.00,231,416,228,7,14334
Krys-55,true,1.00,10322,457,10321,315,672635
Krys-56,true,1.00,35,353,31,1,1706
Krys-57,true,1.00,17,362,10,1,640
Krys-58,true,1.00,6794,423,6792,209,437315
Krys-59,true,1.00,8861,419,8844,271,486158
Krys-60,true,1.00,11931,442,11931,362,765309
Krys-61,true,1.00,4416,444,4414,134,268596
Krys-62,true,1.00,5482,430,5479,169,279633
Krys-63,true,1.00,13542,579,13541,428,837961
Krys-64,true,1.00,1772,444,1770,54,120972
Krys-65,true,1.00,8642,435,8641,266,513064
Krys-66,true,1.00,9682,402,9681,293,506777
Krys-67,true,1.00,10420,495,10419,320,692735
Krys-68,true,1.00,11,375,9,1,575
Krys-69,true,1.00,9407,472,9406,288,543666
Krys-70,true,1.00,10644,443,10644,323,656893
Krys-71,true,1.00,13,413,11,1,664
Krys-72,true,1.00,12,419,9,1,514
Krys-73,true,1.00,11287,505,11286,345,677476
Krys-74,true,1.00,16,391,13,1,641
Krys-75,true,1.00,28,392,25,1,1262
Krys-76,true,1.00,3926,375,3924,119,233187
Krys-77,true,1.00,11,401,9,1,459
Krys-78,true,1.00,9827,472,9825,298,608468
Krys-79,true,1.00,30,399,27,1,1496
Krys-80,true,1.00,22,453,17,1,951
Krys-81,true,1.00,16,386,11,1,659
Krys-82,true,1.00,1181,362,1179,36,65194
Krys-83,true,1.00,12888,472,12885,392,783305
Krys-84,true,1.00,9,385,6,1,325
Krys-85,true,1.00,2760,476,2757,85,173549
Krys-86,true,1.00,8175,466,8173,250,539401
Krys-87,true,1.00,19,392,15,1,496
Krys-88,true,1.00,8147,425,8146,247,518444
Krys-89,true,1.00,24,408,21,1,995
Krys-90,true,1.00,55,363,51,2,3432
Krys-91,true,1.00,13,404,10,1,518
Krys-92,true,1.00,11079,425,11078,340,616565
Krys-93,true,1.00,65,357,62,2,2554
Krys-94,true,1.00,20,380,17,1,605
Krys-95,true,1.00,553,370,551,17,28004
Krys-96,true,1.00,15,407,9,1,520
Krys-97,true,1.00,8311,360,8310,254,493800
Krys-98,true,1.00,12742,496,12741,395,710796
Krys-99,true,1.00,5152,430,5149,156,274436
Krys-100,true,1.00,8,376,5,1,357
