SS:3.0
RIGHT_BORDER_X:200.0
level,win/fail,% travelled,run time,game ticks,planning time,total plannings,nodes evaluated,most backtracked nodes
Krys-1,true,1.00,13366,546,13331,420,699993
Krys-2,true,1.00,3461,373,3427,103,153101
Krys-3,true,1.00,9769,490,9764,303,511754
Krys-4,true,1.00,7813,401,7812,240,434296
Krys-5,true,1.00,69,357,24,1,494
Krys-6,true,1.00,612,375,596,18,29570
Krys-7,true,1.00,12,395,9,1,426
Krys-8,true,1.00,322,414,306,9,10271
Krys-9,true,1.00,22,369,9,1,404
Krys-10,true,1.00,810,383,806,24,28302
Krys-11,true,1.00,14,404,12,1,489
Krys-12,false,0.70,32007,999,31951,999,1794430
Krys-13,true,1.00,46,440,11,1,518
Krys-14,true,1.00,6777,388,6749,207,316457
Krys-15,true,1.00,1058,373,1055,32,55037
Krys-16,true,1.00,6168,407,6165,192,284866
Krys-17,true,1.00,8607,436,8605,264,471965
Krys-18,true,1.00,78,384,53,2,1595
Krys-19,true,1.00,1088,409,1061,31,47326
Krys-20,true,1.00,4778,412,4750,144,236359
Krys-21,true,1.00,10,378,10,1,369
Krys-22,true,1.00,26,368,24,1,478
Krys-23,true,1.00,1554,438,1550,47,72352
Krys-24,true,1.00,9295,476,9277,283,480003
Krys-25,true,1.00,1548,411,1544,47,84574
Krys-26,true,1.00,11,359,8,1,487
Krys-27,true,1.00,6007,398,6005,182,292104
Krys-28,true,1.00,8778,441,8776,275,452424
Krys-29,true,1.00,5537,446,5535,168,318237
Krys-30,true,1.00,10745,485,10744,327,529863
Krys-31,true,1.00,53,384,50,2,2423
Krys-32,true,1.00,14,430,11,1,513
Krys-33,true,1.00,13,402,10,1,448
Krys-34,true,1.00,625,386,623,19,33850
Krys-35,true,1.00,2806,372,2804,85,141334
Krys-36,true,1.00,11588,431,11576,351,624956
Krys-37,true,1.00,2770,419,2767,84,161675
Krys-38,true,1.00,518,428,515,16,30791
Krys-39,true,1.00,10782,407,10782,327,590315
Krys-40,true,1.00,9403,419,9402,285,523412
Krys-41,false,0.70,31950,999,31949,999,1818302
Krys-42,true,1.00,12,366,9,1,479
Krys-43,true,1.00,27,353,25,1,489
Krys-44,true,1.00,8244,435,8243,254,496768
Krys-45,true,1.00,4604,423,4601,143,206273
Krys-46,true,1.00,7421,448,7419,225,392003
Krys-47,true,1.00,27,453,23,1,1122
Krys-48,true,1.00,15,374,13,1,606
Krys-49,true,1.00,28,464,26,1,1080
Krys-50,true,1.00,11106,497,11103,337,538675
Krys-51,true,1.00,34,411,31,1,1559
Krys-52,true,1.00,523,378,520,16,22840
Krys-53,true,1.00,11349,492,11348,345,577179
Krys-54,true,1.00,5053,430,5049,153,267029
Krys-55,true,1.00,10334,457,10331,315,567209
Krys-56,true,1.00,3699,344,3696,112,176440
Krys-57,true,1.00,14,362,12,1,640
Krys-58,true,1.00,6920,426,6919,215,377100
Krys-59,true,1.00,8292,374,8278,253,381891
Krys-60,true,1.00,11210,410,11195,339,591646
Krys-61,true,1.00,4389,449,4386,133,217918
Krys-62,true,1.00,6770,431,6766,209,297215
Krys-63,true,1.00,14072,591,14071,440,733632
Krys-64,true,1.00,1778,444,1776,54,102073
Krys-65,true,1.00,8647,435,8643,266,431926
Krys-66,true,1.00,11377,475,11376,345,516388
Krys-67,true,1.00,10331,477,10328,314,570015
Krys-68,true,1.00,14,375,11,1,575
Krys-69,true,1.00,8779,454,8777,267,424215
Krys-70,true,1.00,10450,437,10449,317,538662
Krys-71,true,1.00,16,413,13,1,664
Krys-72,true,1.00,15,419,12,1,514
Krys-73,true,1.00,11665,491,11664,356,583108
Krys-74,true,1.00,18,391,15,1,641
Krys-75,true,1.00,33,392,30,1,1262
Krys-76,true,1.00,4520,375,4518,137,221322
Krys-77,true,1.00,12,401,9,1,459
Krys-78,true,1.00,10188,474,10187,309,523172
Krys-79,true,1.00,497,428,495,15,21740
Krys-80,true,1.00,28,453,23,1,951
Krys-81,true,1.00,16,386,13,1,659
Krys-82,true,1.00,1189,362,1184,36,54375
Krys-83,true,1.00,12659,466,12656,386,637231
Krys-84,true,1.00,10,385,7,1,325
Krys-85,true,1.00,6973,441,6971,221,373764
Krys-86,true,1.00,8180,466,8178,250,458812
Krys-87,true,1.00,15,392,12,1,496
Krys-88,true,1.00,8351,424,8349,253,444889
Krys-89,true,1.00,26,408,23,1,995
Krys-90,true,1.00,56,363,53,2,3072
Krys-91,true,1.00,14,404,12,1,518
Krys-92,true,1.00,11056,425,11055,340,532383
Krys-93,true,1.00,60,357,56,2,2823
Krys-94,true,1.00,15,380,13,1,605
Krys-95,true,1.00,558,370,551,17,24518
Krys-96,true,1.00,13,407,10,1,520
Krys-97,true,1.00,6223,362,6222,189,313059
Krys-98,true,1.00,12845,484,12844,395,602308
Krys-99,true,1.00,6519,403,6518,198,288104
Krys-100,true,1.00,9,376,6,1,357
