SS:30.0
RIGHT_BORDER_X:200.0
level,win/fail,% travelled,run time,game ticks,planning time,total plannings,nodes evaluated,most backtracked nodes
Krys-1,true,1.00,12986,522,12983,405,356934
Krys-2,true,1.00,7052,373,7004,211,201547
Krys-3,false,0.70,31130,999,31074,999,1014691
Krys-4,true,1.00,10260,396,10208,314,326938
Krys-5,true,1.00,32,357,21,1,494
Krys-6,true,1.00,5818,375,5812,180,182242
Krys-7,true,1.00,29,395,18,1,426
Krys-8,true,1.00,4563,394,4553,138,143094
Krys-9,true,1.00,27,369,14,1,404
Krys-10,true,1.00,8453,415,8432,257,260788
Krys-11,true,1.00,193,420,180,5,2436
Krys-12,true,1.00,9302,445,9296,282,289536
Krys-13,true,1.00,43,440,32,1,518
Krys-14,true,1.00,7292,375,7288,224,218449
Krys-15,true,1.00,10270,422,10264,312,326598
Krys-16,true,1.00,7478,415,7473,230,204243
Krys-17,true,1.00,8833,442,8808,270,272126
Krys-18,true,1.00,63,384,52,2,1389
Krys-19,true,1.00,5869,394,5863,177,178798
Krys-20,true,1.00,8188,438,8180,248,257613
Krys-21,true,1.00,26,378,17,1,369
Krys-22,true,1.00,29,368,18,1,478
Krys-23,true,1.00,1549,438,1535,47,46680
Krys-24,true,1.00,9679,485,9667,295,313316
Krys-25,true,1.00,1663,420,1651,50,55763
Krys-26,true,1.00,36,359,16,1,487
Krys-27,true,1.00,6309,398,6302,191,188878
Krys-28,true,1.00,10846,486,10801,332,350153
Krys-29,true,1.00,5621,442,5611,170,196410
Krys-30,true,1.00,9395,453,9389,286,250366
Krys-31,true,1.00,72,384,61,2,1851
Krys-32,true,1.00,32,430,20,1,513
Krys-33,true,1.00,32,402,21,1,448
Krys-34,true,1.00,6512,448,6504,197,228311
Krys-35,true,1.00,3604,383,3573,108,116292
Krys-36,true,1.00,12251,447,12247,371,411183
Krys-37,true,1.00,3893,454,3883,122,137365
Krys-38,true,1.00,4729,417,4719,143,169230
Krys-39,true,1.00,10793,407,10792,327,371162
Krys-40,true,1.00,9805,446,9800,297,342573
Krys-41,true,1.00,8946,416,8940,271,301337
Krys-42,true,1.00,28,366,18,1,479
Krys-43,true,1.00,70,351,53,2,765
Krys-44,true,1.00,8388,436,8383,258,271750
Krys-45,true,1.00,4617,423,4608,143,139011
Krys-46,true,1.00,7453,436,7449,228,254320
Krys-47,true,1.00,431,444,417,13,13612
Krys-48,true,1.00,32,374,24,1,606
Krys-49,true,1.00,81,435,68,2,1983
Krys-50,true,1.00,11315,492,11311,344,334559
Krys-51,true,1.00,10102,420,10099,307,329579
Krys-52,true,1.00,4299,378,4293,130,130956
Krys-53,true,1.00,11251,501,11245,347,381456
Krys-54,true,1.00,9124,416,9118,286,312786
Krys-55,true,1.00,10775,450,10770,328,377159
Krys-56,false,0.59,31983,999,31981,999,1085766
Krys-57,true,1.00,57,362,22,1,640
Krys-58,true,1.00,8119,429,8092,246,266584
Krys-59,true,1.00,8688,390,8685,269,252486
Krys-60,true,1.00,11200,424,11182,339,381636
Krys-61,true,1.00,8582,445,8574,261,286035
Krys-62,true,1.00,8969,413,8964,278,270055
Krys-63,true,1.00,13732,576,13727,428,465686
Krys-64,true,1.00,2542,443,2531,77,93630
Krys-65,true,1.00,9050,437,9046,279,263918
Krys-66,true,1.00,12511,518,12507,379,379200
Krys-67,false,0.71,10167,321,10166,321,344947
Krys-68,true,1.00,59,375,19,1,575
Krys-69,true,1.00,10828,464,10823,334,350840
Krys-70,true,1.00,13337,536,13332,404,397005
Krys-71,true,1.00,34,413,23,1,664
Krys-72,true,1.00,59,419,25,1,514
Krys-73,true,1.00,11144,477,11139,346,355418
Krys-74,true,1.00,36,391,25,1,641
Krys-75,true,1.00,231,392,221,7,6227
Krys-76,true,1.00,5624,402,5611,170,162102
Krys-77,true,1.00,59,401,34,1,459
Krys-78,true,1.00,9234,442,9231,280,291085
Krys-79,true,1.00,9613,366,9611,292,294641
Krys-80,true,1.00,49,453,35,1,951
Krys-81,true,1.00,35,386,23,1,659
Krys-82,true,1.00,4744,410,4738,144,146433
Krys-83,true,1.00,13283,483,13277,404,407888
Krys-84,true,1.00,25,385,13,1,325
Krys-85,true,1.00,8111,415,8107,252,273363
Krys-86,true,1.00,8260,453,8256,252,296384
Krys-87,true,1.00,34,392,20,1,496
Krys-88,true,1.00,8079,394,8076,245,279266
Krys-89,true,1.00,81,415,68,2,1956
Krys-90,true,1.00,78,363,70,2,2324
Krys-91,true,1.00,32,404,19,1,518
Krys-92,true,1.00,11727,447,11727,360,372910
Krys-93,true,1.00,6047,362,6037,183,197435
Krys-94,true,1.00,31,380,27,1,605
Krys-95,true,1.00,689,368,679,21,20341
Krys-96,true,1.00,30,407,18,1,520
Krys-97,true,1.00,7296,396,7293,222,244195
Krys-98,true,1.00,14557,567,14551,452,426000
Krys-99,true,1.00,6532,403,6530,198,191842
Krys-100,true,1.00,24,376,15,1,357
