SS:9.0
RIGHT_BORDER_X:200.0
level,win/fail,% travelled,run time,game ticks,planning time,total plannings,nodes evaluated,most backtracked nodes
patternCount-1,false,0.98,14893,479,14892,479,609286
patternCount-2,true,1.00,28,423,15,1,279
patternCount-3,true,1.00,30,473,19,1,506
patternCount-4,true,1.00,25,448,14,1,341
patternCount-5,true,1.00,23,427,14,1,248
patternCount-6,true,1.00,23,429,13,1,325
patternCount-7,true,1.00,51,455,16,1,387
patternCount-8,true,1.00,86,438,76,2,1929
patternCount-9,true,1.00,36,474,13,1,319
patternCount-10,true,1.00,26,429,18,1,271
patternCount-11,true,1.00,29,514,13,1,436
patternCount-12,true,1.00,31,443,20,1,553
patternCount-13,true,1.00,42,417,33,1,260
patternCount-14,true,1.00,25,397,13,1,410
patternCount-15,true,1.00,22,429,14,1,241
patternCount-16,true,1.00,41,453,13,1,352
patternCount-17,true,1.00,28,460,19,1,318
patternCount-18,true,1.00,22,418,11,1,273
patternCount-19,true,1.00,21,396,12,1,302
patternCount-20,true,1.00,25,434,12,1,336
patternCount-21,true,1.00,21,420,12,1,234
patternCount-22,true,1.00,28,524,13,1,345
patternCount-23,true,1.00,4960,478,4953,150,211356
patternCount-24,true,1.00,32,478,19,1,646
patternCount-25,true,1.00,21,426,15,1,231
patternCount-26,true,1.00,22,412,14,1,319
patternCount-27,true,1.00,21,417,12,1,292
patternCount-28,true,1.00,45,476,17,1,396
patternCount-29,true,1.00,33,408,10,1,297
patternCount-30,true,1.00,60,488,32,1,351
patternCount-31,true,1.00,39,404,11,1,354
patternCount-32,true,1.00,44,459,26,1,457
patternCount-33,true,1.00,31,483,22,1,569
patternCount-34,true,1.00,28,455,17,1,518
patternCount-35,true,1.00,27,480,15,1,371
patternCount-36,true,1.00,34,374,15,1,214
patternCount-37,true,1.00,18,368,11,1,202
patternCount-38,true,1.00,30,482,17,1,501
patternCount-39,true,1.00,22,428,14,1,270
patternCount-40,true,1.00,35,502,23,1,638
patternCount-41,true,1.00,25,466,13,1,333
patternCount-42,true,1.00,43,443,14,1,284
patternCount-43,true,1.00,31,464,12,1,295
patternCount-44,true,1.00,22,436,10,1,222
patternCount-45,true,1.00,80,460,68,2,2203
patternCount-46,true,1.00,22,406,11,1,299
patternCount-47,true,1.00,25,445,17,1,401
patternCount-48,true,1.00,25,471,13,1,354
patternCount-49,true,1.00,22,437,10,1,287
patternCount-50,true,1.00,9191,418,9189,280,327379
patternCount-51,true,1.00,35,449,26,1,742
patternCount-52,true,1.00,22,418,13,1,281
patternCount-53,true,1.00,27,453,17,1,375
patternCount-54,true,1.00,26,468,14,1,410
patternCount-55,true,1.00,35,444,27,1,902
patternCount-56,true,1.00,23,426,10,1,304
patternCount-57,true,1.00,22,440,12,1,276
patternCount-58,false,0.85,13402,426,13399,426,446862
patternCount-59,true,1.00,56,484,28,1,341
patternCount-60,true,1.00,49,424,27,1,306
patternCount-61,true,1.00,50,422,27,1,331
patternCount-62,true,1.00,63,450,39,1,307
patternCount-63,true,1.00,45,420,21,1,242
patternCount-64,true,1.00,58,396,30,1,244
patternCount-65,true,1.00,136,432,100,2,595
patternCount-66,true,1.00,99,494,64,2,535
patternCount-67,true,1.00,181,452,145,4,1312
patternCount-68,true,1.00,46,403,29,1,393
patternCount-69,true,1.00,45,475,27,1,354
patternCount-70,true,1.00,39,442,21,1,302
patternCount-71,true,1.00,41,478,23,1,351
patternCount-72,true,1.00,279,437,269,8,6604
patternCount-73,true,1.00,36,488,19,1,450
patternCount-74,true,1.00,39,466,25,1,559
patternCount-75,true,1.00,48,416,16,1,340
patternCount-76,true,1.00,28,439,15,1,361
patternCount-77,true,1.00,25,431,13,1,254
patternCount-78,true,1.00,27,486,16,1,327
patternCount-79,true,1.00,39,495,27,1,862
patternCount-80,true,1.00,25,405,16,1,408
patternCount-81,true,1.00,24,461,13,1,303
patternCount-82,true,1.00,25,471,12,1,309
patternCount-83,true,1.00,25,439,13,1,396
patternCount-84,true,1.00,26,440,16,1,374
patternCount-85,true,1.00,26,455,12,1,348
patternCount-86,true,1.00,22,410,12,1,279
patternCount-87,true,1.00,29,468,18,1,451
patternCount-88,true,1.00,28,489,15,1,443
patternCount-89,true,1.00,21,410,12,1,255
patternCount-90,true,1.00,22,420,13,1,277
patternCount-91,true,1.00,23,396,15,1,396
patternCount-92,true,1.00,21,418,12,1,256
patternCount-93,true,1.00,30,479,19,1,505
patternCount-94,true,1.00,22,426,12,1,269
patternCount-95,true,1.00,28,499,19,1,394
patternCount-96,true,1.00,23,390,13,1,351
patternCount-97,false,0.87,12756,406,12755,406,465769
patternCount-98,true,1.00,23,447,15,1,298
patternCount-99,true,1.00,25,454,16,1,315
patternCount-100,true,1.00,21,397,11,1,286
