SS:6.0
RIGHT_BORDER_X:120.0
level,win/fail,% travelled,run time,game ticks,planning time,total plannings,nodes evaluated,most backtracked nodes
Krys-1,true,1.00,12493,510,12455,386,627985
Krys-2,true,1.00,7603,376,7601,229,321769
Krys-3,true,1.00,9716,490,9709,303,529363
Krys-4,true,1.00,7837,401,7815,240,426576
Krys-5,true,1.00,25,357,19,1,494
Krys-6,true,1.00,823,384,804,24,37713
Krys-7,true,1.00,22,395,9,1,426
Krys-8,true,1.00,119,409,89,3,3231
Krys-9,true,1.00,18,369,9,1,404
Krys-10,true,1.00,833,383,813,24,25990
Krys-11,true,1.00,31,404,28,1,489
Krys-12,false,0.70,32067,999,32028,999,1761161
Krys-13,true,1.00,45,440,21,1,518
Krys-14,true,1.00,7182,388,7164,219,322512
Krys-15,true,1.00,1455,388,1453,44,74361
Krys-16,true,1.00,6198,407,6195,192,267874
Krys-17,true,1.00,8614,436,8613,264,452816
Krys-18,true,1.00,35,401,29,1,1219
Krys-19,true,1.00,1051,409,1048,31,47529
Krys-20,true,1.00,4766,412,4764,144,209008
Krys-21,true,1.00,29,378,7,1,369
Krys-22,true,1.00,25,368,9,1,478
Krys-23,true,1.00,1574,438,1570,47,61871
Krys-24,true,1.00,9268,476,9266,283,471021
Krys-25,true,1.00,1547,411,1544,47,83006
Krys-26,true,1.00,12,359,9,1,487
Krys-27,true,1.00,6008,398,6005,182,288525
Krys-28,true,1.00,8836,441,8835,275,436212
Krys-29,true,1.00,5536,446,5534,168,317181
Krys-30,true,1.00,10757,485,10741,327,526553
Krys-31,true,1.00,54,384,51,2,1714
Krys-32,true,1.00,15,430,12,1,513
Krys-33,true,1.00,13,402,10,1,448
Krys-34,true,1.00,624,386,621,19,33494
Krys-35,true,1.00,2873,386,2870,87,145029
Krys-36,true,1.00,11581,431,11580,351,625879
Krys-37,true,1.00,2246,433,2243,68,131428
Krys-38,true,1.00,520,428,517,16,30906
Krys-39,true,1.00,10786,407,10781,327,587197
Krys-40,true,1.00,9404,419,9403,285,525711
Krys-41,false,0.70,31949,999,31949,999,1829064
Krys-42,true,1.00,12,366,9,1,479
Krys-43,true,1.00,27,353,24,1,489
Krys-44,true,1.00,8188,454,8186,252,497831
Krys-45,true,1.00,4606,423,4603,143,206475
Krys-46,true,1.00,7420,448,7418,225,395641
Krys-47,true,1.00,25,453,22,1,1122
Krys-48,true,1.00,15,374,12,1,606
Krys-49,true,1.00,27,464,23,1,1080
Krys-50,true,1.00,10336,483,10335,314,518167
Krys-51,true,1.00,34,411,31,1,1559
Krys-52,true,1.00,521,378,518,16,23172
Krys-53,true,1.00,10853,478,10852,331,576202
Krys-54,true,1.00,5053,430,5051,153,268709
Krys-55,true,1.00,10339,457,10336,315,574440
Krys-56,true,1.00,3699,353,3695,112,179281
Krys-57,true,1.00,14,362,11,1,640
Krys-58,true,1.00,6802,423,6800,209,374507
Krys-59,true,1.00,8702,389,8700,268,410817
Krys-60,true,1.00,11206,410,11178,339,595032
Krys-61,true,1.00,5598,376,5596,170,285456
Krys-62,true,1.00,6774,431,6770,209,299470
Krys-63,true,1.00,13673,584,13671,433,721922
Krys-64,true,1.00,1777,444,1774,54,103661
Krys-65,true,1.00,8664,435,8660,266,436431
Krys-66,true,1.00,11378,475,11377,345,521475
Krys-67,true,1.00,10332,477,10330,314,578427
Krys-68,true,1.00,14,375,12,1,575
Krys-69,true,1.00,8746,453,8744,266,427516
Krys-70,true,1.00,10387,435,10384,315,541094
Krys-71,true,1.00,28,413,25,1,664
Krys-72,true,1.00,22,419,19,1,514
Krys-73,true,1.00,11638,490,11637,355,586879
Krys-74,true,1.00,17,391,14,1,641
Krys-75,true,1.00,32,392,29,1,1262
Krys-76,true,1.00,4520,375,4518,137,225759
Krys-77,true,1.00,12,401,9,1,459
Krys-78,true,1.00,9830,472,9829,298,515082
Krys-79,true,1.00,399,407,395,12,15546
Krys-80,true,1.00,25,453,22,1,951
Krys-81,true,1.00,18,386,14,1,659
Krys-82,true,1.00,1463,370,1460,44,63779
Krys-83,true,1.00,12710,465,12707,385,617565
Krys-84,true,1.00,11,385,9,1,325
Krys-85,true,1.00,7006,441,7004,221,374800
Krys-86,true,1.00,8180,466,8178,250,465967
Krys-87,true,1.00,16,392,13,1,496
Krys-88,true,1.00,8152,425,8148,247,439409
Krys-89,true,1.00,26,408,23,1,995
Krys-90,true,1.00,57,363,54,2,3170
Krys-91,true,1.00,14,404,11,1,518
Krys-92,true,1.00,11066,425,11066,340,536778
Krys-93,true,1.00,58,357,56,2,2788
Krys-94,true,1.00,14,380,12,1,605
Krys-95,true,1.00,553,370,550,17,24715
Krys-96,true,1.00,12,407,9,1,520
Krys-97,true,1.00,6226,362,6225,189,316330
Krys-98,true,1.00,13044,484,13044,401,620534
Krys-99,true,1.00,6523,403,6522,198,290995
Krys-100,true,1.00,9,376,6,1,357
