SS:2.0
RIGHT_BORDER_X:75.0
level,win/fail,% travelled,run time,game ticks,planning time,total plannings,nodes evaluated,most backtracked nodes
Krys-1,true,1.00,14277,559,14247,441,754503
Krys-2,true,1.00,4146,373,4124,124,178114
Krys-3,true,1.00,9799,490,9796,303,492083
Krys-4,true,1.00,7850,401,7849,240,425594
Krys-5,true,1.00,57,357,18,1,494
Krys-6,true,1.00,863,385,839,25,38436
Krys-7,true,1.00,25,395,22,1,426
Krys-8,true,1.00,302,414,298,9,9805
Krys-9,true,1.00,10,369,8,1,404
Krys-10,true,1.00,1636,416,1631,51,70284
Krys-11,true,1.00,16,404,14,1,489
Krys-12,false,0.70,32016,999,31979,999,1808400
Krys-13,true,1.00,31,440,12,1,518
Krys-14,true,1.00,7155,388,7136,219,329205
Krys-15,true,1.00,1522,393,1518,46,78870
Krys-16,true,1.00,6168,407,6165,192,283193
Krys-17,true,1.00,8607,436,8606,264,469815
Krys-18,true,1.00,32,401,26,1,1219
Krys-19,true,1.00,1021,409,1018,31,48006
Krys-20,true,1.00,4612,425,4594,139,225701
Krys-21,true,1.00,18,378,8,1,369
Krys-22,true,1.00,21,368,10,1,478
Krys-23,true,1.00,1531,438,1527,47,70018
Krys-24,true,1.00,9265,476,9264,283,481714
Krys-25,true,1.00,1546,411,1543,47,84573
Krys-26,true,1.00,11,359,9,1,487
Krys-27,true,1.00,6006,398,6004,182,294082
Krys-28,true,1.00,8777,441,8776,275,448809
Krys-29,true,1.00,5536,446,5534,168,310352
Krys-30,true,1.00,10248,490,10234,311,501148
Krys-31,true,1.00,56,384,53,2,1650
Krys-32,true,1.00,19,430,11,1,513
Krys-33,true,1.00,14,402,12,1,448
Krys-34,true,1.00,623,386,620,19,33741
Krys-35,true,1.00,2806,372,2804,85,142383
Krys-36,true,1.00,11579,431,11578,351,628954
Krys-37,true,1.00,2706,423,2704,82,156431
Krys-38,true,1.00,518,428,515,16,30856
Krys-39,true,1.00,10814,407,10798,327,583280
Krys-40,true,1.00,9404,419,9403,285,525708
Krys-41,false,0.70,31947,999,31947,999,1835929
Krys-42,true,1.00,12,366,9,1,479
Krys-43,true,1.00,45,351,42,2,781
Krys-44,true,1.00,8245,435,8244,254,500074
Krys-45,true,1.00,4606,423,4604,143,207062
Krys-46,true,1.00,7415,448,7414,225,396274
Krys-47,true,1.00,25,453,22,1,1122
Krys-48,true,1.00,14,374,12,1,606
Krys-49,true,1.00,27,464,24,1,1080
Krys-50,true,1.00,10336,483,10335,314,520089
Krys-51,true,1.00,35,411,32,1,1559
Krys-52,true,1.00,522,378,519,16,23293
Krys-53,true,1.00,10853,478,10852,331,577581
Krys-54,true,1.00,5050,430,5048,153,269841
Krys-55,true,1.00,10334,457,10332,315,575256
Krys-56,true,1.00,3803,354,3794,116,184420
Krys-57,true,1.00,14,362,11,1,640
Krys-58,true,1.00,6801,423,6799,209,373863
Krys-59,true,1.00,8798,393,8797,272,412130
Krys-60,true,1.00,11199,410,11174,339,599184
Krys-61,true,1.00,5598,376,5596,170,287293
Krys-62,true,1.00,6773,431,6771,209,300665
Krys-63,true,1.00,14104,589,14103,438,744959
Krys-64,true,1.00,1777,444,1774,54,103549
Krys-65,true,1.00,8674,435,8671,266,428391
Krys-66,true,1.00,11381,475,11380,345,521783
Krys-67,true,1.00,10329,477,10328,314,580704
Krys-68,true,1.00,13,375,11,1,575
Krys-69,true,1.00,9402,473,9401,286,460996
Krys-70,true,1.00,10448,437,10447,317,545256
Krys-71,true,1.00,15,413,13,1,664
Krys-72,true,1.00,30,419,12,1,514
Krys-73,true,1.00,11676,491,11675,356,596428
Krys-74,true,1.00,18,391,15,1,641
Krys-75,true,1.00,32,392,29,1,1262
Krys-76,true,1.00,4520,375,4518,137,227319
Krys-77,true,1.00,12,401,9,1,459
Krys-78,true,1.00,10189,474,10188,309,531612
Krys-79,true,1.00,68,400,65,2,2904
Krys-80,true,1.00,26,453,21,1,951
Krys-81,true,1.00,17,386,16,1,659
Krys-82,true,1.00,1186,362,1184,36,55621
Krys-83,true,1.00,12659,465,12656,385,651959
Krys-84,true,1.00,12,385,7,1,325
Krys-85,true,1.00,6969,441,6968,221,381697
Krys-86,true,1.00,8179,466,8178,250,467839
Krys-87,true,1.00,14,392,11,1,496
Krys-88,true,1.00,8151,425,8150,247,433826
Krys-89,true,1.00,27,408,24,1,995
Krys-90,true,1.00,57,363,54,2,3131
Krys-91,true,1.00,14,404,11,1,518
Krys-92,true,1.00,11058,425,11056,340,538891
Krys-93,true,1.00,58,357,55,2,2801
Krys-94,true,1.00,16,380,12,1,605
Krys-95,true,1.00,557,370,550,17,25091
Krys-96,true,1.00,12,407,9,1,520
Krys-97,true,1.00,6220,362,6219,189,319216
Krys-98,true,1.00,13206,496,13205,407,630610
Krys-99,true,1.00,6520,403,6519,198,295343
Krys-100,true,1.00,9,376,6,1,357
