TTFW:2.0
SS:8
level,win/fail,% travelled,run time,game ticks,planning time,total plannings,nodes evaluated,most backtracked nodes
Krys-1,false,0.75,7934,428,7919,428,129436
Krys-2,true,1.00,843,721,781,23,11281
Krys-3,false,0.70,14288,999,14273,999,272296
Krys-4,true,1.00,12197,717,12165,449,205466
Krys-5,true,1.00,2188,658,2170,66,38605
Krys-6,true,1.00,14567,574,14557,446,233920
Krys-7,true,1.00,27,561,13,1,175
Krys-8,true,1.00,10127,765,10086,309,165954
Krys-9,true,1.00,13636,744,13624,430,212587
Krys-10,true,1.00,13583,709,13575,421,231031
Krys-11,true,1.00,273,691,258,8,3786
Krys-12,false,0.70,14507,999,14482,999,236342
Krys-13,false,0.56,6370,208,6370,208,107851
Krys-14,true,1.00,27,523,10,1,129
Krys-15,true,1.00,17079,654,17076,574,347194
