TTFW:0.8
SS:30
level,win/fail,% travelled,run time,game ticks,planning time,total plannings,nodes evaluated,most backtracked nodes
Krys-1,false,0.57,1276,999,1269,999,4412
Krys-2,false,0.57,1182,648,1180,648,6303
Krys-3,false,0.18,448,999,437,999,2249
Krys-4,false,0.44,761,547,755,547,4524
Krys-5,false,0.18,637,999,631,999,4423
Krys-6,false,0.11,130,110,129,110,748
Krys-7,false,0.48,3234,999,3198,999,16658
Krys-8,false,0.31,838,190,831,190,4207
Krys-9,false,0.52,1596,999,1588,999,9422
Krys-10,false,0.18,553,999,541,999,3120
Krys-11,false,0.70,1923,623,1918,623,10541
Krys-12,false,0.10,768,999,761,999,3651
Krys-13,false,0.50,558,999,551,999,3239
Krys-14,false,0.11,130,110,130,110,748
Krys-15,false,0.06,1286,999,1284,999,7503
