TTFW:1.2
SS:9
level,win/fail,% travelled,run time,game ticks,planning time,total plannings,nodes evaluated,most backtracked nodes
Krys-1,true,1.00,15833,946,15800,786,227529
Krys-2,true,1.00,10265,609,10254,356,141356
Krys-3,false,0.70,15507,999,15495,999,247993
Krys-4,true,1.00,17734,703,17704,609,258317
Krys-5,true,1.00,15571,699,15567,485,250010
Krys-6,true,1.00,14022,972,14007,457,202599
Krys-7,true,1.00,547,617,534,16,8100
Krys-8,true,1.00,25982,980,25977,874,399278
Krys-9,true,1.00,7605,717,7596,230,120074
Krys-10,true,1.00,9909,650,9899,316,150554
Krys-11,true,1.00,5211,713,5171,163,72661
Krys-12,false,0.61,25419,999,25379,999,338630
Krys-13,false,0.55,7269,260,7262,260,109465
Krys-14,true,1.00,193,698,152,4,1905
Krys-15,true,1.00,14284,642,14275,621,239673
