TTFW:2.0
SS:2
level,win/fail,% travelled,run time,game ticks,planning time,total plannings,nodes evaluated,most backtracked nodes
patternCount-1,false,0.93,11949,381,11940,381,1346940
patternCount-2,true,1.00,30,364,6,1,467
patternCount-3,true,1.00,34,423,15,1,1308
patternCount-4,true,1.00,30,377,25,1,668
patternCount-5,true,1.00,25,401,7,1,662
patternCount-6,true,1.00,12,360,8,1,625
patternCount-7,true,1.00,13,373,9,1,615
patternCount-8,true,1.00,18,372,12,1,1013
patternCount-9,true,1.00,30,384,9,1,758
patternCount-10,true,1.00,10,343,5,1,361
patternCount-11,true,1.00,29,392,17,1,972
patternCount-12,true,1.00,44,376,17,1,1494
patternCount-13,true,1.00,11,377,6,1,435
patternCount-14,true,1.00,24,370,11,1,813
patternCount-15,true,1.00,28,380,6,1,555
