TTFW:1.0
SS:6
level,win/fail,% travelled,run time,game ticks,planning time,total plannings,nodes evaluated,most backtracked nodes
patternCount-1,false,0.98,18394,655,18388,655,623789
patternCount-2,true,1.00,42,516,6,1,149
patternCount-3,true,1.00,15691,582,15691,519,480435
patternCount-4,true,1.00,12,581,7,1,184
patternCount-5,true,1.00,12,577,7,1,180
patternCount-6,true,1.00,9,503,5,1,138
patternCount-7,true,1.00,12,578,8,1,169
patternCount-8,true,1.00,24,625,11,1,319
patternCount-9,true,1.00,15,580,8,1,227
patternCount-10,true,1.00,9,514,7,1,124
patternCount-11,true,1.00,15166,595,15165,496,510592
patternCount-12,true,1.00,11,487,8,1,158
patternCount-13,true,1.00,8,416,5,1,103
patternCount-14,true,1.00,10,513,6,1,139
patternCount-15,true,1.00,11,558,7,1,139
