TTFW:0.4
SS:8
level,win/fail,% travelled,run time,game ticks,planning time,total plannings,nodes evaluated,most backtracked nodes
Mario-1,true,1.00,51,445,17,1,59
Mario-2,true,1.00,390,448,352,10,1068
Mario-3,true,1.00,48,389,22,1,74
Mario-4,false,0.95,25606,769,25543,769,654976
Mario-5,true,1.00,46,725,13,1,203
Mario-6,true,1.00,23,437,4,1,101
Mario-7,true,1.00,85,654,52,2,996
Mario-8,true,1.00,723,673,693,19,5653
Mario-9,true,1.00,51,565,21,1,95
Mario-10,true,1.00,31,397,24,1,107
Mario-11,true,1.00,48,613,19,1,110
Mario-12,true,1.00,405,950,364,10,1615
Mario-13,true,1.00,40,517,13,1,328
Mario-14,true,1.00,40,525,8,1,112
Mario-15,true,1.00,1726,1351,1686,51,27069
