TTFW:0.2
SS:4
level,win/fail,% travelled,run time,game ticks,planning time,total plannings,nodes evaluated,most backtracked nodes
Mario-1,true,1.00,53,425,24,1,127
Mario-2,true,1.00,69,347,60,2,212
Mario-3,true,1.00,31,333,24,1,212
Mario-4,true,1.00,951,502,930,27,7205
Mario-5,true,1.00,350,494,335,10,1147
Mario-6,true,1.00,27,301,25,1,412
Mario-7,true,1.00,8,452,5,1,201
Mario-8,true,1.00,30,395,11,1,416
Mario-9,true,1.00,360,394,350,10,689
Mario-10,true,1.00,37,381,31,1,364
Mario-11,true,1.00,21,449,7,1,271
Mario-12,true,1.00,56,701,29,1,682
Mario-13,true,1.00,11,341,6,1,230
Mario-14,true,1.00,28,449,6,1,188
Mario-15,true,1.00,53,837,28,1,486
