TTFW:0.8
SS:8
level,win/fail,% travelled,run time,game ticks,planning time,total plannings,nodes evaluated,most backtracked nodes
Mario-1,true,1.00,64,445,29,1,59
Mario-2,true,1.00,157,514,133,4,462
Mario-3,true,1.00,46,389,15,1,74
Mario-4,false,0.95,26166,785,26122,785,701151
Mario-5,true,1.00,45,725,11,1,203
Mario-6,true,1.00,6,437,3,1,101
Mario-7,true,1.00,144,632,125,4,1922
Mario-8,true,1.00,168,682,141,4,2142
Mario-9,true,1.00,54,565,23,1,95
Mario-10,true,1.00,22,397,15,1,107
Mario-11,true,1.00,33,613,23,1,110
Mario-12,true,1.00,544,1010,500,14,2176
Mario-13,true,1.00,32,517,14,1,328
Mario-14,true,1.00,15,525,7,1,112
Mario-15,true,1.00,1774,1351,1722,51,28994
