TTFW:0.2
SS:30
level,win/fail,% travelled,run time,game ticks,planning time,total plannings,nodes evaluated,most backtracked nodes
Krys-1,false,0.57,1473,999,1438,999,4417
Krys-2,false,0.57,1382,648,1369,648,6303
Krys-3,false,0.18,515,999,503,999,2249
Krys-4,false,0.44,995,547,989,547,4524
Krys-5,false,0.18,847,999,840,999,4423
Krys-6,false,0.11,253,110,251,110,748
Krys-7,false,0.48,4635,999,4594,999,16658
Krys-8,false,0.31,1163,190,1159,190,4207
Krys-9,false,0.52,2249,999,2240,999,9422
Krys-10,false,0.18,745,999,738,999,3120
Krys-11,false,0.70,2766,623,2764,623,10541
Krys-12,false,0.10,890,999,882,999,3651
Krys-13,false,0.50,713,999,706,999,3239
Krys-14,false,0.11,255,110,253,110,748
Krys-15,false,0.06,1961,999,1952,999,7503
