TTFW:1.8
SS:9
level,win/fail,% travelled,run time,game ticks,planning time,total plannings,nodes evaluated,most backtracked nodes
Mario-1,true,1.00,81,473,32,1,54
Mario-2,true,1.00,218,473,163,5,387
Mario-3,true,1.00,337,588,298,8,1187
Mario-4,true,1.00,25343,805,25267,765,485380
Mario-5,true,1.00,417,869,351,10,1405
Mario-6,true,1.00,45,489,19,1,119
Mario-7,true,1.00,4161,686,4082,124,77670
Mario-8,true,1.00,10654,779,10614,331,214461
Mario-9,true,1.00,151,475,101,3,394
Mario-10,true,1.00,279,479,246,7,1284
Mario-11,true,1.00,68,680,29,1,158
Mario-12,true,1.00,188,1015,120,3,926
Mario-13,true,1.00,104,564,71,2,556
Mario-14,true,1.00,57,563,13,1,100
Mario-15,true,1.00,40542,1462,40532,1260,623044
