TTFW:1.4
SS:3
level,win/fail,% travelled,run time,game ticks,planning time,total plannings,nodes evaluated,most backtracked nodes
patternCount-1,true,1.00,13510,489,13508,423,963936
patternCount-2,true,1.00,24,423,6,1,279
patternCount-3,true,1.00,12,473,9,1,507
patternCount-4,true,1.00,10,448,7,1,344
patternCount-5,true,1.00,8,427,4,1,251
patternCount-6,true,1.00,16,429,6,1,325
patternCount-7,true,1.00,11,455,8,1,410
patternCount-8,true,1.00,12,454,9,1,447
patternCount-9,true,1.00,14,474,12,1,320
patternCount-10,true,1.00,8,429,5,1,271
patternCount-11,true,1.00,16,514,10,1,457
patternCount-12,true,1.00,27,443,10,1,557
patternCount-13,true,1.00,8,447,5,1,307
patternCount-14,true,1.00,12,397,8,1,420
patternCount-15,true,1.00,9,429,5,1,270
