TTFW:1.2
SS:7
level,win/fail,% travelled,run time,game ticks,planning time,total plannings,nodes evaluated,most backtracked nodes
Krys-1,true,1.00,7880,761,7878,241,186157
Krys-2,true,1.00,4505,543,4486,135,88290
Krys-3,true,1.00,15251,850,15225,561,383977
Krys-4,true,1.00,169,648,153,5,3025
Krys-5,true,1.00,40,570,18,1,389
Krys-6,true,1.00,433,624,429,13,8086
Krys-7,true,1.00,25,486,5,1,114
Krys-8,true,1.00,121,600,117,3,1642
Krys-9,true,1.00,18,510,14,1,301
Krys-10,true,1.00,271,577,267,8,3795
Krys-11,true,1.00,510,518,506,16,10402
Krys-12,false,0.70,21478,999,21472,999,544364
Krys-13,true,1.00,9670,603,9668,349,226799
Krys-14,true,1.00,42,542,23,1,417
Krys-15,true,1.00,7998,609,7994,243,215454
