TTFW:1.6
SS:30
level,win/fail,% travelled,run time,game ticks,planning time,total plannings,nodes evaluated,most backtracked nodes
Mario-1,true,1.00,19210,1262,19149,1228,145294
Mario-2,false,0.60,2955,435,2941,435,15659
Mario-3,false,0.12,84,33,84,33,112
Mario-4,false,0.26,449,155,446,155,1247
Mario-5,false,0.21,895,196,861,196,2212
Mario-6,false,0.17,15,44,10,44,148
Mario-7,false,0.34,483,199,483,199,1754
Mario-8,false,0.40,218,276,202,276,2223
Mario-9,false,0.23,433,199,420,199,2891
Mario-10,false,0.11,8,31,8,31,99
Mario-11,false,0.08,9,34,9,34,125
Mario-12,false,0.61,3801,6666,3743,6666,24642
Mario-13,false,0.10,53,31,50,31,99
Mario-14,true,1.00,2075,849,2015,755,9380
Mario-15,false,0.64,1517,844,1499,844,7762
