TTFW:0.6
SS:1
level,win/fail,% travelled,run time,game ticks,planning time,total plannings,nodes evaluated,most backtracked nodes
Krys-1,true,1.00,7865,297,7863,249,952622
Krys-2,false,0.79,32760,999,32716,999,4634726
Krys-3,false,0.80,9423,293,9396,293,1156799
Krys-4,false,0.66,5547,175,5525,175,616515
Krys-5,true,1.00,5552,241,5548,166,710366
Krys-6,true,1.00,7367,268,7364,219,904732
Krys-7,true,1.00,6930,248,6929,211,902145
Krys-8,true,1.00,7199,258,7199,214,834309
Krys-9,true,1.00,8147,279,8144,243,1055032
Krys-10,true,1.00,8062,304,8059,248,1064643
Krys-11,true,1.00,8011,277,8009,240,934773
Krys-12,true,1.00,8551,293,8549,256,1004653
Krys-13,true,1.00,7734,269,7731,228,908408
Krys-14,false,0.79,32583,999,32564,999,4593509
Krys-15,false,0.80,6832,209,6832,209,891628
