TTFW:1.8
SS:4
level,win/fail,% travelled,run time,game ticks,planning time,total plannings,nodes evaluated,most backtracked nodes
Krys-1,true,1.00,6322,518,6313,188,218421
Krys-2,true,1.00,3776,385,3761,114,144178
Krys-3,true,1.00,11350,551,11332,343,469443
Krys-4,true,1.00,7377,492,7359,224,309985
Krys-5,true,1.00,13,423,8,1,332
Krys-6,true,1.00,80,391,63,2,2358
Krys-7,true,1.00,11,462,8,1,277
Krys-8,true,1.00,90,435,87,3,1827
Krys-9,true,1.00,10,411,7,1,264
Krys-10,true,1.00,959,446,956,29,37810
Krys-11,true,1.00,21,442,13,1,374
Krys-12,true,1.00,9496,518,9494,289,367456
Krys-13,true,1.00,552,375,521,15,17651
Krys-14,true,1.00,3864,459,3860,117,137997
Krys-15,true,1.00,36,458,31,1,760
