TTFW:1.8
SS:9
level,win/fail,% travelled,run time,game ticks,planning time,total plannings,nodes evaluated,most backtracked nodes
patternCount-1,false,0.80,12731,451,12731,451,232520
patternCount-2,true,1.00,46,738,25,1,215
patternCount-3,true,1.00,20979,825,20974,803,356797
patternCount-4,true,1.00,5137,664,5125,181,89997
patternCount-5,true,1.00,210,696,192,15,1674
patternCount-6,true,1.00,27,593,13,2,118
patternCount-7,true,1.00,164,857,143,83,2690
patternCount-8,true,1.00,18038,714,18031,659,316737
patternCount-9,true,1.00,31,596,18,1,180
patternCount-10,true,1.00,31,674,13,1,127
patternCount-11,false,0.85,24879,908,24876,908,454684
patternCount-12,true,1.00,27,571,16,1,157
patternCount-13,true,1.00,39,603,27,3,345
patternCount-14,true,1.00,116,663,101,3,1498
patternCount-15,true,1.00,32,726,14,1,145
