TTFW:0.2
SS:9
level,win/fail,% travelled,run time,game ticks,planning time,total plannings,nodes evaluated,most backtracked nodes
Mario-1,true,1.00,73,473,33,1,54
Mario-2,true,1.00,423,532,327,10,632
Mario-3,true,1.00,114,491,50,1,205
Mario-4,true,1.00,19452,762,19387,587,385505
Mario-5,true,1.00,956,848,877,25,3196
Mario-6,true,1.00,75,489,36,1,119
Mario-7,true,1.00,4972,710,4918,148,86639
Mario-8,true,1.00,10495,876,10452,329,218753
Mario-9,true,1.00,140,475,103,3,383
Mario-10,true,1.00,274,479,245,7,884
Mario-11,true,1.00,204,674,140,4,413
Mario-12,true,1.00,226,1016,168,4,1243
Mario-13,true,1.00,77,509,24,1,364
Mario-14,true,1.00,51,563,13,1,100
Mario-15,true,1.00,40509,1462,40506,1260,641726
