TTFW:1.6
SS:1
level,win/fail,% travelled,run time,game ticks,planning time,total plannings,nodes evaluated,most backtracked nodes
patternCount-1,false,0.94,9313,294,9312,294,1300993
patternCount-2,true,1.00,2144,310,2142,64,276746
patternCount-3,true,1.00,8733,310,8731,257,958934
patternCount-4,true,1.00,4233,314,4231,125,539221
patternCount-5,true,1.00,530,318,528,16,73879
patternCount-6,true,1.00,98,308,96,3,6782
patternCount-7,true,1.00,173,308,171,5,19015
patternCount-8,true,1.00,8102,313,8100,239,1117492
patternCount-9,true,1.00,4121,306,4120,124,599988
patternCount-10,true,1.00,19,304,17,1,2307
patternCount-11,true,1.00,7551,309,7549,220,804797
patternCount-12,true,1.00,5060,316,5059,152,764681
patternCount-13,true,1.00,21,304,19,1,2133
patternCount-14,true,1.00,51,302,50,2,7066
patternCount-15,true,1.00,3084,310,3083,91,424306
