TTFW:0.6
SS:3
level,win/fail,% travelled,run time,game ticks,planning time,total plannings,nodes evaluated,most backtracked nodes
patternCount-1,true,1.00,13513,489,13510,423,931310
patternCount-2,true,1.00,11,423,7,1,279
patternCount-3,true,1.00,13,473,9,1,507
patternCount-4,true,1.00,10,448,7,1,344
patternCount-5,true,1.00,15,427,6,1,251
patternCount-6,true,1.00,17,429,7,1,325
patternCount-7,true,1.00,11,455,8,1,410
patternCount-8,true,1.00,20,454,11,1,447
patternCount-9,true,1.00,11,474,7,1,320
patternCount-10,true,1.00,23,429,5,1,271
patternCount-11,true,1.00,13,514,10,1,457
patternCount-12,true,1.00,29,443,26,1,557
patternCount-13,true,1.00,9,447,6,1,307
patternCount-14,true,1.00,19,397,8,1,420
patternCount-15,true,1.00,10,429,8,1,270
