TTFW:1.6
SS:10
level,win/fail,% travelled,run time,game ticks,planning time,total plannings,nodes evaluated,most backtracked nodes
Mario-1,true,1.00,255,549,189,5,403
Mario-2,true,1.00,590,588,529,15,1146
Mario-3,true,1.00,1147,697,1090,33,9083
Mario-4,false,0.95,215932,6612,215832,6612,3988097
Mario-5,true,1.00,693,832,638,18,1612
Mario-6,true,1.00,282,579,197,6,2117
Mario-7,true,1.00,156,695,19,1,156
Mario-8,true,1.00,2382,724,2327,68,36698
Mario-9,true,1.00,80,535,26,1,95
Mario-10,true,1.00,441,686,420,12,1977
Mario-11,false,0.94,20630,657,20621,657,304753
Mario-12,true,1.00,12782,1031,12749,387,184163
Mario-13,true,1.00,3859,664,3826,130,61357
Mario-14,true,1.00,33,575,14,1,83
Mario-15,true,1.00,43934,1384,43901,1350,622318
