TTFW:1.4
SS:5
level,win/fail,% travelled,run time,game ticks,planning time,total plannings,nodes evaluated,most backtracked nodes
Krys-1,true,1.00,663,599,613,18,10580
Krys-2,true,1.00,50,395,39,2,640
Krys-3,true,1.00,13130,615,13105,417,458542
Krys-4,true,1.00,9520,578,9507,289,334894
Krys-5,true,1.00,31,449,7,1,246
Krys-6,true,1.00,1328,509,1297,39,38405
Krys-7,true,1.00,11,417,8,1,289
Krys-8,true,1.00,135,610,130,4,3645
Krys-9,true,1.00,7,424,4,1,146
Krys-10,true,1.00,36,502,31,1,1229
Krys-11,true,1.00,13,495,10,1,240
Krys-12,true,1.00,11608,631,11606,350,386127
Krys-13,true,1.00,11,412,8,1,199
Krys-14,true,1.00,162,451,138,5,3875
Krys-15,true,1.00,336,492,332,10,8011
