TTFW:1.2
SS:3
level,win/fail,% travelled,run time,game ticks,planning time,total plannings,nodes evaluated,most backtracked nodes
Krys-1,true,1.00,13713,562,13701,421,727512
Krys-2,true,1.00,7561,357,7541,231,375055
Krys-3,true,1.00,9991,489,9989,311,545171
Krys-4,true,1.00,8738,429,8719,270,478562
Krys-5,true,1.00,29,357,11,1,549
Krys-6,true,1.00,1049,385,1027,31,53926
Krys-7,true,1.00,23,395,9,1,435
Krys-8,true,1.00,198,409,191,6,7094
Krys-9,true,1.00,11,364,8,1,421
Krys-10,true,1.00,5619,422,5615,170,295287
Krys-11,true,1.00,16,404,12,1,489
Krys-12,false,0.70,32024,999,32005,999,1755282
Krys-13,true,1.00,49,440,19,1,573
Krys-14,true,1.00,7318,375,7309,224,365780
Krys-15,true,1.00,6071,378,6069,184,343462
