TTFW:2.0
SS:6
level,win/fail,% travelled,run time,game ticks,planning time,total plannings,nodes evaluated,most backtracked nodes
Krys-1,true,1.00,104,576,79,3,1648
Krys-2,true,1.00,2335,513,2317,68,40708
Krys-3,false,0.70,27777,999,27772,999,775329
Krys-4,true,1.00,71,581,32,1,746
Krys-5,true,1.00,22,442,8,1,214
Krys-6,true,1.00,1022,448,1019,30,21128
Krys-7,true,1.00,41,460,7,1,153
Krys-8,true,1.00,47,537,25,1,417
Krys-9,true,1.00,29,470,23,1,447
Krys-10,true,1.00,294,528,260,8,4228
Krys-11,true,1.00,28,518,6,1,127
Krys-12,true,1.00,13085,569,13069,403,328566
Krys-13,true,1.00,25,467,21,1,319
Krys-14,true,1.00,7638,496,7621,231,181632
Krys-15,true,1.00,38,581,32,1,911
