TTFW:1.4
SS:1
level,win/fail,% travelled,run time,game ticks,planning time,total plannings,nodes evaluated,most backtracked nodes
Mario-1,true,1.00,9276,311,9259,269,1263065
Mario-2,true,1.00,6276,256,6235,180,673485
Mario-3,false,0.54,3806,126,3804,126,559784
Mario-4,true,1.00,10712,350,10686,314,1290025
Mario-5,true,1.00,9344,315,9299,271,1144706
Mario-6,false,0.41,2781,97,2779,97,403562
Mario-7,true,1.00,10704,363,10699,320,1578290
Mario-8,true,1.00,3946,291,3932,113,497942
Mario-9,true,1.00,9362,309,9319,270,1182218
Mario-10,true,1.00,291,226,272,8,38016
Mario-11,true,1.00,9221,316,9208,270,1347288
Mario-12,true,1.00,11286,373,11280,328,1553021
Mario-13,true,1.00,6896,255,6896,202,1204058
Mario-14,true,1.00,1228,263,1190,33,115585
Mario-15,true,1.00,19970,635,19931,596,2366963
