TTFW:2.0
SS:3
level,win/fail,% travelled,run time,game ticks,planning time,total plannings,nodes evaluated,most backtracked nodes
patternCount-1,true,1.00,13511,489,13509,423,969297
patternCount-2,true,1.00,18,423,15,1,279
patternCount-3,true,1.00,15,473,12,1,507
patternCount-4,true,1.00,10,448,7,1,344
patternCount-5,true,1.00,9,427,6,1,251
patternCount-6,true,1.00,9,429,6,1,325
patternCount-7,true,1.00,25,455,8,1,410
patternCount-8,true,1.00,13,454,10,1,447
patternCount-9,true,1.00,10,474,8,1,320
patternCount-10,true,1.00,9,429,5,1,271
patternCount-11,true,1.00,29,514,8,1,457
patternCount-12,true,1.00,30,443,10,1,557
patternCount-13,true,1.00,9,447,5,1,307
patternCount-14,true,1.00,13,397,8,1,420
patternCount-15,true,1.00,9,429,6,1,270
