TTFW:0.6
SS:8
level,win/fail,% travelled,run time,game ticks,planning time,total plannings,nodes evaluated,most backtracked nodes
Krys-1,true,1.00,9719,844,9714,596,193366
Krys-2,true,1.00,779,721,774,23,14857
Krys-3,false,0.70,12962,999,12955,999,310012
Krys-4,true,1.00,13896,768,13877,500,282171
Krys-5,true,1.00,2174,658,2164,66,47694
Krys-6,true,1.00,14569,574,14555,446,285226
Krys-7,true,1.00,13,561,8,1,175
Krys-8,true,1.00,971,669,966,29,19135
Krys-9,true,1.00,9270,608,9268,293,188767
Krys-10,true,1.00,6503,679,6500,201,136024
Krys-11,true,1.00,253,691,247,8,4542
Krys-12,false,0.70,14297,999,14268,999,286350
Krys-13,false,0.56,6370,208,6370,208,133462
Krys-14,true,1.00,44,523,7,1,129
Krys-15,true,1.00,17093,654,17068,574,428001
