TTFW:0.2
SS:3
level,win/fail,% travelled,run time,game ticks,planning time,total plannings,nodes evaluated,most backtracked nodes
patternCount-1,false,0.93,16078,508,16078,508,1093528
patternCount-2,true,1.00,40,423,6,1,279
patternCount-3,true,1.00,23,473,9,1,507
patternCount-4,true,1.00,14,448,7,1,344
patternCount-5,true,1.00,26,427,5,1,251
patternCount-6,true,1.00,10,429,7,1,325
patternCount-7,true,1.00,23,455,8,1,410
patternCount-8,true,1.00,13,454,9,1,447
patternCount-9,true,1.00,9,474,6,1,320
patternCount-10,true,1.00,9,429,6,1,271
patternCount-11,true,1.00,13,514,10,1,457
patternCount-12,true,1.00,28,443,25,1,557
patternCount-13,true,1.00,10,447,6,1,307
patternCount-14,true,1.00,13,397,8,1,420
patternCount-15,true,1.00,20,429,5,1,270
