TTFW:0.4
SS:2
level,win/fail,% travelled,run time,game ticks,planning time,total plannings,nodes evaluated,most backtracked nodes
patternCount-1,false,0.93,11961,391,11947,391,1169241
patternCount-2,true,1.00,30,364,6,1,467
patternCount-3,true,1.00,36,423,19,1,1308
patternCount-4,true,1.00,25,377,9,1,668
patternCount-5,true,1.00,14,401,9,1,662
patternCount-6,true,1.00,16,360,9,1,625
patternCount-7,true,1.00,14,373,9,1,615
patternCount-8,true,1.00,43,372,22,1,1013
patternCount-9,true,1.00,22,384,10,1,758
patternCount-10,true,1.00,11,343,6,1,361
patternCount-11,true,1.00,40,392,33,1,972
patternCount-12,true,1.00,47,376,26,1,1494
patternCount-13,true,1.00,12,377,6,1,435
patternCount-14,true,1.00,29,370,11,1,813
patternCount-15,true,1.00,25,380,8,1,555
