TTFW:2.0
SS:6
level,win/fail,% travelled,run time,game ticks,planning time,total plannings,nodes evaluated,most backtracked nodes
Mario-1,true,1.00,42,479,29,1,88
Mario-2,true,1.00,172,430,150,4,498
Mario-3,true,1.00,48,419,32,1,155
Mario-4,true,1.00,829,537,786,23,6102
Mario-5,true,1.00,378,513,346,10,1646
Mario-6,true,1.00,24,323,10,1,329
Mario-7,true,1.00,852,574,840,24,14664
Mario-8,true,1.00,323,535,297,9,1760
Mario-9,true,1.00,51,490,17,1,130
Mario-10,true,1.00,29,377,16,1,148
Mario-11,true,1.00,48,485,15,1,136
Mario-12,true,1.00,1402,835,1364,39,10559
Mario-13,true,1.00,22,413,11,1,393
Mario-14,true,1.00,25,509,20,1,134
Mario-15,true,1.00,7198,1164,7144,218,156979
