TTFW:0.6
SS:2
level,win/fail,% travelled,run time,game ticks,planning time,total plannings,nodes evaluated,most backtracked nodes
Krys-1,true,1.00,9893,446,9892,306,739755
Krys-2,false,0.79,25540,999,25512,999,1993673
Krys-3,true,1.00,8612,387,8591,267,637852
Krys-4,true,1.00,7901,381,7883,238,591002
Krys-5,true,1.00,55,312,53,2,2244
Krys-6,true,1.00,3680,304,3678,111,288972
Krys-7,true,1.00,29,352,24,1,1198
Krys-8,true,1.00,32,335,30,1,1950
Krys-9,true,1.00,15,329,13,1,987
Krys-10,true,1.00,9073,357,9072,275,682094
Krys-11,true,1.00,957,320,955,29,62110
Krys-12,true,1.00,8884,405,8869,270,675636
Krys-13,true,1.00,261,314,257,7,10706
Krys-14,false,0.79,25933,999,25928,999,2010717
Krys-15,true,1.00,25,345,23,1,1810
