TTFW:1.6
SS:10
level,win/fail,% travelled,run time,game ticks,planning time,total plannings,nodes evaluated,most backtracked nodes
patternCount-1,false,0.77,14823,582,14815,582,247643
patternCount-2,true,1.00,425,596,409,193,8064
patternCount-3,true,1.00,12111,720,12104,696,188521
patternCount-4,true,1.00,3137,805,3119,277,52449
patternCount-5,true,1.00,66,785,46,19,640
patternCount-6,true,1.00,46,833,26,1,232
patternCount-7,true,1.00,8829,640,8818,395,142011
patternCount-8,true,1.00,12745,596,12742,567,210147
patternCount-9,true,1.00,1609,544,1599,167,29476
patternCount-10,true,1.00,7001,529,6987,253,84390
patternCount-11,false,0.84,16255,652,16249,652,259904
patternCount-12,true,1.00,213,667,198,25,2778
patternCount-13,true,1.00,64,423,38,4,300
patternCount-14,true,1.00,506,655,489,64,8587
patternCount-15,true,1.00,2926,583,2897,169,46101
