TTFW:1.0
SS:5
level,win/fail,% travelled,run time,game ticks,planning time,total plannings,nodes evaluated,most backtracked nodes
patternCount-1,false,0.98,19218,649,19197,649,1012560
patternCount-2,true,1.00,38,514,6,1,187
patternCount-3,true,1.00,14193,621,14192,461,647732
patternCount-4,true,1.00,9,484,5,1,197
patternCount-5,true,1.00,27,536,7,1,207
patternCount-6,true,1.00,6,415,3,1,104
patternCount-7,true,1.00,10,471,7,1,167
patternCount-8,true,1.00,9,458,5,1,181
patternCount-9,true,1.00,8,454,5,1,140
patternCount-10,true,1.00,7,426,4,1,118
patternCount-11,true,1.00,22,646,18,1,385
patternCount-12,true,1.00,8,421,5,1,142
patternCount-13,true,1.00,6,365,4,1,108
patternCount-14,true,1.00,9,459,6,1,233
patternCount-15,true,1.00,22,511,5,1,164
