TTFW:1.2
SS:30
level,win/fail,% travelled,run time,game ticks,planning time,total plannings,nodes evaluated,most backtracked nodes
Krys-1,false,0.57,847,999,843,999,4417
Krys-2,false,0.57,1095,648,1088,648,6303
Krys-3,false,0.18,460,999,437,999,2249
Krys-4,false,0.44,705,547,703,547,4524
Krys-5,false,0.18,585,999,581,999,4423
Krys-6,false,0.11,130,110,129,110,748
Krys-7,false,0.48,3176,999,3141,999,16658
Krys-8,false,0.31,849,190,846,190,4207
Krys-9,false,0.52,1691,999,1681,999,9422
Krys-10,false,0.18,565,999,564,999,3120
Krys-11,false,0.70,1895,623,1889,623,10541
Krys-12,false,0.10,710,999,704,999,3651
Krys-13,false,0.50,608,999,603,999,3239
Krys-14,false,0.11,142,110,142,110,748
Krys-15,false,0.06,1304,999,1300,999,7503
