TTFW:0.6
SS:7
level,win/fail,% travelled,run time,game ticks,planning time,total plannings,nodes evaluated,most backtracked nodes
Krys-1,true,1.00,7266,693,7248,222,168169
Krys-2,true,1.00,4475,543,4454,135,90076
Krys-3,true,1.00,15237,850,15207,561,381920
Krys-4,true,1.00,181,648,153,5,2999
Krys-5,true,1.00,34,570,30,1,389
Krys-6,true,1.00,437,624,432,13,8662
Krys-7,true,1.00,27,486,7,1,114
Krys-8,true,1.00,49,591,30,1,490
Krys-9,true,1.00,34,510,18,1,301
Krys-10,true,1.00,102,531,98,3,2064
Krys-11,true,1.00,540,518,536,16,7952
Krys-12,false,0.70,21582,999,21570,999,543514
Krys-13,true,1.00,9691,603,9687,349,224115
Krys-14,true,1.00,42,542,22,1,417
Krys-15,true,1.00,8003,609,8000,243,214300
