TTFW:0.8
SS:5
level,win/fail,% travelled,run time,game ticks,planning time,total plannings,nodes evaluated,most backtracked nodes
Mario-1,true,1.00,48,470,18,1,104
Mario-2,true,1.00,43,409,31,1,134
Mario-3,true,1.00,32,355,24,1,154
Mario-4,true,1.00,216,560,191,6,1014
Mario-5,true,1.00,38,555,27,1,169
Mario-6,true,1.00,13,340,7,1,260
Mario-7,true,1.00,28,457,8,1,145
Mario-8,true,1.00,517,515,507,14,3053
Mario-9,true,1.00,39,424,10,1,117
Mario-10,true,1.00,49,410,25,1,310
Mario-11,true,1.00,48,450,24,1,171
Mario-12,true,1.00,110,721,72,2,486
Mario-13,true,1.00,177,364,153,5,1199
Mario-14,true,1.00,62,476,59,2,558
Mario-15,true,1.00,230,895,213,6,3095
