TTFW:0.2
SS:10
level,win/fail,% travelled,run time,game ticks,planning time,total plannings,nodes evaluated,most backtracked nodes
Krys-1,false,0.75,9192,488,9185,488,118547
Krys-2,true,1.00,9037,782,9023,273,136091
Krys-3,false,0.70,12624,999,12603,999,206129
Krys-4,true,1.00,18718,954,18704,720,268058
Krys-5,true,1.00,12125,881,12070,365,194935
Krys-6,false,0.76,19926,681,19895,681,266231
Krys-7,true,1.00,11408,720,11395,349,163725
Krys-8,false,0.96,23047,888,23045,888,289098
Krys-9,true,1.00,11211,747,11199,349,134434
Krys-10,false,0.91,26895,894,26868,894,394646
Krys-11,true,1.00,341,709,317,10,4267
Krys-12,false,0.61,11504,999,11486,999,141521
Krys-13,false,0.68,16492,565,16492,565,242108
Krys-14,true,1.00,517,821,497,15,6994
Krys-15,false,0.80,11363,516,11358,516,162987
