TTFW:1.8
SS:2
level,win/fail,% travelled,run time,game ticks,planning time,total plannings,nodes evaluated,most backtracked nodes
patternCount-1,false,0.93,11946,381,11938,381,1383015
patternCount-2,true,1.00,25,364,6,1,467
patternCount-3,true,1.00,35,423,17,1,1308
patternCount-4,true,1.00,14,377,8,1,668
patternCount-5,true,1.00,13,401,8,1,662
patternCount-6,true,1.00,29,360,8,1,625
patternCount-7,true,1.00,13,373,8,1,615
patternCount-8,true,1.00,35,372,14,1,1013
patternCount-9,true,1.00,30,384,9,1,758
patternCount-10,true,1.00,11,343,6,1,361
patternCount-11,true,1.00,31,392,25,1,972
patternCount-12,true,1.00,48,376,29,1,1494
patternCount-13,true,1.00,12,377,6,1,435
patternCount-14,true,1.00,15,370,10,1,813
patternCount-15,true,1.00,14,380,8,1,555
