TTFW:1.2
SS:3
level,win/fail,% travelled,run time,game ticks,planning time,total plannings,nodes evaluated,most backtracked nodes
patternCount-1,false,0.93,16078,508,16078,508,1071317
patternCount-2,true,1.00,39,423,7,1,279
patternCount-3,true,1.00,30,473,11,1,507
patternCount-4,true,1.00,30,448,7,1,344
patternCount-5,true,1.00,12,427,6,1,251
patternCount-6,true,1.00,11,429,8,1,325
patternCount-7,true,1.00,12,455,8,1,410
patternCount-8,true,1.00,14,454,10,1,447
patternCount-9,true,1.00,10,474,6,1,320
patternCount-10,true,1.00,11,429,6,1,271
patternCount-11,true,1.00,13,514,10,1,457
patternCount-12,true,1.00,14,443,11,1,557
patternCount-13,true,1.00,10,447,7,1,307
patternCount-14,true,1.00,11,397,8,1,420
patternCount-15,true,1.00,25,429,5,1,270
