TTFW:1.8
SS:4
level,win/fail,% travelled,run time,game ticks,planning time,total plannings,nodes evaluated,most backtracked nodes
patternCount-1,false,0.98,16886,554,16881,554,1056486
patternCount-2,true,1.00,37,502,7,1,249
patternCount-3,true,1.00,526,525,502,15,6493
patternCount-4,true,1.00,28,507,7,1,271
patternCount-5,true,1.00,8,461,4,1,192
patternCount-6,true,1.00,7,410,4,1,144
patternCount-7,true,1.00,13,456,5,1,187
patternCount-8,true,1.00,11,509,7,1,355
patternCount-9,true,1.00,26,452,6,1,199
patternCount-10,true,1.00,8,414,6,1,148
patternCount-11,true,1.00,58,536,54,2,1447
patternCount-12,true,1.00,23,427,21,1,238
patternCount-13,true,1.00,8,388,6,1,169
patternCount-14,true,1.00,18,391,6,1,191
patternCount-15,true,1.00,13,446,5,1,169
