TTFW:1.4
SS:3
level,win/fail,% travelled,run time,game ticks,planning time,total plannings,nodes evaluated,most backtracked nodes
Mario-1,true,1.00,35,446,9,1,258
Mario-2,true,1.00,51,323,25,1,196
Mario-3,true,1.00,589,290,565,16,6176
Mario-4,true,1.00,356,454,329,9,4036
Mario-5,true,1.00,33,464,25,1,380
Mario-6,true,1.00,86,285,66,2,3184
Mario-7,true,1.00,16,452,9,1,398
Mario-8,true,1.00,316,398,294,8,1159
Mario-9,true,1.00,728,379,706,21,1774
Mario-10,true,1.00,40,313,21,1,501
Mario-11,true,1.00,31,416,10,1,429
Mario-12,true,1.00,47,587,25,1,525
Mario-13,true,1.00,11,323,5,1,333
Mario-14,true,1.00,27,389,7,1,228
Mario-15,true,1.00,350,838,336,10,7382
