TTFW:0.8
SS:6
level,win/fail,% travelled,run time,game ticks,planning time,total plannings,nodes evaluated,most backtracked nodes
Mario-1,true,1.00,55,479,22,1,88
Mario-2,true,1.00,232,431,181,5,549
Mario-3,true,1.00,51,419,29,1,155
Mario-4,true,1.00,1446,553,1418,39,16386
Mario-5,true,1.00,360,550,345,11,1910
Mario-6,true,1.00,11,323,9,1,329
Mario-7,true,1.00,939,578,927,28,27548
Mario-8,true,1.00,392,513,353,11,2355
Mario-9,true,1.00,48,490,21,1,130
Mario-10,true,1.00,39,377,16,1,148
Mario-11,true,1.00,48,485,25,1,136
Mario-12,true,1.00,1295,850,1256,36,9077
Mario-13,true,1.00,26,413,23,1,393
Mario-14,true,1.00,27,509,21,1,134
Mario-15,true,1.00,6859,1167,6834,209,150501
