TTFW:1.0
SS:8
level,win/fail,% travelled,run time,game ticks,planning time,total plannings,nodes evaluated,most backtracked nodes
Mario-1,true,1.00,82,445,48,1,59
Mario-2,true,1.00,271,476,213,6,587
Mario-3,true,1.00,55,389,16,1,74
Mario-4,false,0.95,26447,802,26431,802,586979
Mario-5,true,1.00,73,725,34,1,203
Mario-6,true,1.00,31,437,6,1,101
Mario-7,true,1.00,79,605,37,1,591
Mario-8,true,1.00,493,747,446,13,2651
Mario-9,true,1.00,81,565,29,1,95
Mario-10,true,1.00,52,397,36,1,107
Mario-11,true,1.00,115,638,80,2,217
Mario-12,true,1.00,191,959,98,3,577
Mario-13,true,1.00,54,517,22,1,328
Mario-14,true,1.00,61,525,14,1,112
Mario-15,true,1.00,1872,1352,1800,52,25982
