TTFW:2.0
SS:10
level,win/fail,% travelled,run time,game ticks,planning time,total plannings,nodes evaluated,most backtracked nodes
Mario-1,true,1.00,170,557,108,3,242
Mario-2,true,1.00,1282,576,1180,33,1114
Mario-3,true,1.00,1736,870,1663,46,7495
Mario-4,false,0.95,215803,6607,215731,6607,3967713
Mario-5,true,1.00,358,813,321,9,782
Mario-6,true,1.00,260,578,172,5,1954
Mario-7,true,1.00,57,695,28,1,156
Mario-8,true,1.00,2858,747,2810,91,42489
Mario-9,true,1.00,180,528,145,4,318
Mario-10,true,1.00,180,707,145,3,493
Mario-11,false,0.94,20635,657,20630,657,428064
Mario-12,true,1.00,215,1197,108,3,1904
Mario-13,true,1.00,154,638,135,4,3016
Mario-14,true,1.00,152,577,107,3,208
Mario-15,true,1.00,41125,1303,41106,1269,611706
