TTFW:1.2
SS:9
level,win/fail,% travelled,run time,game ticks,planning time,total plannings,nodes evaluated,most backtracked nodes
Mario-1,true,1.00,56,473,9,1,54
Mario-2,true,1.00,507,553,452,13,1016
Mario-3,true,1.00,128,439,108,3,459
Mario-4,true,1.00,19482,762,19414,587,377078
Mario-5,true,1.00,157,870,72,2,340
Mario-6,true,1.00,72,489,37,1,119
Mario-7,true,1.00,5113,715,5059,153,95866
Mario-8,true,1.00,10678,779,10660,331,217691
Mario-9,true,1.00,153,475,102,3,384
Mario-10,true,1.00,255,479,221,7,1517
Mario-11,true,1.00,63,680,30,1,158
Mario-12,true,1.00,196,1015,106,3,1000
Mario-13,true,1.00,39,509,19,1,364
Mario-14,true,1.00,111,591,88,2,193
Mario-15,true,1.00,44486,1426,44463,1377,709235
