TTFW:0.4
SS:1
level,win/fail,% travelled,run time,game ticks,planning time,total plannings,nodes evaluated,most backtracked nodes
patternCount-1,false,0.94,9467,294,9466,294,1358717
patternCount-2,true,1.00,1878,310,1877,56,255081
patternCount-3,true,1.00,8712,310,8711,257,993672
patternCount-4,true,1.00,4232,314,4230,126,557900
patternCount-5,true,1.00,546,318,544,16,79599
patternCount-6,true,1.00,23,308,21,1,3011
patternCount-7,true,1.00,194,308,192,6,26625
patternCount-8,true,1.00,8045,313,8045,239,1156404
patternCount-9,true,1.00,4109,306,4108,124,601532
patternCount-10,true,1.00,18,304,16,1,2307
patternCount-11,true,1.00,7337,309,7334,217,788363
patternCount-12,true,1.00,5038,316,5036,152,759890
patternCount-13,true,1.00,17,304,15,1,2133
patternCount-14,true,1.00,51,302,49,2,7026
patternCount-15,true,1.00,3065,310,3063,91,425534
