TTFW:1.2
SS:7
level,win/fail,% travelled,run time,game ticks,planning time,total plannings,nodes evaluated,most backtracked nodes
Mario-1,true,1.00,42,453,14,1,69
Mario-2,true,1.00,529,497,454,13,825
Mario-3,true,1.00,86,411,26,1,140
Mario-4,false,0.95,218325,6666,218250,6666,6995465
Mario-5,true,1.00,84,657,62,2,510
Mario-6,true,1.00,24,383,5,1,176
Mario-7,true,1.00,78,615,57,2,974
Mario-8,true,1.00,49,620,39,1,414
Mario-9,true,1.00,32,454,17,1,94
Mario-10,true,1.00,98,378,94,3,629
Mario-11,true,1.00,378,631,364,11,1976
Mario-12,true,1.00,64,908,33,1,399
Mario-13,true,1.00,10,383,4,1,107
Mario-14,true,1.00,30,537,7,1,118
Mario-15,true,1.00,1053,1175,1000,30,17396
