TTFW:0.8
SS:10
level,win/fail,% travelled,run time,game ticks,planning time,total plannings,nodes evaluated,most backtracked nodes
Mario-1,true,1.00,57,555,10,1,94
Mario-2,true,1.00,395,592,319,9,746
Mario-3,true,1.00,1384,836,1343,42,5458
Mario-4,false,0.95,216137,6619,216066,6619,4000638
Mario-5,true,1.00,390,814,334,10,867
Mario-6,true,1.00,328,611,285,8,3084
Mario-7,true,1.00,411,695,382,11,1046
Mario-8,true,1.00,2940,746,2851,90,44857
Mario-9,true,1.00,122,566,64,2,191
Mario-10,true,1.00,839,707,775,23,3842
Mario-11,false,0.94,20654,657,20607,657,306932
Mario-12,true,1.00,12161,1012,12128,368,178599
Mario-13,true,1.00,3862,664,3844,130,61086
Mario-14,true,1.00,28,575,14,1,83
Mario-15,true,1.00,43741,1379,43731,1345,629557
