TTFW:1.4
SS:9
level,win/fail,% travelled,run time,game ticks,planning time,total plannings,nodes evaluated,most backtracked nodes
patternCount-1,false,0.80,12733,451,12731,451,228998
patternCount-2,true,1.00,40,738,19,1,215
patternCount-3,true,1.00,19586,804,19581,782,343894
patternCount-4,true,1.00,5140,664,5127,181,89270
patternCount-5,true,1.00,124,689,102,8,864
patternCount-6,true,1.00,48,593,30,2,118
patternCount-7,true,1.00,176,857,153,83,2690
patternCount-8,true,1.00,15706,635,15701,580,280331
patternCount-9,true,1.00,32,596,19,1,180
patternCount-10,true,1.00,69,674,21,1,127
patternCount-11,false,0.85,25927,985,25922,985,456312
patternCount-12,true,1.00,28,571,14,1,157
patternCount-13,true,1.00,41,603,25,3,345
patternCount-14,true,1.00,116,663,102,3,1511
patternCount-15,true,1.00,51,726,15,1,145
