TTFW:0.4
SS:9
level,win/fail,% travelled,run time,game ticks,planning time,total plannings,nodes evaluated,most backtracked nodes
Mario-1,true,1.00,78,473,16,1,54
Mario-2,true,1.00,432,532,336,10,740
Mario-3,true,1.00,80,491,32,1,205
Mario-4,true,1.00,19544,763,19434,588,385779
Mario-5,true,1.00,478,880,413,12,1499
Mario-6,true,1.00,282,452,250,7,785
Mario-7,true,1.00,5209,716,5112,154,89217
Mario-8,true,1.00,10556,876,10504,329,214999
Mario-9,true,1.00,156,475,106,3,407
Mario-10,true,1.00,259,479,229,7,1025
Mario-11,true,1.00,89,680,14,1,158
Mario-12,true,1.00,203,1015,122,3,798
Mario-13,true,1.00,78,509,35,1,364
Mario-14,true,1.00,27,563,16,1,100
Mario-15,true,1.00,41857,1355,41852,1306,637121
