TTFW:0.8
SS:4
level,win/fail,% travelled,run time,game ticks,planning time,total plannings,nodes evaluated,most backtracked nodes
patternCount-1,false,0.98,18415,601,18413,601,1129245
patternCount-2,true,1.00,37,502,8,1,249
patternCount-3,true,1.00,155,527,153,5,5524
patternCount-4,true,1.00,10,507,7,1,271
patternCount-5,true,1.00,7,461,4,1,192
patternCount-6,true,1.00,6,410,4,1,144
patternCount-7,true,1.00,18,456,5,1,187
patternCount-8,true,1.00,25,509,7,1,355
patternCount-9,true,1.00,8,452,4,1,199
patternCount-10,true,1.00,13,414,8,1,148
patternCount-11,true,1.00,47,527,29,1,851
patternCount-12,true,1.00,10,427,6,1,238
patternCount-13,true,1.00,8,388,4,1,169
patternCount-14,true,1.00,8,391,5,1,191
patternCount-15,true,1.00,7,446,4,1,169
