TTFW:1.0
SS:10
level,win/fail,% travelled,run time,game ticks,planning time,total plannings,nodes evaluated,most backtracked nodes
Mario-1,true,1.00,209,558,159,4,296
Mario-2,true,1.00,228,537,131,4,338
Mario-3,true,1.00,1585,806,1503,42,10850
Mario-4,false,0.95,215843,6608,215763,6608,3896219
Mario-5,true,1.00,129,816,54,2,298
Mario-6,true,1.00,250,578,174,5,1764
Mario-7,true,1.00,61,695,32,1,156
Mario-8,true,1.00,3851,744,3791,118,61412
Mario-9,true,1.00,105,535,31,1,95
Mario-10,true,1.00,488,686,434,12,1472
Mario-11,false,0.94,20641,657,20624,657,296923
Mario-12,true,1.00,12953,1036,12912,392,174573
Mario-13,true,1.00,3843,664,3829,130,63001
Mario-14,true,1.00,29,575,10,1,83
Mario-15,true,1.00,42514,1340,42488,1306,596217
