TTFW:0.4
SS:3
level,win/fail,% travelled,run time,game ticks,planning time,total plannings,nodes evaluated,most backtracked nodes
Krys-1,true,1.00,11913,559,11893,369,622907
Krys-2,true,1.00,7621,357,7600,231,372533
Krys-3,true,1.00,10684,509,10681,331,602523
Krys-4,true,1.00,8739,429,8719,270,492688
Krys-5,true,1.00,30,357,10,1,549
Krys-6,true,1.00,984,383,965,29,51834
Krys-7,true,1.00,28,395,9,1,435
Krys-8,true,1.00,212,409,205,6,8022
Krys-9,true,1.00,11,364,8,1,421
Krys-10,true,1.00,9108,399,9106,276,496734
Krys-11,true,1.00,16,404,12,1,489
Krys-12,false,0.70,32002,999,31977,999,1839068
Krys-13,true,1.00,48,440,23,1,573
Krys-14,true,1.00,7311,375,7309,224,370166
Krys-15,true,1.00,6082,378,6070,184,352388
