TTFW:1.4
SS:8
level,win/fail,% travelled,run time,game ticks,planning time,total plannings,nodes evaluated,most backtracked nodes
Krys-1,false,0.75,7683,428,7674,428,144597
Krys-2,true,1.00,2892,752,2836,86,53927
Krys-3,false,0.70,13099,999,13077,999,289851
Krys-4,true,1.00,13434,754,13410,486,247917
Krys-5,true,1.00,2205,658,2186,66,42471
Krys-6,true,1.00,14562,574,14559,446,260333
Krys-7,true,1.00,27,561,14,1,175
Krys-8,true,1.00,999,669,985,29,17216
Krys-9,true,1.00,9281,608,9275,293,173298
Krys-10,true,1.00,18723,856,18716,576,357945
Krys-11,true,1.00,270,691,252,8,4189
Krys-12,false,0.70,14432,999,14405,999,255456
Krys-13,false,0.56,6370,208,6370,208,115441
Krys-14,true,1.00,26,523,14,1,129
Krys-15,true,1.00,17503,667,17500,587,373052
