TTFW:2.0
SS:8
level,win/fail,% travelled,run time,game ticks,planning time,total plannings,nodes evaluated,most backtracked nodes
patternCount-1,false,0.93,18608,705,18604,705,386148
patternCount-2,true,1.00,5605,513,5594,264,124625
patternCount-3,true,1.00,11322,595,11306,446,235638
patternCount-4,true,1.00,258,874,241,33,5060
patternCount-5,true,1.00,448,682,431,38,9753
patternCount-6,true,1.00,62,576,36,3,629
patternCount-7,true,1.00,89,741,70,5,912
patternCount-8,true,1.00,20285,833,20280,782,416957
patternCount-9,true,1.00,2720,677,2702,132,59274
patternCount-10,true,1.00,23,537,9,1,98
patternCount-11,true,1.00,17538,701,17532,659,361160
patternCount-12,true,1.00,50,707,35,1,576
patternCount-13,true,1.00,220,477,208,54,4800
patternCount-14,true,1.00,175,649,153,4,1966
patternCount-15,true,1.00,56,626,15,1,140
