TTFW:2.0
SS:1
level,win/fail,% travelled,run time,game ticks,planning time,total plannings,nodes evaluated,most backtracked nodes
Krys-1,true,1.00,7808,297,7788,249,972281
Krys-2,false,0.79,32598,999,32595,999,4882945
Krys-3,false,0.80,9097,283,9079,283,1166696
Krys-4,false,0.66,5517,175,5502,175,660713
Krys-5,true,1.00,5504,239,5479,164,743956
Krys-6,true,1.00,7143,266,7143,213,936591
Krys-7,true,1.00,6922,248,6922,211,944669
Krys-8,true,1.00,7402,258,7401,222,912468
Krys-9,true,1.00,7612,273,7612,229,1063569
Krys-10,true,1.00,7422,285,7421,225,1034449
Krys-11,true,1.00,8011,277,8010,240,993889
Krys-12,true,1.00,8390,293,8390,252,1059913
Krys-13,true,1.00,7467,269,7464,224,950145
Krys-14,false,0.79,32477,999,32467,999,4835488
Krys-15,false,0.80,6748,209,6748,209,953913
