TTFW:0.8
SS:30
level,win/fail,% travelled,run time,game ticks,planning time,total plannings,nodes evaluated,most backtracked nodes
patternCount-1,false,0.13,378,999,372,999,1978
patternCount-2,false,0.00,373,999,368,999,1968
patternCount-3,false,0.00,364,999,359,999,1968
patternCount-4,false,0.00,2,21,2,21,21
patternCount-5,false,0.00,1,21,1,21,21
patternCount-6,false,0.00,374,999,371,999,1968
patternCount-7,false,0.00,352,999,340,999,1968
patternCount-8,false,0.04,80,62,78,62,228
patternCount-9,false,0.00,1,21,0,21,21
patternCount-10,false,0.26,48,115,45,115,317
patternCount-11,false,0.00,399,999,395,999,1968
patternCount-12,false,0.00,374,999,369,999,1968
patternCount-13,false,0.00,320,999,315,999,1968
patternCount-14,false,0.00,365,999,362,999,1968
patternCount-15,false,0.00,338,999,329,999,1968
