TTFW:1.6
SS:8
level,win/fail,% travelled,run time,game ticks,planning time,total plannings,nodes evaluated,most backtracked nodes
patternCount-1,false,0.93,18610,705,18606,705,397292
patternCount-2,true,1.00,5567,513,5559,264,126275
patternCount-3,true,1.00,11286,595,11279,446,239406
patternCount-4,true,1.00,256,874,233,33,5089
patternCount-5,true,1.00,446,682,429,38,9753
patternCount-6,true,1.00,74,576,33,3,629
patternCount-7,true,1.00,91,741,69,5,974
patternCount-8,true,1.00,20267,833,20263,782,417691
patternCount-9,true,1.00,2694,677,2677,132,59438
patternCount-10,true,1.00,23,537,13,1,98
patternCount-11,true,1.00,17538,701,17531,659,364790
patternCount-12,true,1.00,51,707,33,1,576
patternCount-13,true,1.00,223,477,213,54,4800
patternCount-14,true,1.00,263,667,210,6,2993
patternCount-15,true,1.00,62,626,15,1,140
