TTFW:1.8
SS:6
level,win/fail,% travelled,run time,game ticks,planning time,total plannings,nodes evaluated,most backtracked nodes
Mario-1,true,1.00,98,480,46,2,171
Mario-2,true,1.00,291,427,265,7,870
Mario-3,true,1.00,44,419,19,1,155
Mario-4,true,1.00,832,537,800,23,6221
Mario-5,true,1.00,53,498,25,1,253
Mario-6,true,1.00,208,302,190,6,1220
Mario-7,true,1.00,1078,574,1060,30,15300
Mario-8,true,1.00,105,534,64,2,728
Mario-9,true,1.00,39,490,29,1,130
Mario-10,true,1.00,71,396,64,2,330
Mario-11,true,1.00,49,485,24,1,136
Mario-12,true,1.00,975,841,941,27,7965
Mario-13,true,1.00,27,413,13,1,393
Mario-14,true,1.00,29,509,23,1,134
Mario-15,true,1.00,7383,1164,7364,224,159408
