TTFW:1.2
SS:6
level,win/fail,% travelled,run time,game ticks,planning time,total plannings,nodes evaluated,most backtracked nodes
patternCount-1,false,0.98,18334,654,18332,654,635962
patternCount-2,true,1.00,36,516,6,1,149
patternCount-3,true,1.00,15654,582,15654,519,491683
patternCount-4,true,1.00,11,581,7,1,184
patternCount-5,true,1.00,12,577,7,1,180
patternCount-6,true,1.00,10,503,6,1,138
patternCount-7,true,1.00,11,578,7,1,169
patternCount-8,true,1.00,32,625,12,1,319
patternCount-9,true,1.00,13,580,10,1,227
patternCount-10,true,1.00,11,514,7,1,124
patternCount-11,true,1.00,16318,642,16317,543,565445
patternCount-12,true,1.00,10,487,7,1,158
patternCount-13,true,1.00,8,416,5,1,103
patternCount-14,true,1.00,14,513,6,1,139
patternCount-15,true,1.00,10,558,6,1,139
