TTFW:1.8
SS:2
level,win/fail,% travelled,run time,game ticks,planning time,total plannings,nodes evaluated,most backtracked nodes
Mario-1,true,1.00,80,358,41,1,474
Mario-2,true,1.00,368,291,344,10,4434
Mario-3,true,1.00,663,264,644,19,35575
Mario-4,true,1.00,8371,416,8349,250,693294
Mario-5,true,1.00,106,406,93,3,3309
Mario-6,true,1.00,3199,272,3156,95,378298
Mario-7,true,1.00,124,416,89,3,7361
Mario-8,true,1.00,35,342,25,1,1190
Mario-9,true,1.00,51,353,24,1,530
Mario-10,true,1.00,262,290,238,7,6879
Mario-11,true,1.00,42,360,22,1,928
Mario-12,true,1.00,651,488,639,18,24625
Mario-13,true,1.00,11,310,9,1,1030
Mario-14,true,1.00,10,335,7,1,490
Mario-15,true,1.00,140,738,133,4,6873
