TTFW:1.2
SS:8
level,win/fail,% travelled,run time,game ticks,planning time,total plannings,nodes evaluated,most backtracked nodes
Krys-1,false,0.75,7704,428,7697,428,139422
Krys-2,true,1.00,838,721,771,23,14141
Krys-3,false,0.70,12904,999,12892,999,295440
Krys-4,true,1.00,14477,785,14442,517,274710
Krys-5,true,1.00,2194,658,2173,66,42888
Krys-6,true,1.00,14559,574,14558,446,275105
Krys-7,true,1.00,26,561,11,1,175
Krys-8,true,1.00,973,669,958,29,17581
Krys-9,true,1.00,9284,608,9275,293,184298
Krys-10,true,1.00,6514,679,6504,201,132651
Krys-11,true,1.00,270,691,256,8,4469
Krys-12,false,0.70,14362,999,14319,999,279891
Krys-13,false,0.56,6372,208,6370,208,128554
Krys-14,true,1.00,26,523,14,1,129
Krys-15,true,1.00,17500,667,17498,587,414230
