TTFW:0.6
SS:10
level,win/fail,% travelled,run time,game ticks,planning time,total plannings,nodes evaluated,most backtracked nodes
Mario-1,true,1.00,65,555,12,1,94
Mario-2,true,1.00,413,592,314,9,753
Mario-3,true,1.00,888,697,857,23,5630
Mario-4,false,0.95,215786,6603,215650,6603,4008488
Mario-5,true,1.00,112,816,59,2,285
Mario-6,true,1.00,268,578,181,5,2304
Mario-7,true,1.00,139,695,26,1,156
Mario-8,true,1.00,2771,745,2707,89,42245
Mario-9,true,1.00,144,557,93,3,290
Mario-10,true,1.00,753,704,706,20,3319
Mario-11,false,0.94,20629,657,20619,657,312671
Mario-12,true,1.00,11626,994,11570,350,171772
Mario-13,true,1.00,3870,664,3840,130,63472
Mario-14,true,1.00,36,575,14,1,83
Mario-15,true,1.00,43160,1369,43141,1335,596449
