TTFW:0.2
SS:3
level,win/fail,% travelled,run time,game ticks,planning time,total plannings,nodes evaluated,most backtracked nodes
Krys-1,true,1.00,13006,551,12998,408,657380
Krys-2,true,1.00,7594,357,7593,231,358288
Krys-3,true,1.00,10149,492,10146,314,552988
Krys-4,true,1.00,8730,429,8706,270,491559
Krys-5,true,1.00,30,357,25,1,549
Krys-6,true,1.00,1053,385,1022,31,54862
Krys-7,true,1.00,13,395,10,1,435
Krys-8,true,1.00,363,415,360,10,10891
Krys-9,true,1.00,11,364,9,1,421
Krys-10,true,1.00,9179,394,9177,278,484811
Krys-11,true,1.00,16,404,12,1,489
Krys-12,false,0.70,31982,999,31960,999,1820736
Krys-13,true,1.00,42,440,15,1,573
Krys-14,true,1.00,7315,375,7298,224,365439
Krys-15,true,1.00,6073,378,6071,184,345654
