TTFW:0.6
SS:30
level,win/fail,% travelled,run time,game ticks,planning time,total plannings,nodes evaluated,most backtracked nodes
Mario-1,true,1.00,19193,1262,19129,1228,145192
Mario-2,false,0.60,2835,435,2825,435,15620
Mario-3,false,0.12,83,33,64,33,112
Mario-4,false,0.26,649,155,591,155,1246
Mario-5,false,0.21,842,196,836,196,2215
Mario-6,false,0.17,12,44,11,44,148
Mario-7,false,0.34,477,199,473,199,1754
Mario-8,false,0.40,223,276,204,276,2223
Mario-9,false,0.23,477,199,459,199,2891
Mario-10,false,0.11,7,31,7,31,99
Mario-11,false,0.08,9,34,9,34,125
Mario-12,false,0.61,3787,6666,3732,6666,24642
Mario-13,false,0.10,58,31,47,31,99
Mario-14,true,1.00,2095,849,2009,755,9394
Mario-15,false,0.64,1479,844,1470,844,7762
