TTFW:2.0
SS:8
level,win/fail,% travelled,run time,game ticks,planning time,total plannings,nodes evaluated,most backtracked nodes
Mario-1,true,1.00,106,438,51,2,114
Mario-2,true,1.00,327,462,280,8,685
Mario-3,true,1.00,68,389,15,1,74
Mario-4,false,0.95,26505,802,26456,802,572122
Mario-5,true,1.00,74,725,22,1,203
Mario-6,true,1.00,30,437,10,1,101
Mario-7,true,1.00,140,655,105,3,1360
Mario-8,true,1.00,605,765,546,15,3556
Mario-9,true,1.00,80,565,44,1,95
Mario-10,true,1.00,65,397,23,1,107
Mario-11,true,1.00,172,616,134,4,400
Mario-12,true,1.00,745,1102,650,18,2632
Mario-13,true,1.00,53,517,32,1,328
Mario-14,true,1.00,33,525,8,1,112
Mario-15,true,1.00,6301,1295,6219,187,92694
