TTFW:0.8
SS:1
level,win/fail,% travelled,run time,game ticks,planning time,total plannings,nodes evaluated,most backtracked nodes
Krys-1,true,1.00,7907,297,7862,249,1031408
Krys-2,false,0.79,32309,999,32304,999,5157902
Krys-3,false,0.80,9141,283,9116,283,1229565
Krys-4,true,1.00,9056,315,9031,272,1178811
Krys-5,true,1.00,5542,241,5542,166,775804
Krys-6,true,1.00,7064,266,7064,211,965455
Krys-7,true,1.00,6931,248,6931,211,998859
Krys-8,true,1.00,7418,260,7416,223,959257
Krys-9,true,1.00,7629,269,7628,228,1124403
Krys-10,true,1.00,7279,283,7278,220,1080759
Krys-11,true,1.00,7974,277,7974,240,1049302
Krys-12,true,1.00,8365,293,8364,251,1121884
Krys-13,true,1.00,7430,263,7430,222,992314
Krys-14,false,0.79,32231,999,32222,999,5212921
Krys-15,false,0.80,6843,209,6841,209,1008190
