TTFW:0.4
SS:7
level,win/fail,% travelled,run time,game ticks,planning time,total plannings,nodes evaluated,most backtracked nodes
Krys-1,true,1.00,7298,693,7295,222,162951
Krys-2,true,1.00,4504,572,4486,136,88809
Krys-3,true,1.00,15296,850,15262,561,373781
Krys-4,true,1.00,185,648,155,5,2926
Krys-5,true,1.00,35,570,31,1,389
Krys-6,true,1.00,479,583,460,14,8985
Krys-7,true,1.00,12,486,7,1,114
Krys-8,true,1.00,49,591,26,1,490
Krys-9,true,1.00,31,510,13,1,301
Krys-10,true,1.00,196,554,192,6,3562
Krys-11,true,1.00,523,518,519,16,9763
Krys-12,false,0.70,21803,999,21796,999,539392
Krys-13,true,1.00,9699,603,9697,349,221065
Krys-14,true,1.00,41,542,23,1,417
Krys-15,true,1.00,8013,609,8008,243,210456
